[INFO] Scanning for projects...
[INFO]                                                                         
[INFO] ------------------------------------------------------------------------
[INFO] Building Apache Commons DbUtils 1.7-SNAPSHOT
[INFO] ------------------------------------------------------------------------
[INFO] 
[INFO] --- maven-enforcer-plugin:1.3.1:enforce (enforce-maven-3) @ commons-dbutils ---
[INFO] 
[INFO] --- maven-antrun-plugin:1.7:run (javadoc.resources) @ commons-dbutils ---
[INFO] Executing tasks

main:
[INFO] Executed tasks
[INFO] 
[INFO] --- maven-remote-resources-plugin:1.5:process (default) @ commons-dbutils ---
[INFO] 
[INFO] --- buildnumber-maven-plugin:1.2:create (default) @ commons-dbutils ---
[INFO] Checking for local modifications: skipped.
[INFO] Updating project files from SCM: skipped.
[INFO] Executing: /bin/sh -c cd /home/lingming/hybrid-rts/subjects/commons-dbutils/82bb44fe36270805688a3021e6f48b702d65d1e7 && svn --non-interactive info
[INFO] Working directory: /home/lingming/hybrid-rts/subjects/commons-dbutils/82bb44fe36270805688a3021e6f48b702d65d1e7
[INFO] Storing buildNumber: ?????? at timestamp: 1483262200153
[INFO] Executing: /bin/sh -c cd /home/lingming/hybrid-rts/subjects/commons-dbutils/82bb44fe36270805688a3021e6f48b702d65d1e7 && svn --non-interactive info
[INFO] Working directory: /home/lingming/hybrid-rts/subjects/commons-dbutils/82bb44fe36270805688a3021e6f48b702d65d1e7
[INFO] Storing buildScmBranch: UNKNOWN_BRANCH
[INFO] 
[INFO] --- maven-resources-plugin:2.6:resources (default-resources) @ commons-dbutils ---
[INFO] Using 'iso-8859-1' encoding to copy filtered resources.
[INFO] skip non existing resourceDirectory /home/lingming/hybrid-rts/subjects/commons-dbutils/82bb44fe36270805688a3021e6f48b702d65d1e7/src/main/resources
[INFO] Copying 2 resources to META-INF
[INFO] 
[INFO] --- maven-compiler-plugin:3.1:compile (default-compile) @ commons-dbutils ---
[INFO] Changes detected - recompiling the module!
[INFO] Compiling 30 source files to /home/lingming/hybrid-rts/subjects/commons-dbutils/82bb44fe36270805688a3021e6f48b702d65d1e7/target/classes
[WARNING] /home/lingming/hybrid-rts/subjects/commons-dbutils/82bb44fe36270805688a3021e6f48b702d65d1e7/src/main/java/org/apache/commons/dbutils/BeanProcessor.java: /home/lingming/hybrid-rts/subjects/commons-dbutils/82bb44fe36270805688a3021e6f48b702d65d1e7/src/main/java/org/apache/commons/dbutils/BeanProcessor.java uses unchecked or unsafe operations.
[WARNING] /home/lingming/hybrid-rts/subjects/commons-dbutils/82bb44fe36270805688a3021e6f48b702d65d1e7/src/main/java/org/apache/commons/dbutils/BeanProcessor.java: Recompile with -Xlint:unchecked for details.
[INFO] 
[INFO] --- maven-bundle-plugin:2.4.0:manifest (bundle-manifest) @ commons-dbutils ---
[INFO] 
[INFO] --- maven-resources-plugin:2.6:testResources (default-testResources) @ commons-dbutils ---
[INFO] Using 'iso-8859-1' encoding to copy filtered resources.
[INFO] Copying 1 resource
[INFO] Copying 2 resources to META-INF
[INFO] 
[INFO] --- maven-compiler-plugin:3.1:testCompile (default-testCompile) @ commons-dbutils ---
[INFO] Nothing to compile - all classes are up to date
[INFO] 
[INFO] --- maven-surefire-plugin:2.17:test (default-test) @ commons-dbutils ---
[INFO] Surefire report directory: /home/lingming/hybrid-rts/subjects/commons-dbutils/82bb44fe36270805688a3021e6f48b702d65d1e7/target/surefire-reports

-------------------------------------------------------
 T E S T S
-------------------------------------------------------
Running org.apache.commons.dbutils.BeanProcessorTest
Tests run: 5, Failures: 0, Errors: 0, Skipped: 0, Time elapsed: 0.088 sec - in org.apache.commons.dbutils.BeanProcessorTest
Running org.apache.commons.dbutils.QueryRunnerTest
Tests run: 35, Failures: 0, Errors: 0, Skipped: 0, Time elapsed: 0.307 sec - in org.apache.commons.dbutils.QueryRunnerTest
Running org.apache.commons.dbutils.ResultSetIteratorTest
Tests run: 3, Failures: 0, Errors: 0, Skipped: 0, Time elapsed: 0.001 sec - in org.apache.commons.dbutils.ResultSetIteratorTest
Running org.apache.commons.dbutils.AsyncQueryRunnerTest
############ Logging method invocation #1 on mock/spy ########
queryRunner.insert(
    "1",
    org.apache.commons.dbutils.handlers.ArrayHandler@27ccfa4f
);
   invoked: -> at org.apache.commons.dbutils.AsyncQueryRunner$13.call(AsyncQueryRunner.java:567)
   has returned: "null"

############ Logging method invocation #2 on mock/spy ########
queryRunner.insert(
    "2",
    org.apache.commons.dbutils.handlers.ArrayHandler@27ccfa4f,
    "param1"
);
   invoked: -> at org.apache.commons.dbutils.AsyncQueryRunner$14.call(AsyncQueryRunner.java:585)
   has returned: "null"

############ Logging method invocation #3 on mock/spy ########
queryRunner.insert(
    conn,
    "3",
    org.apache.commons.dbutils.handlers.ArrayHandler@27ccfa4f
);
   invoked: -> at org.apache.commons.dbutils.AsyncQueryRunner$15.call(AsyncQueryRunner.java:602)
   has returned: "null"

############ Logging method invocation #4 on mock/spy ########
queryRunner.insert(
    conn,
    "4",
    org.apache.commons.dbutils.handlers.ArrayHandler@27ccfa4f,
    "param1"
);
   invoked: -> at org.apache.commons.dbutils.AsyncQueryRunner$16.call(AsyncQueryRunner.java:619)
   has returned: "null"

############ Logging method invocation #5 on mock/spy ########
queryRunner.insert(
    "1",
    org.apache.commons.dbutils.handlers.ArrayHandler@27ccfa4f
);
   invoked: -> at org.apache.commons.dbutils.AsyncQueryRunnerTest.testInsertUsesGivenQueryRunner(AsyncQueryRunnerTest.java:457)
   has returned: "null"

############ Logging method invocation #6 on mock/spy ########
queryRunner.insert(
    "2",
    org.apache.commons.dbutils.handlers.ArrayHandler@27ccfa4f,
    "param1"
);
   invoked: -> at org.apache.commons.dbutils.AsyncQueryRunnerTest.testInsertUsesGivenQueryRunner(AsyncQueryRunnerTest.java:458)
   has returned: "null"

############ Logging method invocation #7 on mock/spy ########
queryRunner.insert(
    conn,
    "3",
    org.apache.commons.dbutils.handlers.ArrayHandler@27ccfa4f
);
   invoked: -> at org.apache.commons.dbutils.AsyncQueryRunnerTest.testInsertUsesGivenQueryRunner(AsyncQueryRunnerTest.java:459)
   has returned: "null"

############ Logging method invocation #8 on mock/spy ########
queryRunner.insert(
    conn,
    "4",
    org.apache.commons.dbutils.handlers.ArrayHandler@27ccfa4f,
    "param1"
);
   invoked: -> at org.apache.commons.dbutils.AsyncQueryRunnerTest.testInsertUsesGivenQueryRunner(AsyncQueryRunnerTest.java:460)
   has returned: "null"

Tests run: 32, Failures: 0, Errors: 0, Skipped: 0, Time elapsed: 0.144 sec - in org.apache.commons.dbutils.AsyncQueryRunnerTest
Running org.apache.commons.dbutils.BasicRowProcessorTest
Tests run: 7, Failures: 0, Errors: 0, Skipped: 0, Time elapsed: 0.02 sec - in org.apache.commons.dbutils.BasicRowProcessorTest
Running org.apache.commons.dbutils.ProxyFactoryTest
Tests run: 9, Failures: 0, Errors: 0, Skipped: 0, Time elapsed: 0.049 sec - in org.apache.commons.dbutils.ProxyFactoryTest
Running org.apache.commons.dbutils.handlers.ScalarHandlerTest
Tests run: 6, Failures: 0, Errors: 0, Skipped: 0, Time elapsed: 0.004 sec - in org.apache.commons.dbutils.handlers.ScalarHandlerTest
Running org.apache.commons.dbutils.handlers.MapListHandlerTest
Tests run: 4, Failures: 0, Errors: 0, Skipped: 0, Time elapsed: 0 sec - in org.apache.commons.dbutils.handlers.MapListHandlerTest
Running org.apache.commons.dbutils.handlers.MapHandlerTest
Tests run: 4, Failures: 0, Errors: 0, Skipped: 0, Time elapsed: 0.003 sec - in org.apache.commons.dbutils.handlers.MapHandlerTest
Running org.apache.commons.dbutils.handlers.ColumnListHandlerTest
Tests run: 6, Failures: 0, Errors: 0, Skipped: 0, Time elapsed: 0 sec - in org.apache.commons.dbutils.handlers.ColumnListHandlerTest
Running org.apache.commons.dbutils.handlers.ArrayListHandlerTest
Tests run: 4, Failures: 0, Errors: 0, Skipped: 0, Time elapsed: 0 sec - in org.apache.commons.dbutils.handlers.ArrayListHandlerTest
Running org.apache.commons.dbutils.handlers.KeyedHandlerTest
Tests run: 6, Failures: 0, Errors: 0, Skipped: 0, Time elapsed: 0.001 sec - in org.apache.commons.dbutils.handlers.KeyedHandlerTest
Running org.apache.commons.dbutils.handlers.ArrayHandlerTest
Tests run: 4, Failures: 0, Errors: 0, Skipped: 0, Time elapsed: 0.006 sec - in org.apache.commons.dbutils.handlers.ArrayHandlerTest
Running org.apache.commons.dbutils.handlers.BeanHandlerTest
Tests run: 4, Failures: 0, Errors: 0, Skipped: 0, Time elapsed: 0.002 sec - in org.apache.commons.dbutils.handlers.BeanHandlerTest
Running org.apache.commons.dbutils.handlers.BeanListHandlerTest
Tests run: 4, Failures: 0, Errors: 0, Skipped: 0, Time elapsed: 0.002 sec - in org.apache.commons.dbutils.handlers.BeanListHandlerTest
Running org.apache.commons.dbutils.handlers.BeanMapHandlerTest
Tests run: 5, Failures: 0, Errors: 0, Skipped: 0, Time elapsed: 0.009 sec - in org.apache.commons.dbutils.handlers.BeanMapHandlerTest
Running org.apache.commons.dbutils.BaseResultSetHandlerTestCase
Tests run: 2, Failures: 0, Errors: 0, Skipped: 0, Time elapsed: 0.001 sec - in org.apache.commons.dbutils.BaseResultSetHandlerTestCase
Running org.apache.commons.dbutils.QueryLoaderTest
Tests run: 3, Failures: 0, Errors: 0, Skipped: 0, Time elapsed: 0.003 sec - in org.apache.commons.dbutils.QueryLoaderTest
Running org.apache.commons.dbutils.wrappers.SqlNullCheckedResultSetTest
Tests run: 43, Failures: 0, Errors: 0, Skipped: 0, Time elapsed: 0.027 sec - in org.apache.commons.dbutils.wrappers.SqlNullCheckedResultSetTest
Running org.apache.commons.dbutils.wrappers.StringTrimmedResultSetTest
Tests run: 5, Failures: 0, Errors: 0, Skipped: 0, Time elapsed: 0 sec - in org.apache.commons.dbutils.wrappers.StringTrimmedResultSetTest
Running org.apache.commons.dbutils.DbUtilsTest
Tests run: 31, Failures: 0, Errors: 0, Skipped: 0, Time elapsed: 0.021 sec - in org.apache.commons.dbutils.DbUtilsTest
Running org.apache.commons.dbutils.GenerousBeanProcessorTest
Tests run: 2, Failures: 0, Errors: 0, Skipped: 0, Time elapsed: 0.004 sec - in org.apache.commons.dbutils.GenerousBeanProcessorTest

Results :

Tests run: 224, Failures: 0, Errors: 0, Skipped: 0

[INFO] ------------------------------------------------------------------------
[INFO] BUILD SUCCESS
[INFO] ------------------------------------------------------------------------
[INFO] Total time: 3.825 s
[INFO] Finished at: 2017-01-01T03:16:43-06:00
[INFO] Final Memory: 32M/1465M
[INFO] ------------------------------------------------------------------------
