55758ab02604154cab4d44f637358625f2fd897d [FaultTracer] Extracted changes: 0 0 13 0 0 0 1 0 2 0 0 0 7 0 0 9 0 0 1 0 1 0 0 0 7 0 0 4
4450add7927f8fc8b6ef630af09ab5bc2aa44b0e [FaultTracer] Extracted changes: 0 0 4 0 0 0 0 0 0 0 0 0 4 0 0 0 0 0 0 0 0 0 0 0 4 0 0 0
f5304f2e0f67363505052b93fb6e979e6eeabda2 [FaultTracer] Extracted changes: 0 0 9 0 0 0 1 0 0 0 0 0 5 0 0 8 0 0 1 0 0 0 0 0 5 0 0 3
31044ba56dc378d68c04334b66344a718116821a [FaultTracer] Extracted changes: 0 0 8 0 0 0 1 0 0 0 0 0 4 0 0 7 0 0 1 0 0 0 0 0 4 0 0 3
c9a1c7d0ea6846f4a19b596b4aa1fceec66a8b3f [FaultTracer] Extracted changes: 0 0 5 0 0 0 0 0 0 0 0 0 4 0 0 2 0 0 0 0 0 0 0 0 4 0 0 1
452081a36e6e649ec8958f74a780ddab52e74644 [FaultTracer] Extracted changes: 0 0 4 0 0 0 0 0 0 0 0 0 3 0 0 2 0 0 0 0 0 0 0 0 3 0 0 1
6512d665aab8b9c5760043b64cced13134c5ef10 [FaultTracer] Extracted changes: 0 0 10 0 0 0 1 0 0 0 0 0 4 0 0 9 0 0 1 0 0 0 0 0 4 0 0 5
9524915162881d999befa134a42969bb7a02cda0 [FaultTracer] Extracted changes: 0 0 4 0 0 0 0 0 0 0 0 0 2 0 0 3 0 0 0 0 0 0 0 0 2 0 0 2
f1bb5ed022dfd002221d6e41b1864381d5bf68d4 [FaultTracer] Extracted changes: 0 0 4 0 0 0 0 0 0 0 0 0 2 0 0 3 0 0 0 0 0 0 0 0 2 0 0 2
06adc0bd7e8774da1f02d621b58d01acef940fd2 [FaultTracer] Extracted changes: 0 0 4 0 0 0 0 0 0 0 0 0 2 0 0 2 0 0 0 0 0 0 0 0 2 0 0 2
4ca6aa3f287b1765cc1532f5fadc01b145911a61 [FaultTracer] Extracted changes: 0 1 19 0 0 0 1 0 0 7 0 0 8 0 16 20 0 0 1 0 0 5 0 0 8 0 4 10
65302de24316b21a3955265203c60cf663067743 [FaultTracer] Extracted changes: 0 0 0 0 0 0 0 0 0 0 0 0 0 0 0 0 0 0 0 0 0 0 0 0 0 0 0 0
d4267c5a70f24b96bb96a2e1d3695cfaeaca91ac [FaultTracer] Extracted changes: 0 0 2 0 0 0 0 0 0 0 0 0 2 0 0 0 0 0 0 0 0 0 0 0 2 0 0 0
414018941927a4b55b1d730fd9091e14eb1feb42 [FaultTracer] Extracted changes: 0 0 6 0 0 0 0 0 0 0 0 0 4 0 0 3 0 0 0 0 0 0 0 0 4 0 0 2
bb74e81c29138ee7d6770001d454478e0861a16f [FaultTracer] Extracted changes: 0 0 5 0 0 0 0 0 0 0 0 0 3 0 0 3 0 0 0 0 0 0 0 0 3 0 0 2
16b656fc57d73550ec04e8d253238a10d2255a70 [FaultTracer] Extracted changes: 0 0 6 0 0 0 0 0 0 0 0 0 6 0 0 0 0 0 0 0 0 0 0 0 6 0 0 0
ecf65484f995bdc4a3ce7dfd70909998f0e3c34d [FaultTracer] Extracted changes: 0 0 9 0 0 0 1 0 0 0 0 0 5 0 0 6 0 0 1 0 0 0 0 0 5 0 0 3
cf4d206908fa811231fe1b581b6337a17108548b [FaultTracer] Extracted changes: 0 0 10 0 0 0 1 0 0 0 0 0 6 0 0 6 0 0 1 0 0 0 0 0 6 0 0 3
5e3fd2b36e87e86dabb0649f867d464b68dbe61b [FaultTracer] Extracted changes: 0 0 5 0 0 0 0 0 0 0 0 0 4 0 0 1 0 0 0 0 0 0 0 0 4 0 0 1
05111daef93db06cdccffbdeb475715413a01d67 [FaultTracer] Extracted changes: 0 0 8 0 0 0 0 0 0 0 0 0 7 0 0 1 0 0 0 0 0 0 0 0 7 0 0 1
0177f90032a1a68496ae1e566697c1608fc8cb95 [FaultTracer] Extracted changes: 0 0 1 0 0 0 0 0 0 0 0 0 1 0 0 0 0 0 0 0 0 0 0 0 1 0 0 0
642158f72b2534e29b0db024e761118c67eae3eb [FaultTracer] Extracted changes: 0 0 1 0 0 0 0 0 0 1 0 0 0 0 0 1 0 0 0 0 0 1 0 0 0 0 0 1
83b950724307dc1551a7325961be1da89acbabf0 [FaultTracer] Extracted changes: 0 1 10 0 0 0 0 0 0 0 0 0 8 0 0 3 0 0 0 0 0 0 0 0 8 0 0 2
a19fae7262f9212ada7acde170ded85a12720705 [FaultTracer] Extracted changes: 0 0 7 0 0 0 0 0 0 0 0 0 4 0 0 4 0 0 0 0 0 0 0 0 4 0 0 3
77a30c218d8b1505a9ed450e62625321bdf000fb [FaultTracer] Extracted changes: 0 0 6 0 0 0 0 0 0 0 0 0 4 0 3 6 0 0 0 0 0 0 0 0 4 0 1 2
e8d76ef9c72325b773b9141a8566ce1147c1ebc6 [FaultTracer] Extracted changes: 0 0 2 0 0 0 0 0 0 0 0 0 2 0 0 0 0 0 0 0 0 0 0 0 2 0 0 0
ab2fd4f98af4d34de1a5ed28c6424c0686f05ed4 [FaultTracer] Extracted changes: 0 0 2 0 0 0 0 0 0 0 0 0 2 0 0 0 0 0 0 0 0 0 0 0 2 0 0 0
9bb6841f0f2a265450a4057bc23f75f84c11d0de [FaultTracer] Extracted changes: 0 0 7 0 0 0 0 0 0 0 0 0 6 0 0 1 0 0 0 0 0 0 0 0 6 0 0 1
8447d34d37a36fb9b0e360ccac9a6eb1c86224df [FaultTracer] Extracted changes: 0 0 4 0 0 0 0 0 0 0 0 0 4 0 0 0 0 0 0 0 0 0 0 0 4 0 0 0
15d7caf240a54109db26e1d7cbd5c441980ba4a5 [FaultTracer] Extracted changes: 0 0 4 0 0 0 0 0 0 0 0 0 3 0 0 1 0 0 0 0 0 0 0 0 3 0 0 1
99281093d6d949001f1324d5113438aff003225b [FaultTracer] Extracted changes: 0 0 2 0 0 0 0 0 0 0 0 0 2 0 0 0 0 0 0 0 0 0 0 0 2 0 0 0
7b8b5e5af8a117aae3e04b81d42ac4995c236527 [FaultTracer] Extracted changes: 0 0 8 0 0 0 1 0 0 0 0 0 3 0 0 7 0 0 1 0 0 0 0 0 3 0 0 4
6f9783395bf72fab0b69031791f73c25fe0af4b5 [FaultTracer] Extracted changes: 0 0 9 0 0 0 1 0 0 0 0 0 4 0 0 7 0 0 1 0 0 0 0 0 4 0 0 4
d0d31602813372b7d477004dae58ee6244fcb68a [FaultTracer] Extracted changes: 0 0 11 0 0 0 1 0 0 0 0 0 6 0 0 7 0 0 1 0 0 0 0 0 6 0 0 4
abd67115a4d48846c43601b3aa26d96727607165 [FaultTracer] Extracted changes: 0 0 6 0 0 0 0 0 0 0 0 0 3 0 0 4 0 0 0 0 0 0 0 0 3 0 0 3
bdfbf651601b9fe7732a61aec54c2e29d450148a [FaultTracer] Extracted changes: 0 0 9 0 0 0 1 0 0 0 0 0 5 0 0 7 0 0 1 0 0 0 0 0 5 0 0 3
d1074af06d6cfbc6930cb86052a4ff2b94b429d1 [FaultTracer] Extracted changes: 0 0 10 0 0 0 1 0 0 0 0 0 4 0 0 9 0 0 1 0 0 0 0 0 4 0 0 5
2586f75769dc9c82de31c47412f3b41076a9c55b [FaultTracer] Extracted changes: 0 0 12 0 0 0 1 0 0 0 0 0 6 0 0 9 0 0 1 0 0 0 0 0 6 0 0 5
410dd3f1eb54620fdb8eac8176061817a3a57757 [FaultTracer] Extracted changes: 0 0 10 0 0 0 0 0 0 0 0 0 7 0 0 4 0 0 0 0 0 0 0 0 7 0 0 3
f3eae24d5955de2a2b98b677718f29edbadd7b97 [FaultTracer] Extracted changes: 0 0 7 0 0 0 1 0 0 0 0 0 1 0 0 8 0 0 1 0 0 0 0 0 1 0 0 5
36259f7c1c9491b70687a7961dc865498b269d23 [FaultTracer] Extracted changes: 0 0 13 0 0 0 1 0 0 0 0 0 7 0 3 8 0 0 1 0 0 0 0 0 7 0 1 4
c34b95d8ca27574c979acf99ee8fb81ab4227cc9 [FaultTracer] Extracted changes: 0 0 286 286 0 0 0 0 0 0 0 0 0 0 0 0 0 0 0 0 0 0 0 0 0 0 0 0
6bb70406aff4fd377ef0c587633024d6aeae9a27 [FaultTracer] Extracted changes: 0 0 1 0 0 0 0 0 0 0 0 0 1 0 0 0 0 0 0 0 0 0 0 0 1 0 0 0
45c80e3aae8710e386a4f7560d45ca1f14e5b5f8 [FaultTracer] Extracted changes: 0 0 0 0 0 0 0 0 0 0 0 0 0 0 0 0 0 0 0 0 0 0 0 0 0 0 0 0
5d369c4fc53a2ef5c47f16eced9fe917a87146a9 [FaultTracer] Extracted changes: 0 0 0 0 0 0 0 0 0 0 0 0 0 0 0 0 0 0 0 0 0 0 0 0 0 0 0 0
8834ab9d6553eff2c2389cc8f6dd3060d2107242 [FaultTracer] Extracted changes: 0 0 10 0 0 0 0 0 0 0 0 0 0 0 0 10 0 0 0 0 0 0 0 0 0 0 0 10
349bec6e65e6abb1d69ba18336e60e3296bb8673 [FaultTracer] Extracted changes: 0 0 0 0 0 0 0 0 0 0 0 0 0 0 0 0 0 0 0 0 0 0 0 0 0 0 0 0
6fe206372bd3c1c852fbf3053fd4cb4dc71790b4 [FaultTracer] Extracted changes: 0 0 1 0 0 0 0 0 0 0 0 0 0 0 0 1 0 0 0 0 0 0 0 0 0 0 0 1
02ae1898a1bc9eb7fe541072b6bd1ac0dbf6a915 [FaultTracer] Extracted changes: 0 0 0 0 0 0 0 0 0 0 0 0 0 0 0 0 0 0 0 0 0 0 0 0 0 0 0 0
75f3b26a1898cb970a94b81bf7522c633c007c1a [FaultTracer] Extracted changes: 0 0 0 0 0 0 0 0 0 0 0 0 0 0 0 0 0 0 0 0 0 0 0 0 0 0 0 0
89e7c7cf8fda6a6de0e25faaf1edf0decec4e8ba [FaultTracer] Extracted changes: 0 0 0 0 0 0 0 0 0 0 0 0 0 0 0 0 0 0 0 0 0 0 0 0 0 0 0 0
380a192ee9df078e6bc8c087b241a26c9072ff63 [FaultTracer] Extracted changes: 0 0 1 0 0 0 0 0 0 0 0 0 0 0 0 0 0 0 0 0 0 0 0 0 0 0 0 0
558f84322cefd02246c49666d7e7a3b2e2cddc13 [FaultTracer] Extracted changes: 0 0 0 0 0 0 0 0 0 0 0 0 0 0 0 0 0 0 0 0 0 0 0 0 0 0 0 0
5379e899b05a2fe89c1c52f2b90ebdc7127e2c5b [FaultTracer] Extracted changes: 0 0 0 0 0 0 0 0 0 0 0 0 0 0 0 0 0 0 0 0 0 0 0 0 0 0 0 0
25920e44080d22197818ec182618c84a5f80c063 [FaultTracer] Extracted changes: 0 0 0 0 0 0 0 0 0 0 0 0 0 0 0 0 0 0 0 0 0 0 0 0 0 0 0 0
30d2f0666ffe7f2042c332f8f9c44e4443291b5d [FaultTracer] Extracted changes: 0 0 0 0 0 0 0 0 0 0 0 0 0 0 0 0 0 0 0 0 0 0 0 0 0 0 0 0
e6228a68433b15b33321a1c45d7124bd1e376baf [FaultTracer] Extracted changes: 0 0 0 0 0 0 0 0 0 0 0 0 0 0 0 0 0 0 0 0 0 0 0 0 0 0 0 0
4c685c09c9ed2e443adc5ebc09074928fdedb3e1 [FaultTracer] Extracted changes: 0 0 0 0 0 0 0 0 0 0 0 0 0 0 0 0 0 0 0 0 0 0 0 0 0 0 0 0
461a020484eb8c68b509bda6229f8e4c76de0b94 [FaultTracer] Extracted changes: 0 0 0 0 0 0 0 0 0 0 0 0 0 0 0 0 0 0 0 0 0 0 0 0 0 0 0 0
04ccedfa74f1b26a004b19a0effed756a385e008 [FaultTracer] Extracted changes: 0 0 0 0 0 0 0 0 0 0 0 0 0 0 0 0 0 0 0 0 0 0 0 0 0 0 0 0
8e0ed2b0182d553a9a68fad43a9d1ec8156ffeb7 [FaultTracer] Extracted changes: 0 0 1 1 0 0 0 0 0 0 0 0 0 0 0 0 0 0 0 0 0 0 0 0 0 0 0 0
7e3ba40585f473071bb3b05d155d3474f39d7575 [FaultTracer] Extracted changes: 0 0 0 0 0 0 0 0 0 0 0 0 0 0 0 0 0 0 0 0 0 0 0 0 0 0 0 0
cb3a066b6752ea6183cea9f7712ac6de5ce762f0 [FaultTracer] Extracted changes: 0 0 0 0 0 0 0 0 0 0 0 0 0 0 0 0 0 0 0 0 0 0 0 0 0 0 0 0
9601b455b8931feb60e084ee9698ec640256eb3a [FaultTracer] Extracted changes: 0 0 0 0 0 0 0 0 0 0 0 0 0 0 0 0 0 0 0 0 0 0 0 0 0 0 0 0
3fcd5e7c95adbb6c4e444a44b56db0f168b43226 [FaultTracer] Extracted changes: 0 0 0 0 0 0 0 0 0 0 0 0 0 0 0 0 0 0 0 0 0 0 0 0 0 0 0 0
d3ccda2ec59d3197ee10dded2d60778f0f33e34d [FaultTracer] Extracted changes: 0 0 1 0 0 0 0 0 0 0 0 0 0 0 0 1 0 0 0 0 0 0 0 0 0 0 0 1
92dd4eb80de367ec8df62ee8aa4fcaf40f3eb16e [FaultTracer] Extracted changes: 0 0 1 0 0 0 0 0 0 0 0 0 1 0 0 0 0 0 0 0 0 0 0 0 1 0 0 0
f42e49c710e732f9be1efe22568f72d6db699192 [FaultTracer] Extracted changes: 0 0 1 0 0 0 0 0 0 0 0 0 1 0 0 0 0 0 0 0 0 0 0 0 1 0 0 0
208e8af1160c871a98547aa02a2be048a8d18530 [FaultTracer] Extracted changes: 0 0 0 0 0 0 0 0 0 0 0 0 0 0 0 0 0 0 0 0 0 0 0 0 0 0 0 0
7d421a35cc24625b247cedc28fb99ca32c3942ad [FaultTracer] Extracted changes: 0 0 0 0 0 0 0 0 0 0 0 0 0 0 0 0 0 0 0 0 0 0 0 0 0 0 0 0
4f02889801641128611463b5e83a3fe098894aaa [FaultTracer] Extracted changes: 0 0 0 0 0 0 0 0 0 0 0 0 0 0 0 0 0 0 0 0 0 0 0 0 0 0 0 0
4a291f4a30e8350cf74d3fd076a31d721020cf52 [FaultTracer] Extracted changes: 0 0 0 0 0 0 0 0 0 0 0 0 0 0 0 0 0 0 0 0 0 0 0 0 0 0 0 0
e17af533fb064040fa5e0c5f195c6a14dee37193 [FaultTracer] Extracted changes: 0 0 0 0 0 0 0 0 0 0 0 0 0 0 0 0 0 0 0 0 0 0 0 0 0 0 0 0
3c472321df2d2cabb0be9d4773afb998d6bd19c5 [FaultTracer] Extracted changes: 0 0 0 0 0 0 0 0 0 0 0 0 0 0 0 0 0 0 0 0 0 0 0 0 0 0 0 0
1d2b9726e7a8fd7fa4b75b5ed75149f43163b5c8 [FaultTracer] Extracted changes: 0 0 0 0 0 0 0 0 0 0 0 0 0 0 0 0 0 0 0 0 0 0 0 0 0 0 0 0
ef9d3412e9ecc9070787c820836f93f456e23682 [FaultTracer] Extracted changes: 0 0 0 0 0 0 0 0 0 0 0 0 0 0 0 0 0 0 0 0 0 0 0 0 0 0 0 0
4f8d18366c1e450b746a8d670c0b46c5a9160b53 [FaultTracer] Extracted changes: 0 0 0 0 0 0 0 0 0 0 0 0 0 0 0 0 0 0 0 0 0 0 0 0 0 0 0 0
a3677dbfffa5c71e56bf57b460b93b89f50a93f9 [FaultTracer] Extracted changes: 0 0 0 0 0 0 0 0 0 0 0 0 0 0 0 0 0 0 0 0 0 0 0 0 0 0 0 0
fb5ae69daa5773031122a86ae245e400454ba730 [FaultTracer] Extracted changes: 0 0 0 0 0 0 0 0 0 0 0 0 0 0 0 0 0 0 0 0 0 0 0 0 0 0 0 0
1ad6488cc46dc7818effdbe572320004cdbfa253 [FaultTracer] Extracted changes: 0 0 0 0 0 0 0 0 0 0 0 0 0 0 0 0 0 0 0 0 0 0 0 0 0 0 0 0
328c4046d88629d1d7d484e88cb4293541bc1141 [FaultTracer] Extracted changes: 0 0 1 0 0 0 0 0 0 0 0 0 0 0 0 1 0 0 0 0 0 0 0 0 0 0 0 1
96e16497119db404a4e59709e022d4f9564d23e6 [FaultTracer] Extracted changes: 0 0 1 0 0 0 0 0 0 0 0 0 0 0 0 1 0 0 0 0 0 0 0 0 0 0 0 1
acf58cffc617b2328c70acaf22026cfaadfcb592 [FaultTracer] Extracted changes: 0 0 1 0 0 0 0 0 0 0 0 0 0 0 1 5 0 0 0 0 0 0 0 0 0 0 1 1
19af5379fa93633e2c7bc0326fc5f3b28aaf192f [FaultTracer] Extracted changes: 0 0 1 0 0 0 0 0 0 0 0 0 0 0 0 1 0 0 0 0 0 0 0 0 0 0 0 1
0af2fc75f2a7a9e6f5021c68c7d503feb596bd52 [FaultTracer] Extracted changes: 0 0 1 0 0 0 0 0 0 0 0 0 0 0 0 1 0 0 0 0 0 0 0 0 0 0 0 1
9313bac710b3c71d0c7d5d196550bbe88314647e [FaultTracer] Extracted changes: 0 0 1 0 0 0 0 0 0 0 0 0 0 0 0 1 0 0 0 0 0 0 0 0 0 0 0 1
cd5eaad040a682355f0b488e332b7f1020e4d044 [FaultTracer] Extracted changes: 0 0 0 0 0 0 0 0 0 0 0 0 0 0 0 0 0 0 0 0 0 0 0 0 0 0 0 0
599448703d8922923874db240f29f2669cffc71e [FaultTracer] Extracted changes: 0 0 9 0 0 0 1 0 1 1 0 0 0 0 0 7 0 0 1 0 1 1 0 0 0 0 0 7
8138f8c25af368ba6b31e6c0885265cf0783d6d8 [FaultTracer] Extracted changes: 0 0 2 0 0 0 1 0 0 1 0 0 0 0 2 2 0 0 1 0 0 1 0 0 0 0 1 1
bec3eaa55584966aeab7ad00cb16b07656b82553 [FaultTracer] Extracted changes: 0 0 1 0 0 0 0 0 0 0 0 0 0 0 1 0 0 0 0 0 0 0 0 0 0 0 1 0
fa4642768201907dad2d4e37009bf73cc2890ba2 [FaultTracer] Extracted changes: 0 1 1 0 0 0 0 0 0 0 0 0 1 0 0 0 0 0 0 0 0 0 0 0 1 0 0 0
370657f48e607266ea493d5949875322e7d32849 [FaultTracer] Extracted changes: 0 0 1 0 0 0 0 0 0 0 0 0 1 0 0 0 0 0 0 0 0 0 0 0 1 0 0 0
9b4a86e68cea12630e5ade386ec78d29d9b8a466 [FaultTracer] Extracted changes: 0 0 0 0 0 0 0 0 0 0 0 0 0 0 0 0 0 0 0 0 0 0 0 0 0 0 0 0
dfb7d3536579edccfd3452b80dd7b8f87608102a [FaultTracer] Extracted changes: 0 0 0 0 0 0 0 0 0 0 0 0 0 0 0 0 0 0 0 0 0 0 0 0 0 0 0 0
e821bbda82b5b0aa5e834a1f515c2e2088f45348 [FaultTracer] Extracted changes: 0 0 1 0 0 0 0 0 0 0 0 0 1 0 0 0 0 0 0 0 0 0 0 0 1 0 0 0
c9fd4d57412828c0df0cd68cc40677e822ecbfe7 [FaultTracer] Extracted changes: 0 0 1 0 0 0 0 0 0 0 0 0 1 0 0 0 0 0 0 0 0 0 0 0 1 0 0 0
ab4a888d3863dd22c6828b01e3e840b4013c70a9 [FaultTracer] Extracted changes: 0 0 0 0 0 0 0 0 0 0 0 0 0 0 0 0 0 0 0 0 0 0 0 0 0 0 0 0
8ac03ce696c933cdcdedac6b7de0f56cc1f59c45 [FaultTracer] Extracted changes: 0 0 0 0 0 0 0 0 0 0 0 0 0 0 0 0 0 0 0 0 0 0 0 0 0 0 0 0
f79c0c730bd933f96e9b9e5cd821527dff91c885 [FaultTracer] Extracted changes: 0 0 0 0 0 0 0 0 0 0 0 0 0 0 0 0 0 0 0 0 0 0 0 0 0 0 0 0
