[INFO] Scanning for projects...
[WARNING] 
[WARNING] Some problems were encountered while building the effective model for commons-jxpath:commons-jxpath:jar:1.4-SNAPSHOT
[WARNING] 'build.plugins.plugin.version' for org.apache.maven.plugins:maven-idea-plugin is missing. @ org.apache.commons:commons-parent:12, /home/lingming/.m2/repository/org/apache/commons/commons-parent/12/commons-parent-12.pom, line 266, column 15
[WARNING] The expression ${pom.version} is deprecated. Please use ${project.version} instead.
[WARNING] 
[WARNING] It is highly recommended to fix these problems because they threaten the stability of your build.
[WARNING] 
[WARNING] For this reason, future Maven versions might no longer support building such malformed projects.
[WARNING] 
[INFO]                                                                         
[INFO] ------------------------------------------------------------------------
[INFO] Building Commons JXPath 1.4-SNAPSHOT
[INFO] ------------------------------------------------------------------------
[INFO] 
[INFO] --- maven-antrun-plugin:1.3:run (javadoc.resources) @ commons-jxpath ---
[INFO] Executing tasks
[INFO] Executed tasks
[INFO] 
[INFO] --- maven-resources-plugin:2.6:resources (default-resources) @ commons-jxpath ---
[INFO] Using 'iso-8859-1' encoding to copy filtered resources.
[INFO] Copying 2 resources to META-INF
[INFO] 
[INFO] --- maven-compiler-plugin:2.0.2:compile (default-compile) @ commons-jxpath ---
[INFO] Nothing to compile - all classes are up to date
[INFO] 
[INFO] --- maven-bundle-plugin:1.4.0:manifest (bundle-manifest) @ commons-jxpath ---
[INFO] 
[INFO] --- maven-resources-plugin:2.6:testResources (default-testResources) @ commons-jxpath ---
[INFO] Using 'iso-8859-1' encoding to copy filtered resources.
[INFO] Copying 4 resources
[INFO] 
[INFO] --- maven-compiler-plugin:2.0.2:testCompile (default-testCompile) @ commons-jxpath ---
[INFO] Nothing to compile - all classes are up to date
[INFO] 
[INFO] --- maven-surefire-plugin:2.19.1:test (default-test) @ commons-jxpath ---

-------------------------------------------------------
 T E S T S
-------------------------------------------------------
Running org.apache.commons.jxpath.ri.model.jdom.JDOMModelTest
Tests run: 34, Failures: 0, Errors: 0, Skipped: 0, Time elapsed: 0.373 sec - in org.apache.commons.jxpath.ri.model.jdom.JDOMModelTest
Running org.apache.commons.jxpath.ri.model.container.ContainerModelTest
Tests run: 4, Failures: 0, Errors: 0, Skipped: 0, Time elapsed: 0.002 sec - in org.apache.commons.jxpath.ri.model.container.ContainerModelTest
Running org.apache.commons.jxpath.ri.model.MixedModelTest
Tests run: 40, Failures: 0, Errors: 0, Skipped: 0, Time elapsed: 0.13 sec - in org.apache.commons.jxpath.ri.model.MixedModelTest
Running org.apache.commons.jxpath.ri.model.ExternalXMLNamespaceTest
Tests run: 3, Failures: 0, Errors: 0, Skipped: 0, Time elapsed: 0.002 sec - in org.apache.commons.jxpath.ri.model.ExternalXMLNamespaceTest
Running org.apache.commons.jxpath.ri.model.beans.BeanModelTest
Tests run: 51, Failures: 0, Errors: 0, Skipped: 0, Time elapsed: 0.073 sec - in org.apache.commons.jxpath.ri.model.beans.BeanModelTest
Running org.apache.commons.jxpath.ri.model.beans.BadlyImplementedFactoryTest
Tests run: 1, Failures: 0, Errors: 0, Skipped: 0, Time elapsed: 0 sec - in org.apache.commons.jxpath.ri.model.beans.BadlyImplementedFactoryTest
Running org.apache.commons.jxpath.ri.model.EmbeddedColonMapKeysTest
Tests run: 2, Failures: 0, Errors: 0, Skipped: 0, Time elapsed: 0 sec - in org.apache.commons.jxpath.ri.model.EmbeddedColonMapKeysTest
Running org.apache.commons.jxpath.ri.model.EmptyCollectionTest
Tests run: 6, Failures: 0, Errors: 0, Skipped: 0, Time elapsed: 0 sec - in org.apache.commons.jxpath.ri.model.EmptyCollectionTest
Running org.apache.commons.jxpath.ri.model.XMLPreserveSpaceTest
Tests run: 10, Failures: 0, Errors: 0, Skipped: 0, Time elapsed: 0.02 sec - in org.apache.commons.jxpath.ri.model.XMLPreserveSpaceTest
Running org.apache.commons.jxpath.ri.model.dynabeans.DynaBeanModelTest
Tests run: 50, Failures: 0, Errors: 0, Skipped: 0, Time elapsed: 0.13 sec - in org.apache.commons.jxpath.ri.model.dynabeans.DynaBeanModelTest
Running org.apache.commons.jxpath.ri.model.dom.DOMModelTest
Tests run: 34, Failures: 0, Errors: 0, Skipped: 0, Time elapsed: 0.118 sec - in org.apache.commons.jxpath.ri.model.dom.DOMModelTest
Running org.apache.commons.jxpath.ri.model.dynamic.DynamicPropertiesModelTest
Tests run: 18, Failures: 0, Errors: 0, Skipped: 0, Time elapsed: 0.013 sec - in org.apache.commons.jxpath.ri.model.dynamic.DynamicPropertiesModelTest
Running org.apache.commons.jxpath.ri.model.XMLSpaceTest
Tests run: 10, Failures: 0, Errors: 0, Skipped: 0, Time elapsed: 0.019 sec - in org.apache.commons.jxpath.ri.model.XMLSpaceTest
Running org.apache.commons.jxpath.ri.StressTest
Tests run: 1, Failures: 0, Errors: 0, Skipped: 0, Time elapsed: 0.857 sec - in org.apache.commons.jxpath.ri.StressTest
Running org.apache.commons.jxpath.ri.JXPathCompiledExpressionTest
Tests run: 29, Failures: 0, Errors: 0, Skipped: 0, Time elapsed: 0.018 sec - in org.apache.commons.jxpath.ri.JXPathCompiledExpressionTest
Running org.apache.commons.jxpath.ri.axes.RecursiveAxesTest
Tests run: 1, Failures: 0, Errors: 0, Skipped: 0, Time elapsed: 0 sec - in org.apache.commons.jxpath.ri.axes.RecursiveAxesTest
Running org.apache.commons.jxpath.ri.axes.SimplePathInterpreterTest
Tests run: 8, Failures: 0, Errors: 0, Skipped: 0, Time elapsed: 0.031 sec - in org.apache.commons.jxpath.ri.axes.SimplePathInterpreterTest
Running org.apache.commons.jxpath.ri.compiler.VariableTest
Tests run: 20, Failures: 0, Errors: 0, Skipped: 0, Time elapsed: 0.026 sec - in org.apache.commons.jxpath.ri.compiler.VariableTest
Running org.apache.commons.jxpath.ri.compiler.CoreFunctionTest
Tests run: 5, Failures: 0, Errors: 0, Skipped: 0, Time elapsed: 0.028 sec - in org.apache.commons.jxpath.ri.compiler.CoreFunctionTest
Running org.apache.commons.jxpath.ri.compiler.CoreOperationTest
Tests run: 4, Failures: 0, Errors: 0, Skipped: 0, Time elapsed: 0.002 sec - in org.apache.commons.jxpath.ri.compiler.CoreOperationTest
Running org.apache.commons.jxpath.ri.compiler.ExtensionFunctionTest
Tests run: 17, Failures: 0, Errors: 0, Skipped: 0, Time elapsed: 0.026 sec - in org.apache.commons.jxpath.ri.compiler.ExtensionFunctionTest
Running org.apache.commons.jxpath.ri.compiler.ContextDependencyTest
Tests run: 1, Failures: 0, Errors: 0, Skipped: 0, Time elapsed: 0.001 sec - in org.apache.commons.jxpath.ri.compiler.ContextDependencyTest
Running org.apache.commons.jxpath.BasicNodeSetTest
Tests run: 3, Failures: 0, Errors: 0, Skipped: 0, Time elapsed: 0.015 sec - in org.apache.commons.jxpath.BasicNodeSetTest
Running org.apache.commons.jxpath.servlet.JXPathServletContextTest
Tests run: 4, Failures: 0, Errors: 0, Skipped: 0, Time elapsed: 0.021 sec - in org.apache.commons.jxpath.servlet.JXPathServletContextTest
Running org.apache.commons.jxpath.util.BasicTypeConverterTest
Tests run: 11, Failures: 0, Errors: 0, Skipped: 0, Time elapsed: 0.018 sec - in org.apache.commons.jxpath.util.BasicTypeConverterTest

Results :

Tests run: 367, Failures: 0, Errors: 0, Skipped: 0

[INFO] ------------------------------------------------------------------------
[INFO] BUILD SUCCESS
[INFO] ------------------------------------------------------------------------
[INFO] Total time: 4.223 s
[INFO] Finished at: 2017-01-06T17:47:28-06:00
[INFO] Final Memory: 17M/1489M
[INFO] ------------------------------------------------------------------------
