[INFO] Scanning for projects...
[INFO]                                                                         
[INFO] ------------------------------------------------------------------------
[INFO] Building Apache Commons FileUpload 1.4-SNAPSHOT
[INFO] ------------------------------------------------------------------------
[INFO] 
[INFO] --- maven-enforcer-plugin:1.4.1:enforce (enforce-maven-3) @ commons-fileupload ---
[INFO] 
[INFO] --- build-helper-maven-plugin:1.10:parse-version (parse-version) @ commons-fileupload ---
[INFO] 
[INFO] --- maven-antrun-plugin:1.8:run (javadoc.resources) @ commons-fileupload ---
[INFO] Executing tasks

main:
[INFO] Executed tasks
[INFO] 
[INFO] --- maven-remote-resources-plugin:1.5:process (default) @ commons-fileupload ---
[INFO] 
[INFO] --- buildnumber-maven-plugin:1.4:create (default) @ commons-fileupload ---
[INFO] Executing: /bin/sh -c cd '/home/lingming/hybrid-rts/subjects/commons-fileupload/bf94df9a4565b4a94a0e51b8bb16f379368aaa86' && 'svn' '--non-interactive' 'info'
[INFO] Working directory: /home/lingming/hybrid-rts/subjects/commons-fileupload/bf94df9a4565b4a94a0e51b8bb16f379368aaa86
[INFO] Storing buildNumber: ?????? at timestamp: 1483254513048
[INFO] Executing: /bin/sh -c cd '/home/lingming/hybrid-rts/subjects/commons-fileupload/bf94df9a4565b4a94a0e51b8bb16f379368aaa86' && 'svn' '--non-interactive' 'info'
[INFO] Working directory: /home/lingming/hybrid-rts/subjects/commons-fileupload/bf94df9a4565b4a94a0e51b8bb16f379368aaa86
[INFO] Storing buildScmBranch: UNKNOWN_BRANCH
[INFO] 
[INFO] --- maven-resources-plugin:2.7:resources (default-resources) @ commons-fileupload ---
[INFO] Using 'iso-8859-1' encoding to copy filtered resources.
[INFO] skip non existing resourceDirectory /home/lingming/hybrid-rts/subjects/commons-fileupload/bf94df9a4565b4a94a0e51b8bb16f379368aaa86/src/main/resources
[INFO] Copying 2 resources to META-INF
[INFO] 
[INFO] --- maven-compiler-plugin:3.5.1:compile (default-compile) @ commons-fileupload ---
[INFO] Changes detected - recompiling the module!
[INFO] Compiling 39 source files to /home/lingming/hybrid-rts/subjects/commons-fileupload/bf94df9a4565b4a94a0e51b8bb16f379368aaa86/target/classes
[INFO] /home/lingming/hybrid-rts/subjects/commons-fileupload/bf94df9a4565b4a94a0e51b8bb16f379368aaa86/src/main/java/org/apache/commons/fileupload/servlet/ServletFileUpload.java: /home/lingming/hybrid-rts/subjects/commons-fileupload/bf94df9a4565b4a94a0e51b8bb16f379368aaa86/src/main/java/org/apache/commons/fileupload/servlet/ServletFileUpload.java uses or overrides a deprecated API.
[INFO] /home/lingming/hybrid-rts/subjects/commons-fileupload/bf94df9a4565b4a94a0e51b8bb16f379368aaa86/src/main/java/org/apache/commons/fileupload/servlet/ServletFileUpload.java: Recompile with -Xlint:deprecation for details.
[INFO] 
[INFO] --- maven-bundle-plugin:3.0.1:manifest (bundle-manifest) @ commons-fileupload ---
[INFO] 
[INFO] --- animal-sniffer-maven-plugin:1.15:check (checkAPIcompatibility) @ commons-fileupload ---
[INFO] Checking unresolved references to org.codehaus.mojo.signature:java15:1.0
[INFO] 
[INFO] --- maven-resources-plugin:2.7:testResources (default-testResources) @ commons-fileupload ---
[INFO] Using 'iso-8859-1' encoding to copy filtered resources.
[INFO] skip non existing resourceDirectory /home/lingming/hybrid-rts/subjects/commons-fileupload/bf94df9a4565b4a94a0e51b8bb16f379368aaa86/src/test/resources
[INFO] Copying 2 resources to META-INF
[INFO] 
[INFO] --- maven-compiler-plugin:3.5.1:testCompile (default-testCompile) @ commons-fileupload ---
[INFO] Nothing to compile - all classes are up to date
[INFO] 
[INFO] --- maven-surefire-plugin:2.19.1:test (default-test) @ commons-fileupload ---

-------------------------------------------------------
 T E S T S
-------------------------------------------------------
Running org.apache.commons.fileupload.DiskFileItemSerializeTest
Tests run: 6, Failures: 0, Errors: 0, Skipped: 0, Time elapsed: 0.062 sec - in org.apache.commons.fileupload.DiskFileItemSerializeTest
Running org.apache.commons.fileupload.MultipartStreamTest
Tests run: 3, Failures: 0, Errors: 0, Skipped: 0, Time elapsed: 0 sec - in org.apache.commons.fileupload.MultipartStreamTest
Running org.apache.commons.fileupload.ParameterParserTest
Tests run: 5, Failures: 0, Errors: 0, Skipped: 0, Time elapsed: 0 sec - in org.apache.commons.fileupload.ParameterParserTest
Running org.apache.commons.fileupload.ProgressListenerTest
Tests run: 1, Failures: 0, Errors: 0, Skipped: 0, Time elapsed: 0.274 sec - in org.apache.commons.fileupload.ProgressListenerTest
Running org.apache.commons.fileupload.SizesTest
Tests run: 5, Failures: 0, Errors: 0, Skipped: 0, Time elapsed: 0.204 sec - in org.apache.commons.fileupload.SizesTest
Running org.apache.commons.fileupload.FileItemHeadersTest
Tests run: 1, Failures: 0, Errors: 0, Skipped: 0, Time elapsed: 0 sec - in org.apache.commons.fileupload.FileItemHeadersTest
Running org.apache.commons.fileupload.StreamingTest
Tests run: 5, Failures: 0, Errors: 0, Skipped: 0, Time elapsed: 0.503 sec - in org.apache.commons.fileupload.StreamingTest
Running org.apache.commons.fileupload.ServletFileUploadTest
Tests run: 11, Failures: 0, Errors: 0, Skipped: 0, Time elapsed: 0.005 sec - in org.apache.commons.fileupload.ServletFileUploadTest
Running org.apache.commons.fileupload.DefaultFileItemTest
Tests run: 5, Failures: 0, Errors: 0, Skipped: 0, Time elapsed: 0.001 sec - in org.apache.commons.fileupload.DefaultFileItemTest
Running org.apache.commons.fileupload.util.mime.MimeUtilityTestCase
Tests run: 6, Failures: 0, Errors: 0, Skipped: 0, Time elapsed: 0.002 sec - in org.apache.commons.fileupload.util.mime.MimeUtilityTestCase
Running org.apache.commons.fileupload.util.mime.Base64DecoderTestCase
Tests run: 13, Failures: 0, Errors: 0, Skipped: 0, Time elapsed: 0.003 sec - in org.apache.commons.fileupload.util.mime.Base64DecoderTestCase
Running org.apache.commons.fileupload.util.mime.QuotedPrintableDecoderTestCase
Tests run: 11, Failures: 0, Errors: 0, Skipped: 0, Time elapsed: 0.002 sec - in org.apache.commons.fileupload.util.mime.QuotedPrintableDecoderTestCase

Results :

Tests run: 72, Failures: 0, Errors: 0, Skipped: 0

[INFO] ------------------------------------------------------------------------
[INFO] BUILD SUCCESS
[INFO] ------------------------------------------------------------------------
[INFO] Total time: 4.706 s
[INFO] Finished at: 2017-01-01T01:08:36-06:00
[INFO] Final Memory: 36M/2299M
[INFO] ------------------------------------------------------------------------
