[INFO] Scanning for projects...
[INFO]                                                                         
[INFO] ------------------------------------------------------------------------
[INFO] Building la4j 0.6.0
[INFO] ------------------------------------------------------------------------
[INFO] 
[INFO] --- maven-enforcer-plugin:1.0:enforce (enforce-maven) @ la4j ---
[INFO] 
[INFO] --- maven-resources-plugin:2.6:resources (default-resources) @ la4j ---
[INFO] Using 'UTF-8' encoding to copy filtered resources.
[INFO] skip non existing resourceDirectory /home/lingming/hybrid-rts/subjects/la4j/0532323b043d47b34e77e0c352aef00a32cd6316/src/main/resources
[INFO] 
[INFO] --- maven-compiler-plugin:2.5.1:compile (default-compile) @ la4j ---
[INFO] Nothing to compile - all classes are up to date
[INFO] 
[INFO] --- maven-resources-plugin:2.6:testResources (default-testResources) @ la4j ---
[INFO] Using 'UTF-8' encoding to copy filtered resources.
[INFO] skip non existing resourceDirectory /home/lingming/hybrid-rts/subjects/la4j/0532323b043d47b34e77e0c352aef00a32cd6316/src/test/resources
[INFO] 
[INFO] --- maven-compiler-plugin:2.5.1:testCompile (default-testCompile) @ la4j ---
[INFO] Nothing to compile - all classes are up to date
[INFO] 
[INFO] --- maven-surefire-plugin:2.12.4:test (default-test) @ la4j ---
[INFO] Surefire report directory: /home/lingming/hybrid-rts/subjects/la4j/0532323b043d47b34e77e0c352aef00a32cd6316/target/surefire-reports

-------------------------------------------------------
 T E S T S
-------------------------------------------------------
Running org.la4j.decomposition.LUDecompositorTest
Tests run: 7, Failures: 0, Errors: 0, Skipped: 0, Time elapsed: 0.093 sec
Running org.la4j.decomposition.EigenDecompositorTest
Tests run: 15, Failures: 0, Errors: 0, Skipped: 0, Time elapsed: 0.388 sec
Running org.la4j.decomposition.CholeskyDecompositorTest
Tests run: 5, Failures: 0, Errors: 0, Skipped: 0, Time elapsed: 0.014 sec
Running org.la4j.decomposition.QRDecompositorTest
Tests run: 8, Failures: 0, Errors: 0, Skipped: 0, Time elapsed: 0.001 sec
Running org.la4j.decomposition.SingularValueDecompositorTest
Tests run: 6, Failures: 0, Errors: 0, Skipped: 0, Time elapsed: 0.003 sec
Running org.la4j.linear.SeidelSolverTest
Tests run: 6, Failures: 0, Errors: 0, Skipped: 0, Time elapsed: 0.015 sec
Running org.la4j.linear.SweepSolverTest
Tests run: 4, Failures: 0, Errors: 0, Skipped: 0, Time elapsed: 0.004 sec
Running org.la4j.linear.SquareRootSolverTest
Tests run: 6, Failures: 0, Errors: 0, Skipped: 0, Time elapsed: 0.002 sec
Running org.la4j.linear.LeastSquaresSolverTest
Tests run: 11, Failures: 0, Errors: 0, Skipped: 0, Time elapsed: 0.007 sec
Running org.la4j.linear.JacobiSolverTest
Tests run: 6, Failures: 0, Errors: 0, Skipped: 0, Time elapsed: 0.01 sec
Running org.la4j.linear.ForwardBackSubstitutionSolverTest
Tests run: 7, Failures: 0, Errors: 0, Skipped: 0, Time elapsed: 0.005 sec
Running org.la4j.linear.GaussianSolverTest
Tests run: 5, Failures: 0, Errors: 0, Skipped: 0, Time elapsed: 0.006 sec
Running org.la4j.matrix.dense.Basic2DMatrixTest
Tests run: 134, Failures: 0, Errors: 0, Skipped: 0, Time elapsed: 0.061 sec
Running org.la4j.matrix.dense.Basic1DMatrixTest
Tests run: 134, Failures: 0, Errors: 0, Skipped: 0, Time elapsed: 0.031 sec
Running org.la4j.matrix.sparse.CRSMatrixTest
Tests run: 147, Failures: 0, Errors: 0, Skipped: 0, Time elapsed: 0.136 sec
Running org.la4j.matrix.sparse.CCSMatrixTest
Tests run: 147, Failures: 0, Errors: 0, Skipped: 0, Time elapsed: 0.043 sec
Running org.la4j.inversion.NoPivotGaussInverterTest
Tests run: 6, Failures: 0, Errors: 0, Skipped: 0, Time elapsed: 0.589 sec
Running org.la4j.inversion.GaussJordanInverterTest
Tests run: 6, Failures: 0, Errors: 0, Skipped: 0, Time elapsed: 5.479 sec
Running org.la4j.vector.dense.BasicVectorTest
Tests run: 63, Failures: 0, Errors: 0, Skipped: 0, Time elapsed: 0.013 sec
Running org.la4j.vector.sparse.CompressedVectorTest
Tests run: 76, Failures: 0, Errors: 0, Skipped: 0, Time elapsed: 0.013 sec

Results :

Tests run: 799, Failures: 0, Errors: 0, Skipped: 0

[INFO] ------------------------------------------------------------------------
[INFO] BUILD SUCCESS
[INFO] ------------------------------------------------------------------------
[INFO] Total time: 8.001 s
[INFO] Finished at: 2017-01-01T02:46:47-06:00
[INFO] Final Memory: 27M/1930M
[INFO] ------------------------------------------------------------------------
