fd3442ab44559b8625bc21f12a2d00f22b40466a [FaultTracer] Extracted changes: 0 0 0 0 0 0 0 0 0 0 0 0 0 0 0 0 0 0 0 0 0 0 0 0 0 0 0 0
8846fa165214529c486143df5fe0dc4dafdcc1ef [FaultTracer] Extracted changes: 0 0 0 0 0 0 0 0 0 0 0 0 0 0 0 0 0 0 0 0 0 0 0 0 0 0 0 0
1976cc805401d57fb78bc5eb0ba15bb89d3c06fa [FaultTracer] Extracted changes: 0 0 0 0 0 0 0 0 0 0 0 0 0 0 0 0 0 0 0 0 0 0 0 0 0 0 0 0
7fb4bc03397e664a8617de60cd0c2afbbbc24340 [FaultTracer] Extracted changes: 0 0 4 0 0 0 0 0 1 1 0 0 0 2 20 4 0 0 0 0 1 1 0 0 0 1 3 2
3368cfe701e52d7ba6285bbdc9668bf9f401452f [FaultTracer] Extracted changes: 0 0 1 0 0 0 0 0 0 0 0 0 0 0 1 0 0 0 0 0 0 0 0 0 0 0 1 0
600d71500c947679b0fe9498040e119fd508a281 [FaultTracer] Extracted changes: 0 2 2 0 1 0 0 0 0 0 0 2 1 0 2 33 1 0 0 0 0 0 0 1 1 0 1 2
3c1eef4a17853366892e546aab2bdda11262d3e6 [FaultTracer] Extracted changes: 0 1 2 0 0 0 0 0 0 0 0 3 0 0 4 0 0 0 0 0 0 0 0 1 0 0 2 0
0e4b9c51dec7d6b1f7d15a2f0cd2c8be6279e22c [FaultTracer] Extracted changes: 0 0 2 0 0 0 0 0 0 0 0 0 0 0 2 0 0 0 0 0 0 0 0 0 0 0 2 0
73691605a359b1e28a09a95d19e9b0432179161c [FaultTracer] Extracted changes: 0 1 2 2 0 0 0 0 0 0 0 0 0 0 0 0 0 0 0 0 0 0 0 0 0 0 0 0
6a6c8eb90978195d1584eef421c38145c5aed231 [FaultTracer] Extracted changes: 0 1 3 1 0 0 0 0 0 0 0 0 0 0 0 2 0 0 0 0 0 0 0 0 0 0 0 2
e844f4018b6985d5af892efa381e111499130428 [FaultTracer] Extracted changes: 0 0 1 0 0 0 0 0 0 0 0 0 0 0 2 0 0 0 0 0 0 0 0 0 0 0 1 0
de9bd6843e8ec74b6b3ac7b6b21b3b788c98570a [FaultTracer] Extracted changes: 1 0 1 1 0 0 0 0 0 0 0 0 0 0 0 0 0 0 0 0 0 0 0 0 0 0 0 0
c2764e78545035970e707f6df0ac3f82dfd358fd [FaultTracer] Extracted changes: 0 0 2 0 0 0 0 0 0 0 0 0 0 0 4 0 0 0 0 0 0 0 0 0 0 0 2 0
3aa3cbc80a3e9375d6d65526f9b3ac001b01de64 [FaultTracer] Extracted changes: 0 0 2 0 0 0 0 0 0 0 0 2 0 0 2 0 0 0 0 0 0 0 0 1 0 0 2 0
11bb10780031ad12937012bc73cb28c50c651a75 [FaultTracer] Extracted changes: 0 0 2 0 0 0 0 0 1 0 0 1 0 0 1 0 0 0 0 0 1 0 0 1 0 0 1 0
2db8d70dd4560ad60bf57e5390d929d6d86728bc [FaultTracer] Extracted changes: 18 18 0 0 0 0 0 0 0 0 0 0 0 0 0 0 0 0 0 0 0 0 0 0 0 0 0 0
a60f45b74b2e5ee64b31e69dd4d9a392091f1454 [FaultTracer] Extracted changes: 0 0 0 0 0 0 0 0 0 0 0 0 0 0 0 0 0 0 0 0 0 0 0 0 0 0 0 0
59063b18b0632af78727ce3c29e29118e8042867 [FaultTracer] Extracted changes: 0 0 0 0 0 0 0 0 0 0 0 0 0 0 0 0 0 0 0 0 0 0 0 0 0 0 0 0
e5c26563183db9a4896250d4a731b858934a4e08 [FaultTracer] Extracted changes: 0 2 2 0 0 0 0 0 0 0 0 1 0 0 4 0 0 0 0 0 0 0 0 1 0 0 2 0
d1d5641652ba2a7614ddceefadce0f984d00c72e [FaultTracer] Extracted changes: 0 0 0 0 0 0 0 0 0 0 0 0 0 0 0 0 0 0 0 0 0 0 0 0 0 0 0 0
f1b1cd398cc5a4b5789fb9bfdf17f275f4e99aaf [FaultTracer] Extracted changes: 0 0 0 0 0 0 0 0 0 0 0 0 0 0 0 0 0 0 0 0 0 0 0 0 0 0 0 0
7577486002c89c74d0af432b6f9139bbaf7e40cc [FaultTracer] Extracted changes: 0 0 0 0 0 0 0 0 0 0 0 0 0 0 0 0 0 0 0 0 0 0 0 0 0 0 0 0
b89ff9026fad73af1e72533c001eb2b523344e7b [FaultTracer] Extracted changes: 0 0 0 0 0 0 0 0 0 0 0 0 0 0 0 0 0 0 0 0 0 0 0 0 0 0 0 0
bc58597b785b78fdf227fa8939677caf0f891e2b [FaultTracer] Extracted changes: 0 0 0 0 0 0 0 0 0 0 0 0 0 0 0 0 0 0 0 0 0 0 0 0 0 0 0 0
35b0e75abed06ee40fdf8e2c9a3768012453d73b [FaultTracer] Extracted changes: 0 0 1 0 0 0 0 0 0 0 0 0 0 0 0 1 0 0 0 0 0 0 0 0 0 0 0 1
896b4c2a49080429aa4845f84bb62542461df886 [FaultTracer] Extracted changes: 0 0 3 0 0 0 0 0 1 1 0 2 0 0 2 1 0 0 0 0 1 1 0 1 0 0 2 1
230e320baf3121edbec6f619943c120a969d3b80 [FaultTracer] Extracted changes: 0 0 3 0 0 0 0 0 8 0 0 0 0 0 8 1 0 0 0 0 1 0 0 0 0 0 1 1
785966f5b75dddf6297ece0a0815995be5632897 [FaultTracer] Extracted changes: 0 0 0 0 0 0 0 0 0 0 0 0 0 0 0 0 0 0 0 0 0 0 0 0 0 0 0 0
a668f7c7521e0d7467d993ae88d483af9927d6d5 [FaultTracer] Extracted changes: 0 0 0 0 0 0 0 0 0 0 0 0 0 0 0 0 0 0 0 0 0 0 0 0 0 0 0 0
d539764d7ebb26edc5080a2ecd642d483bcb6030 [FaultTracer] Extracted changes: 0 0 2 0 0 1 0 0 0 0 0 0 0 0 16 0 0 1 0 0 0 0 0 0 0 0 2 0
70ca11ada34aa2f0c9891fbb26fb0ed8e979999a [FaultTracer] Extracted changes: 0 0 0 0 0 0 0 0 0 0 0 0 0 0 0 0 0 0 0 0 0 0 0 0 0 0 0 0
f64979d7e2551146157d08aa97b147bbe15e0271 [FaultTracer] Extracted changes: 0 3 0 0 0 0 0 0 0 0 0 0 0 0 0 0 0 0 0 0 0 0 0 0 0 0 0 0
d21bdb828dd24f559ed9938b9f43f62a48506a5f [FaultTracer] Extracted changes: 0 0 3 0 0 1 0 0 2 4 0 6 3 0 8 27 0 1 0 0 1 1 0 2 1 0 2 2
1e63b67087313db79b6176f3ff47f65380a67c2b [FaultTracer] Extracted changes: 0 0 0 0 0 0 0 0 0 0 0 0 0 0 0 0 0 0 0 0 0 0 0 0 0 0 0 0
b234d3fb9bd0c3015e267b7b3d20da50ce665245 [FaultTracer] Extracted changes: 0 0 2 0 0 0 0 0 0 1 0 1 0 0 4 0 0 0 0 0 0 1 0 1 0 0 1 0
d20db5547ca225cb7ebad5a45d6aeb2e764f515b [FaultTracer] Extracted changes: 0 1 1 0 0 0 0 0 0 0 0 0 0 0 0 3 0 0 0 0 0 0 0 0 0 0 0 1
ece7d577e35bb06435e75251deb6779e93847b2e [FaultTracer] Extracted changes: 0 0 2 0 0 0 0 0 0 0 0 0 0 1 1 1 0 0 0 0 0 0 0 0 0 1 1 1
8d65478a5ebf9879580724cc30a77e58b25dbdd9 [FaultTracer] Extracted changes: 0 0 1 0 0 0 0 0 0 0 0 0 0 0 1 0 0 0 0 0 0 0 0 0 0 0 1 0
879c245c3a9414b6934451f83da86d3512512cb1 [FaultTracer] Extracted changes: 0 0 3 0 0 0 1 0 0 0 0 0 0 0 3 0 0 0 1 0 0 0 0 0 0 0 3 0
88c650b03496481fb58a18f2a1abe5bb7a5faacd [FaultTracer] Extracted changes: 0 0 1 0 0 0 0 0 0 0 0 0 0 0 0 1 0 0 0 0 0 0 0 0 0 0 0 1
f36234ecf3366ecde0d7757ce083fe95dbd153fc [FaultTracer] Extracted changes: 0 0 1 0 0 0 0 0 0 0 0 0 0 0 2 0 0 0 0 0 0 0 0 0 0 0 1 0
8ff6dffb786fcf5525686492bc4cd68c3e13350f [FaultTracer] Extracted changes: 0 0 1 0 0 0 0 0 0 0 0 0 0 0 0 1 0 0 0 0 0 0 0 0 0 0 0 1
48a32437a9c4ccb6ad2e7f32b19eb9e26062071f [FaultTracer] Extracted changes: 0 1 0 0 0 0 0 0 0 0 0 0 0 0 0 0 0 0 0 0 0 0 0 0 0 0 0 0
f69ed056139984e2c85e5f6667f021039b544d04 [FaultTracer] Extracted changes: 0 0 6 0 0 0 0 0 0 0 0 0 3 3 52 7 0 0 0 0 0 0 0 0 2 2 4 5
5e69f008fd85d35476018699c4558c3f05e23ece [FaultTracer] Extracted changes: 0 0 0 0 0 0 0 0 0 0 0 0 0 0 0 0 0 0 0 0 0 0 0 0 0 0 0 0
eae4675d5f9aa7e5b48782407e00298fa115cfc3 [FaultTracer] Extracted changes: 0 0 0 0 0 0 0 0 0 0 0 0 0 0 0 0 0 0 0 0 0 0 0 0 0 0 0 0
64d6fa8fbab79a65e0a17aaabc41e2def393185c [FaultTracer] Extracted changes: 0 0 2 0 0 0 0 0 0 0 0 0 0 2 18 3 0 0 0 0 0 0 0 0 0 1 2 2
ba2cd70051a3c6b8a8f9119ad6ca56a3a43a7ac6 [FaultTracer] Extracted changes: 0 0 3 0 0 0 0 0 0 1 0 1 0 9 40 0 0 0 0 0 0 1 0 1 0 1 3 0
62cd133f742a2fb925ef1a02b2ef25358d8d97ab [FaultTracer] Extracted changes: 0 0 6 0 0 0 0 0 1 1 0 0 0 27 25 50 0 0 0 0 1 1 0 0 0 1 6 2
d24b650c05fd27924c320221d14ea5abedb8dc40 [FaultTracer] Extracted changes: 0 0 0 0 0 0 0 0 0 0 0 0 0 0 0 0 0 0 0 0 0 0 0 0 0 0 0 0
8831430880c9ed7b316955166191215150683dbd [FaultTracer] Extracted changes: 0 0 0 0 0 0 0 0 0 0 0 0 0 0 0 0 0 0 0 0 0 0 0 0 0 0 0 0
db534bb189700fd20a81c16f2b60b8054bf51135 [FaultTracer] Extracted changes: 0 1 2 0 0 0 1 0 0 0 0 0 0 0 2 0 0 0 1 0 0 0 0 0 0 0 2 0
c2a03c1c59fde7b35c3900eaaf0c9cfd56faa3ec [FaultTracer] Extracted changes: 0 0 1 0 0 0 0 0 0 0 0 0 0 0 1 0 0 0 0 0 0 0 0 0 0 0 1 0
e81750f85d8c090c09cd06efb22b424829809a8f [FaultTracer] Extracted changes: 0 0 8 1 0 0 1 0 1 1 0 0 0 0 5 5 0 0 1 0 1 1 0 0 0 0 5 3
e63fe60a1ac4c4105a1227a78ecf6af9d836a156 [FaultTracer] Extracted changes: 0 0 4 0 0 0 1 0 0 0 0 0 0 0 5 3 0 0 1 0 0 0 0 0 0 0 3 2
c4c684b2cc2533f17f0a670caf8de960caecdd9d [FaultTracer] Extracted changes: 0 0 5 0 0 0 0 0 0 0 2 8 0 0 3 18 0 0 0 0 0 0 1 2 0 0 3 1
649e48d2b6d0ad6379bc28709d91617b8caf83b5 [FaultTracer] Extracted changes: 0 0 5 0 0 0 0 0 0 0 0 0 0 0 8 3 0 0 0 0 0 0 0 0 0 0 4 3
5b8af9dcc136b974bcbff1feb9134e6183bd2d6d [FaultTracer] Extracted changes: 0 0 3 0 0 0 1 0 0 0 0 1 0 0 0 2 0 0 1 0 0 0 0 1 0 0 0 2
8347a6d42021cd1134df4c1ba7208663c5f2ef1a [FaultTracer] Extracted changes: 0 0 1 0 0 0 0 0 0 0 0 0 0 0 0 1 0 0 0 0 0 0 0 0 0 0 0 1
00b0873f8e2789d85a2c33ff89877dd019619920 [FaultTracer] Extracted changes: 0 0 1 0 0 0 0 0 0 0 0 0 0 0 0 1 0 0 0 0 0 0 0 0 0 0 0 1
57f78240d23f4934f89afed00dca6b7394b6220a [FaultTracer] Extracted changes: 0 0 1 0 0 0 0 0 0 0 0 0 0 0 1 0 0 0 0 0 0 0 0 0 0 0 1 0
20e3bbce31a4fb01f1ff137311d22274e5550fbc [FaultTracer] Extracted changes: 0 0 4 0 0 1 0 0 2 0 0 0 0 0 2 2 0 1 0 0 1 0 0 0 0 0 2 2
8e724f07ad1e1610b8b32993d3e5f78507cf3a7f [FaultTracer] Extracted changes: 0 0 2 0 0 0 0 0 0 0 0 0 0 1 1 1 0 0 0 0 0 0 0 0 0 1 1 1
9d23cbd8cdca6206c5c4eddd77b2a65540035dbc [FaultTracer] Extracted changes: 0 0 0 0 0 0 0 0 0 0 0 0 0 0 0 0 0 0 0 0 0 0 0 0 0 0 0 0
3dc99873ae614372e157f82c76bdd743c75f9203 [FaultTracer] Extracted changes: 0 0 0 0 0 0 0 0 0 0 0 0 0 0 0 0 0 0 0 0 0 0 0 0 0 0 0 0
c35f3ee8314a1bdb5dc7dcf085ae481141c3adb2 [FaultTracer] Extracted changes: 0 0 2 0 0 0 0 0 0 0 1 1 1 0 0 1 0 0 0 0 0 0 1 1 1 0 0 1
9c59df375fcd1999ab625353bd5361ab65dc9bfc [FaultTracer] Extracted changes: 0 0 2 0 0 0 0 0 0 0 0 0 0 0 0 2 0 0 0 0 0 0 0 0 0 0 0 2
c8814bac220ae604a69af8c5ce751d59a0fa63b4 [FaultTracer] Extracted changes: 0 0 2 0 0 0 0 0 0 0 0 0 0 0 2 0 0 0 0 0 0 0 0 0 0 0 2 0
116bb5c31eedf154a0718e4d8c6a41b411481f54 [FaultTracer] Extracted changes: 0 0 1 0 0 0 0 0 0 0 0 1 0 0 0 0 0 0 0 0 0 0 0 1 0 0 0 0
c3ad6eda63b2b9512a4efdc6ef5800ae9989d95f [FaultTracer] Extracted changes: 0 0 2 0 0 0 0 0 0 0 0 0 0 0 2 2 0 0 0 0 0 0 0 0 0 0 1 1
e38833e60231f0eb18900ce5396c3439f974d1e2 [FaultTracer] Extracted changes: 0 0 2 0 0 0 0 0 0 0 0 0 0 0 2 0 0 0 0 0 0 0 0 0 0 0 2 0
ea7188752f8e10ec05bb5ace93740c93f02d06a1 [FaultTracer] Extracted changes: 0 0 0 0 0 0 0 0 0 0 0 0 0 0 0 0 0 0 0 0 0 0 0 0 0 0 0 0
59821c188c182cc96fb2cf6a11ca6325eb161122 [FaultTracer] Extracted changes: 0 0 0 0 0 0 0 0 0 0 0 0 0 0 0 0 0 0 0 0 0 0 0 0 0 0 0 0
fa3a1e9dc1fd46cbfa01a9eafeda2d7dfb861abd [FaultTracer] Extracted changes: 0 0 0 0 0 0 0 0 0 0 0 0 0 0 0 0 0 0 0 0 0 0 0 0 0 0 0 0
c967c7210398572e6a3492590e73173390617dd4 [FaultTracer] Extracted changes: 0 0 0 0 0 0 0 0 0 0 0 0 0 0 0 0 0 0 0 0 0 0 0 0 0 0 0 0
7cbe1e010133ccbfca8985e06ec753a81858e63f [FaultTracer] Extracted changes: 0 0 0 0 0 0 0 0 0 0 0 0 0 0 0 0 0 0 0 0 0 0 0 0 0 0 0 0
86606faa57ded03b5ef0a601a0f1c676ead346f3 [FaultTracer] Extracted changes: 0 0 6 0 0 0 0 0 0 0 0 0 0 0 11 5 0 0 0 0 0 0 0 0 0 0 5 3
5f425b218475e0f33f215e2361960c32d87c8fa8 [FaultTracer] Extracted changes: 0 0 2 0 0 0 1 0 0 0 1 0 0 0 2 0 0 0 1 0 0 0 1 0 0 0 2 0
4a2fde8f0d201864db7ac119249f1e8c521ec677 [FaultTracer] Extracted changes: 0 0 0 0 0 0 0 0 0 0 0 0 0 0 0 0 0 0 0 0 0 0 0 0 0 0 0 0
b3d3de3fd4bc9a012fbe946f34b58cbc88115f42 [FaultTracer] Extracted changes: 0 0 0 0 0 0 0 0 0 0 0 0 0 0 0 0 0 0 0 0 0 0 0 0 0 0 0 0
e71e9f880fb2039c6bbca9da08f297857abc2247 [FaultTracer] Extracted changes: 0 0 4 0 0 0 0 0 0 0 0 0 0 0 0 0 0 0 0 0 0 0 0 0 0 0 0 0
e3fe758711d6087b29f20af3a2c60d68fae3cad0 [FaultTracer] Extracted changes: 0 0 1 0 0 0 0 0 0 0 0 0 0 0 0 1 0 0 0 0 0 0 0 0 0 0 0 1
7e2d53d0eea67781d217fbe20cef15279cc8bd4c [FaultTracer] Extracted changes: 0 0 2 0 0 0 0 0 0 0 0 0 1 0 0 8 0 0 0 0 0 0 0 0 1 0 0 1
6db81da9784a72f31765a2f7cb8c4797d7807dc9 [FaultTracer] Extracted changes: 0 0 6 0 0 0 0 0 0 0 0 0 0 0 0 0 0 0 0 0 0 0 0 0 0 0 0 0
ce4166a499520d9986c45070382c4a0407e21197 [FaultTracer] Extracted changes: 0 0 0 0 0 0 0 0 0 0 0 0 0 0 0 0 0 0 0 0 0 0 0 0 0 0 0 0
d960d2b228246a5aa2033ba3aee1cfe3af2e6fa8 [FaultTracer] Extracted changes: 0 0 3 0 0 0 0 0 0 0 0 2 0 0 4 3 0 0 0 0 0 0 0 1 0 0 2 1
e09a8b2477f0285eaea0dc58690c3ec63675967e [FaultTracer] Extracted changes: 0 0 0 0 0 0 0 0 0 0 0 0 0 0 0 0 0 0 0 0 0 0 0 0 0 0 0 0
479b9ef653d3a2bd6633d2a55ae8b2c705bb310c [FaultTracer] Extracted changes: 0 0 2 0 0 0 0 0 0 0 0 1 0 0 0 2 0 0 0 0 0 0 0 1 0 0 0 2
24eea5f61531ce21eed1637d25b0bc60d4dd8d9e [FaultTracer] Extracted changes: 0 0 3 0 0 0 0 0 0 0 0 0 0 0 2 5 0 0 0 0 0 0 0 0 0 0 2 3
c418ab1fd49b2e735347d23ada2a91df14ab61fb [FaultTracer] Extracted changes: 0 0 0 0 0 0 0 0 0 0 0 0 0 0 0 0 0 0 0 0 0 0 0 0 0 0 0 0
d55e3e5036c4280a34a898b9c069b26b783ea0c2 [FaultTracer] Extracted changes: 0 0 0 0 0 0 0 0 0 0 0 0 0 0 0 0 0 0 0 0 0 0 0 0 0 0 0 0
6fdb57766bdf76a428202ef1da50e4923a18e0ce [FaultTracer] Extracted changes: 0 0 0 0 0 0 0 0 0 0 0 0 0 0 0 0 0 0 0 0 0 0 0 0 0 0 0 0
818e6d7a3c0ddd104bedc6d78bff9431f72c655d [FaultTracer] Extracted changes: 0 0 0 0 0 0 0 0 0 0 0 0 0 0 0 0 0 0 0 0 0 0 0 0 0 0 0 0
b59f488b683b38726e8190ea0dfd9b2e6895a593 [FaultTracer] Extracted changes: 0 0 1 0 0 0 0 0 0 0 0 0 0 0 1 0 0 0 0 0 0 0 0 0 0 0 1 0
87109141e68ef2135b0068be2d3542bff9c5f706 [FaultTracer] Extracted changes: 0 0 0 0 0 0 0 0 0 0 0 0 0 0 0 0 0 0 0 0 0 0 0 0 0 0 0 0
8b05f6e38747d98084b1479ecd5bde4432a82644 [FaultTracer] Extracted changes: 0 0 0 0 0 0 0 0 0 0 0 0 0 0 0 0 0 0 0 0 0 0 0 0 0 0 0 0
e532e7852a424bb679f593b010a2ea90b3c3f051 [FaultTracer] Extracted changes: 0 0 0 0 0 0 0 0 0 0 0 0 0 0 0 0 0 0 0 0 0 0 0 0 0 0 0 0
bf60d4f87c3262d88e7454e565f7a3edf9666ab2 [FaultTracer] Extracted changes: 0 0 0 0 0 0 0 0 0 0 0 0 0 0 0 0 0 0 0 0 0 0 0 0 0 0 0 0
bce738d8236e720a6904a0fbd247f6d80154fcde [FaultTracer] Extracted changes: 0 0 0 0 0 0 0 0 0 0 0 0 0 0 0 0 0 0 0 0 0 0 0 0 0 0 0 0
