3eed2ac177f8e6ff1b5a78598341365533fdebd7
82bc4f17159f946605a843e6050e7d7dc7121000
c3529b7a4db1f2de91c8b69cf4a3e062aa1c194d
4b2f49a7d711ce307771c41539e0fb8e2de13777
42cf666a8f72dd227b56618e3a2e42553d52c03d
238004b51301eb34745e718dd1bdf36867186cb0
b6500e35590e7c79078ab9a7483e6d5a7d3f2575
865c736b21bde536b15c3c0cf40c7227b722382d
a501f5925d20d3fc0c71fa4ff75e29308427f7ab
6493e22e8581e94dd441887356f0d71815adbb73
ec976a837efc1f62f459003a441997a78ef42f8f
c141d57e85b72556aec9c66cd2494b76e430b5a0
940e9044b2fb242587a6ed71f7a0532194ea122c
41b288bc56ba2797037abd57c55125fe0c7bfb68
fbc0dc7d81d8b4d3c448155c5907e06d996d9d58
f72ca72b68487ad6e9eb9245cc24ff987269bcd1
1f542507605b6b456fb7917ef5fad42147e8d345
22ec28d8aabe5dcdf9f4723f573395822611f6b5
ca1f84fffc5e9d9f11b0c14c541a15abe50041d0
d6d66583417c308dcc0b3fddc3ea7dcb5857f3fc
bd28b84d2c5d1726de71f597eb99e11b5919a00e
5f56cca4140147933b592e9f3caea5d5568d73e0
b621992b1e61739160c89c7ab11bf1756fc08b6b
55c1ca3bc436eac60b05e4f67ed347d77287cd7d
bca4aae6fb9ad11d81eac32f5aeaa0498c79f65c
5e3058ffab5bef33ae29dac9f0373630b7f5298f
7c6396481bf2f0c12e83614a28205fbcfc00ac32
81a3930cf266deb0d4cc8da4ef592dec71b0bac6
68a0ec6870f5a43ad124d2107c88fb3ae96bfe15
b7a027ec5ebc318444d7d4e06ec12a7326677b18
afc359684aede267a68495b856648e4990746b46
4c10e2222311f0a7a349e20930b54b8e8a3da8c0
2757402e078d22207cb7e5cbf1f4c24309070c64
3cd298ecda51ca3ecd79ac5c038e6cbdc1c1a48d
049e4fbdd987a405f2fcc1b97e6c7903db068965
7edc73183bc407fcb8f4a9a464908fa533020239
ff42784f1fb066be1530ca115756f10ced3742e4
beb776ee9a7dc8fd2ecec0e648c0b666b50b62ef
c70b419bdeb0284d5992d267e81c2a0bcb741dd9
5d6b057cc7b770b8dc57b5badff3e34ab87fdddf
