c75d8e3d11b405fe276550bcf597f0774a355f3b [FaultTracer] Extracted changes: 0 0 0 0 0 0 0 0 0 0 0 0 0 0 0 0 0 0 0 0 0 0 0 0 0 0 0 0
5ab7a3e29bb8c6a13b961a06db7d9ca3a298f4cf [FaultTracer] Extracted changes: 0 1 1 0 0 0 0 0 0 0 0 0 0 0 0 1 0 0 0 0 0 0 0 0 0 0 0 1
7d886c0bf06232096740c5066aaf5510d8e7abf5 [FaultTracer] Extracted changes: 0 0 1 0 0 1 0 0 0 0 0 0 0 0 0 3 0 1 0 0 0 0 0 0 0 0 0 1
fe8856c0bd59231b336431dbe6303aa028985d50 [FaultTracer] Extracted changes: 0 0 0 0 0 0 0 0 0 0 0 0 0 0 0 0 0 0 0 0 0 0 0 0 0 0 0 0
1aeef06d19f28ffde027c7a39ba1fc6986a9f6bc [FaultTracer] Extracted changes: 0 0 0 0 0 0 0 0 0 0 0 0 0 0 0 0 0 0 0 0 0 0 0 0 0 0 0 0
050d2adac44316248330c5fed93bfccf2408e3f9 [FaultTracer] Extracted changes: 0 0 1 0 0 0 0 0 0 0 0 0 0 0 0 1 0 0 0 0 0 0 0 0 0 0 0 1
1542b7fcd99713d23269a10166b5c5a39257be23 [FaultTracer] Extracted changes: 0 0 3 0 0 0 0 0 0 0 0 1 0 0 0 2 0 0 0 0 0 0 0 1 0 0 0 2
27ca378cc06390e2a46c1de9df243dfd1c548015 [FaultTracer] Extracted changes: 0 0 0 0 0 0 0 0 0 0 0 0 0 0 0 0 0 0 0 0 0 0 0 0 0 0 0 0
511b77dc01697ba8f459832ffe3552542d434568 [FaultTracer] Extracted changes: 0 0 0 0 0 0 0 0 0 0 0 0 0 0 0 0 0 0 0 0 0 0 0 0 0 0 0 0
c59e13bde1d58afaae945835e6b2b4f1e185fa14 [FaultTracer] Extracted changes: 0 0 0 0 0 0 0 0 0 0 0 0 0 0 0 0 0 0 0 0 0 0 0 0 0 0 0 0
04bc97f8e55e82fabf902aee9034e25a667d6d84 [FaultTracer] Extracted changes: 0 0 2 2 0 0 0 0 0 0 0 0 0 0 0 0 0 0 0 0 0 0 0 0 0 0 0 0
aa9407198ca457e02ee295b73964a5ddf0fe78cf [FaultTracer] Extracted changes: 0 0 0 0 0 0 0 0 0 0 0 0 0 0 0 0 0 0 0 0 0 0 0 0 0 0 0 0
5ab7382520a9f845d7bdbdce94f52ac21823f1df [FaultTracer] Extracted changes: 0 0 1 0 0 0 0 0 0 0 0 0 0 0 0 1 0 0 0 0 0 0 0 0 0 0 0 1
efd53e5e9bbc3057586af8389a0b139b44af7a65 [FaultTracer] Extracted changes: 0 1 1 0 0 0 0 0 0 0 0 0 0 0 4 4 0 0 0 0 0 0 0 0 0 0 1 1
5fee7e45d1443b881956ea8a5847a9b6aaacaa10 [FaultTracer] Extracted changes: 0 0 0 0 0 0 0 0 0 0 0 0 0 0 0 0 0 0 0 0 0 0 0 0 0 0 0 0
1f9de79446163329f47eb5c4fdda014faea95a36 [FaultTracer] Extracted changes: 0 0 0 0 0 0 0 0 0 0 0 0 0 0 0 0 0 0 0 0 0 0 0 0 0 0 0 0
a6ae3fb425c5e9bd75131fd9e34c4cfd9d81e626 [FaultTracer] Extracted changes: 0 0 0 0 0 0 0 0 0 0 0 0 0 0 0 0 0 0 0 0 0 0 0 0 0 0 0 0
d5766aa2a4d8db0705ab8aff9e561638a397bab0 [FaultTracer] Extracted changes: 0 0 1 0 0 0 0 0 0 0 0 0 0 0 0 1 0 0 0 0 0 0 0 0 0 0 0 1
832b50f85ca2b1deba3562eefaea182722017ad8 [FaultTracer] Extracted changes: 0 0 0 0 0 0 0 0 0 0 0 0 0 0 0 0 0 0 0 0 0 0 0 0 0 0 0 0
7b144adbfe76a4207c69b1b29d9529b7017ecfba [FaultTracer] Extracted changes: 0 0 0 0 0 0 0 0 0 0 0 0 0 0 0 0 0 0 0 0 0 0 0 0 0 0 0 0
c400a47c35ad7f7270178f093b5c91ab90f6f7fd [FaultTracer] Extracted changes: 0 0 0 0 0 0 0 0 0 0 0 0 0 0 0 0 0 0 0 0 0 0 0 0 0 0 0 0
7baaacc643d8a5ea9f90a78a28702f141fe126ac [FaultTracer] Extracted changes: 0 0 0 0 0 0 0 0 0 0 0 0 0 0 0 0 0 0 0 0 0 0 0 0 0 0 0 0
be0ced82e56cebf4519179f49eb85b82f38f9bf6 [FaultTracer] Extracted changes: 0 0 0 0 0 0 0 0 0 0 0 0 0 0 0 0 0 0 0 0 0 0 0 0 0 0 0 0
32124cb1215e693decbf3e5593866f0b3f62da18 [FaultTracer] Extracted changes: 0 0 556 556 0 0 0 0 0 0 0 0 0 0 0 0 0 0 0 0 0 0 0 0 0 0 0 0
40f6b5acfebb2acc8bbde2a36939176e2920e446 [FaultTracer] Extracted changes: 0 0 0 0 0 0 0 0 0 0 0 0 0 0 0 0 0 0 0 0 0 0 0 0 0 0 0 0
0276518b7e830ff3ea93d2cfa3a32f5f8d04d2fb [FaultTracer] Extracted changes: 0 0 0 0 0 0 0 0 0 0 0 0 0 0 0 0 0 0 0 0 0 0 0 0 0 0 0 0
716323e180fb123c2e9edaf10a8b43797f4e05a7 [FaultTracer] Extracted changes: 0 0 0 0 0 0 0 0 0 0 0 0 0 0 0 0 0 0 0 0 0 0 0 0 0 0 0 0
38599491bfc9049de0ca161549eb1ab015d6c6b0 [FaultTracer] Extracted changes: 0 0 0 0 0 0 0 0 0 0 0 0 0 0 0 0 0 0 0 0 0 0 0 0 0 0 0 0
95e3d6f4f9fee4b7b9b8d4d28fbaeb45820a97e7 [FaultTracer] Extracted changes: 0 0 1 0 0 0 0 0 0 0 0 0 0 0 0 1 0 0 0 0 0 0 0 0 0 0 0 1
e178aba09295b097e21215ae137c213f381d5805 [FaultTracer] Extracted changes: 0 0 1 0 0 0 0 0 0 0 0 0 0 0 0 8 0 0 0 0 0 0 0 0 0 0 0 1
3bc748d0814ccc542b4abb70e1a00b1111f70452 [FaultTracer] Extracted changes: 0 0 1 0 0 0 0 0 0 0 0 0 0 0 0 8 0 0 0 0 0 0 0 0 0 0 0 1
c0bebc00bef47b80b3e65944e11106135cc6d2f9 [FaultTracer] Extracted changes: 0 0 0 0 0 0 0 0 0 0 0 0 0 0 0 0 0 0 0 0 0 0 0 0 0 0 0 0
2e770e478306ab7e73b3bee913c1e7e719ef08b5 [FaultTracer] Extracted changes: 0 0 6 0 0 0 0 0 0 0 0 0 0 0 0 6 0 0 0 0 0 0 0 0 0 0 0 6
b7e03363ed3c8cbe609967a1d5459339460cc02e [FaultTracer] Extracted changes: 0 0 0 0 0 0 0 0 0 0 0 0 0 0 0 0 0 0 0 0 0 0 0 0 0 0 0 0
b8cd72abfeb4f396f3a18da2ff0762fd9304ade3 [FaultTracer] Extracted changes: 0 0 2 0 0 0 0 0 0 0 0 0 0 0 0 2 0 0 0 0 0 0 0 0 0 0 0 2
0fbeae06722e0137be0308a625740e47e330f23a [FaultTracer] Extracted changes: 0 0 0 0 0 0 0 0 0 0 0 0 0 0 0 0 0 0 0 0 0 0 0 0 0 0 0 0
ae5629f66805c5e5b144337857cc93580021f71d [FaultTracer] Extracted changes: 0 0 0 0 0 0 0 0 0 0 0 0 0 0 0 0 0 0 0 0 0 0 0 0 0 0 0 0
f1fe855f42701c5d98a9b7c59f3626e762bc06f6 [FaultTracer] Extracted changes: 0 0 2 0 0 0 0 0 0 0 0 0 0 0 1 1 0 0 0 0 0 0 0 0 0 0 1 1
801a75dcf871914d243f585c8755140eda52c69f [FaultTracer] Extracted changes: 0 0 0 0 0 0 0 0 0 0 0 0 0 0 0 0 0 0 0 0 0 0 0 0 0 0 0 0
0915f7c3a9bca6f075213c3ee2693cde6c55f4df [FaultTracer] Extracted changes: 0 0 0 0 0 0 0 0 0 0 0 0 0 0 0 0 0 0 0 0 0 0 0 0 0 0 0 0
b8670e17d3eb7cd66729a545556fc990093edaec [FaultTracer] Extracted changes: 0 0 0 0 0 0 0 0 0 0 0 0 0 0 0 0 0 0 0 0 0 0 0 0 0 0 0 0
ffcb4a3814c2ae099af7803f0410c9c4ba91e0d4 [FaultTracer] Extracted changes: 0 0 0 0 0 0 0 0 0 0 0 0 0 0 0 0 0 0 0 0 0 0 0 0 0 0 0 0
cd5ef9b33efea115d54d5f536f157cbae3990366 [FaultTracer] Extracted changes: 0 0 1 0 0 0 0 0 0 0 0 0 0 0 0 2 0 0 0 0 0 0 0 0 0 0 0 1
ed6115b320aa309100ba2edabff22f5e0c51a71b [FaultTracer] Extracted changes: 0 0 0 0 0 0 0 0 0 0 0 0 0 0 0 0 0 0 0 0 0 0 0 0 0 0 0 0
4224c580c089e5c6e0e1bfb139b25cbac5902d1b [FaultTracer] Extracted changes: 0 0 0 0 0 0 0 0 0 0 0 0 0 0 0 0 0 0 0 0 0 0 0 0 0 0 0 0
7a65b53b598dc993f095f33aa4b2bf73edda2c03 [FaultTracer] Extracted changes: 0 0 0 0 0 0 0 0 0 0 0 0 0 0 0 0 0 0 0 0 0 0 0 0 0 0 0 0
d61a6b00906bbd3305c0167bfecc80cecd0fce0b [FaultTracer] Extracted changes: 2 10 0 0 0 0 0 0 0 0 0 0 0 0 0 0 0 0 0 0 0 0 0 0 0 0 0 0
3a550ab09bd03f68e01facc84e11f2e1e87a088f [FaultTracer] Extracted changes: 0 4 6 0 0 0 1 1 1 0 0 0 0 0 4 3 0 0 1 1 1 0 0 0 0 0 3 2
84dc6dabbffdbf17a033b58f91f68f00139976cb [FaultTracer] Extracted changes: 0 0 14 0 0 0 0 0 0 0 0 0 5 0 0 16 0 0 0 0 0 0 0 0 2 0 0 12
5b7b44724b2aadde6d23f827c7d4aec383e3a1cf [FaultTracer] Extracted changes: 0 0 24 0 0 0 0 0 0 0 0 0 1 0 0 45 0 0 0 0 0 0 0 0 1 0 0 24
114cd8507f6bcc26d4b56bd53c88cd17ee31afbf [FaultTracer] Extracted changes: 0 0 0 0 0 0 0 0 0 0 0 0 0 0 0 0 0 0 0 0 0 0 0 0 0 0 0 0
d65744c5bf25e1945c740c9334c2ccf3ec1bee6c [FaultTracer] Extracted changes: 0 0 1 0 0 0 0 0 0 0 0 0 0 2 2 0 0 0 0 0 0 0 0 0 0 1 1 0
ecdf5f2ff4f96bc6e78501076ab941cb9d839232 [FaultTracer] Extracted changes: 0 0 0 0 0 0 0 0 0 0 0 0 0 0 0 0 0 0 0 0 0 0 0 0 0 0 0 0
b3a371800b39e4cc6f01adbf6977328e654ece6d [FaultTracer] Extracted changes: 1 0 0 0 0 0 0 0 0 0 0 0 0 0 0 0 0 0 0 0 0 0 0 0 0 0 0 0
14b9eff39ac560a2ab34826c87251b37d72ceaf6 [FaultTracer] Extracted changes: 0 0 2 0 0 0 0 0 0 0 0 0 0 0 1 4 0 0 0 0 0 0 0 0 0 0 1 2
d280ca6b5437975b5a1ca09bbe91c0b8f381c882 [FaultTracer] Extracted changes: 0 0 0 0 0 0 0 0 0 0 0 0 0 0 0 0 0 0 0 0 0 0 0 0 0 0 0 0
30b2b34a4864100393e48a27d935f93e52ea0d62 [FaultTracer] Extracted changes: 0 0 1 0 0 0 1 0 0 0 0 0 0 0 0 0 0 0 1 0 0 0 0 0 0 0 0 0
883f3a23e6c85e37b555a9d6fb7f955b9702b072 [FaultTracer] Extracted changes: 0 0 1 0 0 0 0 0 0 0 0 0 0 0 0 1 0 0 0 0 0 0 0 0 0 0 0 1
670e915d4880e661dc98e2758b44ecbfc6df2951 [FaultTracer] Extracted changes: 0 0 1 0 0 0 0 0 0 0 0 0 0 0 0 2 0 0 0 0 0 0 0 0 0 0 0 1
397c81ab1c51df34a7c897dcbe9443a271d3f648 [FaultTracer] Extracted changes: 0 0 2 0 0 0 0 0 0 0 0 0 1 0 0 1 0 0 0 0 0 0 0 0 1 0 0 1
db488210d7dcfa069944ef43dc34368654eb80f0 [FaultTracer] Extracted changes: 0 0 0 0 0 0 0 0 0 0 0 0 0 0 0 0 0 0 0 0 0 0 0 0 0 0 0 0
afd43e4375d9e2c2f13ab4b8deb158a8ff7947e7 [FaultTracer] Extracted changes: 0 0 2 0 0 0 1 0 0 0 0 0 0 0 0 1 0 0 1 0 0 0 0 0 0 0 0 1
a6ceb9da595d15e355f04f4341bcae7b9d4b0ddf [FaultTracer] Extracted changes: 0 12 46 0 0 0 16 18 18 0 0 0 3 57 67 19 0 0 16 15 15 0 0 0 2 13 13 13
43aa06dec535111d63ec1411803ec907133e5912 [FaultTracer] Extracted changes: 0 0 2 0 0 0 0 0 0 0 0 0 0 0 0 1 0 0 0 0 0 0 0 0 0 0 0 1
0abdc511718e6e1fbbbd307e9bc809aefb2e8051 [FaultTracer] Extracted changes: 0 0 1 0 0 0 0 0 0 0 0 0 0 0 0 0 0 0 0 0 0 0 0 0 0 0 0 0
a03e1e3815d33bcc5d4e317b42ac4da0718c3a43 [FaultTracer] Extracted changes: 0 0 0 0 0 0 0 0 0 0 0 0 0 0 0 0 0 0 0 0 0 0 0 0 0 0 0 0
25bc65308e7f489a921f9f3c61b79d4c2fdf9018 [FaultTracer] Extracted changes: 0 0 1 0 0 0 0 0 0 0 0 0 0 0 0 7 0 0 0 0 0 0 0 0 0 0 0 1
51f5ee0c3541891278e9c4c4e16e52c891dc9a53 [FaultTracer] Extracted changes: 0 0 1 0 0 0 0 0 0 1 0 0 0 0 0 0 0 0 0 0 0 1 0 0 0 0 0 0
3bf47537361b7eafc895070cbff471f25b71c522 [FaultTracer] Extracted changes: 0 0 1 0 0 0 0 0 0 1 0 0 0 0 0 0 0 0 0 0 0 1 0 0 0 0 0 0
0a2a7ff2f9dabfcb543b7228ec91b236783df624 [FaultTracer] Extracted changes: 0 0 1 0 0 0 0 0 0 1 0 0 2 0 0 11 0 0 0 0 0 1 0 0 1 0 0 1
4e0e6e85c6dc4b1d348bd8ac7d70cbe7b066ebef [FaultTracer] Extracted changes: 0 0 1 0 0 0 0 0 0 1 0 0 0 0 0 0 0 0 0 0 0 1 0 0 0 0 0 0
1f5e1b8f56945f3a99a211c99f874d26fb6c78f7 [FaultTracer] Extracted changes: 0 0 1 0 0 0 0 0 0 1 0 0 0 0 0 0 0 0 0 0 0 1 0 0 0 0 0 0
d20670db17c82c791b410ed13d58f8dbefea87f2 [FaultTracer] Extracted changes: 0 0 1 0 0 0 0 0 0 1 0 0 0 0 0 0 0 0 0 0 0 1 0 0 0 0 0 0
5f5bc603f1c5f835043aa4ed5d6d7c1bcef168f3 [FaultTracer] Extracted changes: 0 0 1 0 0 0 0 0 0 0 0 0 0 0 0 1 0 0 0 0 0 0 0 0 0 0 0 1
9ddad4b1ed76b8f405098f4220ff21bed05acecc [FaultTracer] Extracted changes: 0 0 1 0 0 0 0 0 0 1 0 0 0 0 0 0 0 0 0 0 0 1 0 0 0 0 0 0
3f6c6c269cbd3d2e3a09e287a9080335c99d8cb1 [FaultTracer] Extracted changes: 0 0 1 0 0 0 0 0 0 0 0 0 0 0 0 1 0 0 0 0 0 0 0 0 0 0 0 1
f78418f4c2b29ec899458a8754068bb418c41dec [FaultTracer] Extracted changes: 0 0 2 0 0 0 0 0 0 0 0 0 0 7 4 1 0 0 0 0 0 0 0 0 0 1 1 1
1b5e84e28ba3156d444d61151128d183b0554aeb [FaultTracer] Extracted changes: 0 0 1 0 0 0 0 0 0 0 0 0 0 0 0 1 0 0 0 0 0 0 0 0 0 0 0 1
2bf032e17a06000b8336519b3642a339e5c6d331 [FaultTracer] Extracted changes: 0 0 0 0 0 0 0 0 0 0 0 0 0 0 0 0 0 0 0 0 0 0 0 0 0 0 0 0
b5f27dde0f4786740fb5a133faeed98dd9d0ad3e [FaultTracer] Extracted changes: 0 0 2 0 0 0 0 1 1 2 0 0 0 0 0 0 0 0 0 1 1 2 0 0 0 0 0 0
d3658d6c8175149ea2d4eed66b7c92de21cfe01d [FaultTracer] Extracted changes: 0 0 1 0 0 0 0 0 0 1 0 0 0 0 0 0 0 0 0 0 0 1 0 0 0 0 0 0
3e4a5a6657861edfe253cbc3ecbfc2e06f8b8813 [FaultTracer] Extracted changes: 0 0 1 0 0 0 0 0 0 0 0 0 0 0 0 1 0 0 0 0 0 0 0 0 0 0 0 1
0b3e97339fa0da57dd823c9e7d0fd72488ca895b [FaultTracer] Extracted changes: 0 0 1 0 0 0 0 0 0 0 0 0 0 0 0 1 0 0 0 0 0 0 0 0 0 0 0 1
09f80c34d40bbe58754293bca0b981a740cda9f1 [FaultTracer] Extracted changes: 0 0 1 1 0 0 0 0 0 0 0 0 0 0 0 0 0 0 0 0 0 0 0 0 0 0 0 0
0644734bc2057ceeda9497237393281f7e638376 [FaultTracer] Extracted changes: 0 0 2 0 0 0 0 1 0 1 0 0 0 1 0 1 0 0 0 1 0 1 0 0 0 1 0 1
df41d46a01618a04c8f411c775f7df7f17e2c5e5 [FaultTracer] Extracted changes: 0 0 1 0 0 0 0 0 0 1 0 0 0 0 0 0 0 0 0 0 0 1 0 0 0 0 0 0
cb387cf13efc8fde3c777bc87f7eb9612a15c07e [FaultTracer] Extracted changes: 0 0 1 0 0 0 0 0 0 0 0 0 2 0 0 0 0 0 0 0 0 0 0 0 1 0 0 0
860ee5bc33a7a6f6a9b4839eac3742e0f81b0050 [FaultTracer] Extracted changes: 0 0 5 3 0 0 0 0 0 1 0 0 0 0 1 1 0 0 0 0 0 1 0 0 0 0 1 1
2f64583cdcb8d28d050aba22b46ec41d6df91ec2 [FaultTracer] Extracted changes: 4 4 20 2 0 0 0 0 0 0 0 0 0 20 20 14 0 0 0 0 0 0 0 0 0 17 17 4
2000ebc8be79733140face581be259278dd67071 [FaultTracer] Extracted changes: 0 0 1 1 0 0 0 0 0 0 0 0 0 0 0 0 0 0 0 0 0 0 0 0 0 0 0 0
3653791bb2ec9e9224beee7da3525af2cf866f32 [FaultTracer] Extracted changes: 0 0 1 0 0 0 0 0 0 0 0 0 0 0 0 1 0 0 0 0 0 0 0 0 0 0 0 1
4dc0d455ca0fbc1109ee6af22554aa2b40807c8f [FaultTracer] Extracted changes: 0 0 1 0 0 0 0 0 0 0 0 0 0 0 0 1 0 0 0 0 0 0 0 0 0 0 0 1
aa0525ae957d84928cbe9bbc10a3c2a25b4bcbb9 [FaultTracer] Extracted changes: 0 0 3 0 0 0 0 0 0 0 0 0 1 0 0 2 0 0 0 0 0 0 0 0 1 0 0 2
cfbc445a6a3f50f271a03b7324e792900dc70a6c [FaultTracer] Extracted changes: 0 0 9 7 0 0 0 0 0 2 0 0 0 0 0 0 0 0 0 0 0 2 0 0 0 0 0 0
e552f7a1fa58434f111e96a4ed624e7e18b30aad [FaultTracer] Extracted changes: 0 0 2 2 0 0 0 0 0 0 0 0 0 0 0 0 0 0 0 0 0 0 0 0 0 0 0 0
625d096ae320841e9654a843555f937288b46177 [FaultTracer] Extracted changes: 0 0 1 0 0 0 0 0 0 1 0 0 0 0 0 0 0 0 0 0 0 1 0 0 0 0 0 0
54e85edc5c0992036adba129b4fc2f0ffe3a07eb [FaultTracer] Extracted changes: 0 0 0 0 0 0 0 0 0 0 0 0 0 0 0 0 0 0 0 0 0 0 0 0 0 0 0 0
529696137875b36f9bb64e247ff02739fd70da9b [FaultTracer] Extracted changes: 0 0 1 1 0 0 0 0 0 0 0 0 0 0 0 0 0 0 0 0 0 0 0 0 0 0 0 0
843730117351443d59ef3d15afeffda1920f5d42 [FaultTracer] Extracted changes: 0 0 0 0 0 0 0 0 0 0 0 0 0 0 0 0 0 0 0 0 0 0 0 0 0 0 0 0
