f2a308ff638d13ad51dc2463fc94e465a0861ab9 [FaultTracer] Extracted changes: 0 0 1 0 0 0 0 0 0 0 0 0 0 0 0 1 0 0 0 0 0 0 0 0 0 0 0 1
f4bcc1d4fe8e1b9c77d82f7bb4dfe123707b35e6 [FaultTracer] Extracted changes: 0 0 3 0 0 0 0 0 0 0 0 0 0 0 1 2 0 0 0 0 0 0 0 0 0 0 1 2
ec4c7cdca0678807684964f45dc277a3c451e1eb [FaultTracer] Extracted changes: 0 0 2 0 0 0 0 0 0 0 0 0 0 0 1 1 0 0 0 0 0 0 0 0 0 0 1 1
5127a6911ff89ddeb18f0f5a5116ccbe8b88fbbe [FaultTracer] Extracted changes: 0 4 11 1 0 0 1 0 0 0 0 2 1 0 5 11 0 0 1 0 0 0 0 1 1 0 3 6
e547da8824ff6ae02e61eba716f4babeac57dfce [FaultTracer] Extracted changes: 0 7 9 2 0 0 1 0 0 0 0 0 0 0 6 2 0 0 1 0 0 0 0 0 0 0 4 2
64a181e9448519c44c759644ecab8b28cb5ad53b [FaultTracer] Extracted changes: 0 0 2 0 0 0 0 0 0 0 0 0 0 0 2 0 0 0 0 0 0 0 0 0 0 0 2 0
e04cc9d032952bcfb26f5db3c0e19f56f911abcb [FaultTracer] Extracted changes: 0 0 2 0 0 0 0 0 0 0 0 0 0 0 0 2 0 0 0 0 0 0 0 0 0 0 0 2
2c8bd45cd88f5d9e6d34453018e92d96e44d98bd [FaultTracer] Extracted changes: 0 0 4 1 0 0 0 0 0 0 0 0 0 2 1 3 0 0 0 0 0 0 0 0 0 1 1 2
e95fdaaf50d0b8156241fac57aad4d5827008103 [FaultTracer] Extracted changes: 0 0 1 0 0 0 0 0 0 0 0 0 0 0 0 1 0 0 0 0 0 0 0 0 0 0 0 1
f8d5a7f3584db8470a2e6fd84efb866023c9c6bf [FaultTracer] Extracted changes: 0 0 4 0 0 0 0 0 0 0 0 0 0 1 1 3 0 0 0 0 0 0 0 0 0 1 1 3
7c8a51b1469345a23a579a12e9db14674cd8475d [FaultTracer] Extracted changes: 0 1 9 0 0 0 1 0 0 0 0 0 0 12 22 2 0 0 1 0 0 0 0 0 0 4 7 2
67646e72ac6c2a686b105666f16dd3ee34c39ce9 [FaultTracer] Extracted changes: 0 0 33 13 0 0 0 0 0 0 0 0 0 0 12 22 0 0 0 0 0 0 0 0 0 0 12 9
c419ebfe31386728dc2ea63cdf023669ca89e31e [FaultTracer] Extracted changes: 1 2 3 0 0 0 1 0 0 0 0 0 0 0 0 3 0 0 1 0 0 0 0 0 0 0 0 2
38c3ee080915d2581d91b9fbdda246797543fd54 [FaultTracer] Extracted changes: 32 32 10 0 0 0 1 0 0 0 0 0 0 21 21 11 0 0 1 0 0 0 0 0 0 7 7 2
4e2bac5fdd89a8347084c0e25f7c1e2250efcce0 [FaultTracer] Extracted changes: 1 2 6 6 0 0 0 0 0 0 0 0 0 0 0 0 0 0 0 0 0 0 0 0 0 0 0 0
4d56303dd0c809f0ae965a53ff45a5e71d1f9e84 [FaultTracer] Extracted changes: 0 1 5 0 0 0 2 0 0 0 0 0 0 1 10 1 0 0 2 0 0 0 0 0 0 1 3 1
73140464cc8fcc32dc6e8f352b3f0fe887fb7b75 [FaultTracer] Extracted changes: 0 0 6 5 0 0 0 0 0 0 0 0 7 0 0 0 0 0 0 0 0 0 0 0 1 0 0 0
a7a8b361a36a68e21879ad3dbb2720684655bc05 [FaultTracer] Extracted changes: 0 0 3 0 0 0 1 0 0 0 0 0 0 0 2 7 0 0 1 0 0 0 0 0 0 0 1 1
430f403deffe1c21d6f90d5e196be27546ed5756 [FaultTracer] Extracted changes: 0 3 2 0 0 0 1 0 0 0 0 0 0 0 0 2 0 0 1 0 0 0 0 0 0 0 0 1
1de914a194d85a75f085b4df6882c6a1f428ca05 [FaultTracer] Extracted changes: 0 1 2 0 0 0 1 0 0 0 0 0 0 0 0 2 0 0 1 0 0 0 0 0 0 0 0 1
a91448af06bd1311b71ca05da7e303a11309bfcd [FaultTracer] Extracted changes: 0 0 1 0 0 0 0 0 0 0 0 0 0 0 0 7 0 0 0 0 0 0 0 0 0 0 0 1
2b3aa1fcee8c65c1f537acdc776197305c1dc105 [FaultTracer] Extracted changes: 0 0 1 0 0 0 0 0 0 0 0 0 0 0 0 7 0 0 0 0 0 0 0 0 0 0 0 1
0431c02cf4f68e0946535a3f0d76b299eae3941a [FaultTracer] Extracted changes: 0 0 3 1 0 0 0 0 0 0 0 0 0 0 0 23 0 0 0 0 0 0 0 0 0 0 0 2
9b567dd7c695368a6706e1982ea917477e22bcbc [FaultTracer] Extracted changes: 0 1 1 1 0 0 0 0 0 0 0 0 0 0 0 0 0 0 0 0 0 0 0 0 0 0 0 0
fbf72dc819458284b10f22eccfe1686c8e6a2863 [FaultTracer] Extracted changes: 0 1 1 1 0 0 0 0 0 0 0 0 0 0 0 0 0 0 0 0 0 0 0 0 0 0 0 0
e07e194f59e469d7536b4f84ef34664bd5aff88d [FaultTracer] Extracted changes: 0 1 2 2 0 0 0 0 0 0 0 0 0 0 0 0 0 0 0 0 0 0 0 0 0 0 0 0
95a7120ac1619b4fe07a9dd15ccdc61a978e98ad [FaultTracer] Extracted changes: 0 1 3 2 0 0 0 0 0 0 0 0 0 0 0 1 0 0 0 0 0 0 0 0 0 0 0 1
87f1b654c27288ac061d798c9a142ffe0aa5b74c [FaultTracer] Extracted changes: 0 1 1 1 0 0 0 0 0 0 0 0 0 0 0 0 0 0 0 0 0 0 0 0 0 0 0 0
560e664723239f0d3f11e021bb44d7c71086be95 [FaultTracer] Extracted changes: 0 1 1 1 0 0 0 0 0 0 0 0 0 0 0 0 0 0 0 0 0 0 0 0 0 0 0 0
de8e86cff9f613c9b8dd85081b4f0a04122aaf41 [FaultTracer] Extracted changes: 0 1 5 4 0 0 0 0 0 1 0 0 0 0 0 3 0 0 0 0 0 1 0 0 0 0 0 1
e9e489f4c5bb72c9dcc1b25435d7f68918150dcc [FaultTracer] Extracted changes: 0 1 4 4 0 0 0 0 0 0 0 0 0 0 0 0 0 0 0 0 0 0 0 0 0 0 0 0
382db082344019ac928553bc79c49d025a3064f8 [FaultTracer] Extracted changes: 0 0 2 0 0 0 0 0 0 0 0 0 0 9 6 0 0 0 0 0 0 0 0 0 0 2 2 0
c7e88150ae4d5059d4f4db2ec315082821fa5187 [FaultTracer] Extracted changes: 0 0 3 0 0 0 0 0 0 0 0 0 0 7 0 22 0 0 0 0 0 0 0 0 0 3 0 2
7a7674cd4e9b0c4776a107c1f9ce9067c45a54f8 [FaultTracer] Extracted changes: 0 0 0 0 0 0 0 0 0 0 0 0 0 0 0 0 0 0 0 0 0 0 0 0 0 0 0 0
2d5b3ad81d60b1da1ecf34f217bfec8196d3a46a [FaultTracer] Extracted changes: 0 0 279 279 0 0 0 0 0 0 0 0 0 0 0 0 0 0 0 0 0 0 0 0 0 0 0 0
373c2069f581e9305e3c0a2b8bb165d1c3327944 [FaultTracer] Extracted changes: 0 0 0 0 0 0 0 0 0 0 0 0 0 0 0 0 0 0 0 0 0 0 0 0 0 0 0 0
10f0c33ec59f8ed59b89c9afe8775af83ba370ee [FaultTracer] Extracted changes: 0 0 0 0 0 0 0 0 0 0 0 0 0 0 0 0 0 0 0 0 0 0 0 0 0 0 0 0
c045d7b0b31669b87b497b54ad07447d01c90459 [FaultTracer] Extracted changes: 0 0 279 279 0 0 0 0 0 0 0 0 0 0 0 0 0 0 0 0 0 0 0 0 0 0 0 0
1d17b2e33ee85c3767a7d0d801b60a57df87a797 [FaultTracer] Extracted changes: 20 0 55 10 0 0 0 19 0 3 23 0 0 140 18 15 0 0 0 6 0 3 2 0 0 31 15 10
315e8036a7e6b3020ac51604a04df166cd12229b [FaultTracer] Extracted changes: 71 71 127 34 0 0 0 18 18 0 0 0 2 278 278 278 0 0 0 18 18 0 0 0 1 71 71 25
543cdae627bd98be78994d225ed48732324e2288 [FaultTracer] Extracted changes: 17 5 65 8 0 0 1 2 4 13 0 27 4 13 8 315 0 0 1 2 2 11 0 8 4 7 8 50
227f1ac085cee36bca7361d777c7d527dfe46f33 [FaultTracer] Extracted changes: 0 0 4 0 0 0 0 0 0 0 0 0 0 0 1 3 0 0 0 0 0 0 0 0 0 0 1 3
67be36d7636e62171d0029d5e07b27427e8bf8ba [FaultTracer] Extracted changes: 0 0 4 0 0 0 0 0 0 0 0 0 0 1 0 3 0 0 0 0 0 0 0 0 0 1 0 3
0821d24ad5598f77ea09507f9907ca9056453848 [FaultTracer] Extracted changes: 3 4 4 4 0 0 0 0 0 0 0 0 0 0 0 0 0 0 0 0 0 0 0 0 0 0 0 0
202daacf34a766ab0921e95d1c1ef80709affc6d [FaultTracer] Extracted changes: 0 0 4 0 0 0 0 0 0 0 0 0 0 0 1 3 0 0 0 0 0 0 0 0 0 0 1 3
fa42e912c72ef4a29baf17ff4bf6e952bfe62090 [FaultTracer] Extracted changes: 1 0 0 0 0 0 0 0 0 0 0 0 0 0 0 0 0 0 0 0 0 0 0 0 0 0 0 0
a81d4a3e788656b482c029d87b2a3f885491f139 [FaultTracer] Extracted changes: 6 0 0 0 0 0 0 0 0 0 0 0 0 0 0 0 0 0 0 0 0 0 0 0 0 0 0 0
2611f95ee2884e1bcf02687a860c6ea74ac7a2ee [FaultTracer] Extracted changes: 2 3 11 6 0 0 0 0 0 2 0 0 1 0 1 25 0 0 0 0 0 2 0 0 1 0 1 4
350ac63af06eaa2804978301d774927e4f85dbc8 [FaultTracer] Extracted changes: 0 0 2 0 0 0 0 0 0 0 0 0 0 0 0 2 0 0 0 0 0 0 0 0 0 0 0 2
a8392d37c79b97b38309914d3d012c8295df798e [FaultTracer] Extracted changes: 0 0 1 0 0 0 0 0 0 0 0 0 0 0 0 1 0 0 0 0 0 0 0 0 0 0 0 1
a30cc6a6506bd91e31051d4037cb57c3caf19730 [FaultTracer] Extracted changes: 0 0 1 0 0 0 0 0 0 0 0 0 0 0 0 1 0 0 0 0 0 0 0 0 0 0 0 1
8514de79cb31f3bfd694420dc2767dafa1ed1d58 [FaultTracer] Extracted changes: 7 0 1 0 0 0 1 0 0 0 0 0 0 0 0 0 0 0 1 0 0 0 0 0 0 0 0 0
e8a2f5a0c9da059a0f628b76c858bf50ef6addd9 [FaultTracer] Extracted changes: 0 0 0 0 0 0 0 0 0 0 0 0 0 0 0 0 0 0 0 0 0 0 0 0 0 0 0 0
b0e50ffaa9fd2b02b09606464b371bec8108057e [FaultTracer] Extracted changes: 0 0 0 0 0 0 0 0 0 0 0 0 0 0 0 0 0 0 0 0 0 0 0 0 0 0 0 0
90866e5913f5fedc76b0a8e4b85e55307b5f56bd [FaultTracer] Extracted changes: 0 0 2 0 0 0 0 0 0 0 0 0 0 0 2 1 0 0 0 0 0 0 0 0 0 0 1 1
5094ebe9689cbe87923bae6f78bf7fb19bd1c04c [FaultTracer] Extracted changes: 0 0 0 0 0 0 0 0 0 0 0 0 0 0 0 0 0 0 0 0 0 0 0 0 0 0 0 0
3aaa356d9069f0e558ee15a99b7290671bcb145d [FaultTracer] Extracted changes: 0 0 2 0 0 0 0 0 0 0 0 0 0 0 4 0 0 0 0 0 0 0 0 0 0 0 2 0
ce681a07059229eec1a42ea4d9e6763f746fd41a [FaultTracer] Extracted changes: 0 0 2 0 0 0 0 0 0 0 0 0 0 4 4 0 0 0 0 0 0 0 0 0 0 2 2 0
a7d5b4f5053cbb4f3481daa73d4a602f3e31c863 [FaultTracer] Extracted changes: 0 0 0 0 0 0 0 0 0 0 0 0 0 0 0 0 0 0 0 0 0 0 0 0 0 0 0 0
364df1abf8bb9d4ef70891fb3e6fc92193a9e1d5 [FaultTracer] Extracted changes: 0 0 2 0 0 0 0 0 0 0 0 0 1 0 1 0 0 0 0 0 0 0 0 0 1 0 1 0
3e00eda8fa989402bc98cb3d6c1f27a9b5f13ec2 [FaultTracer] Extracted changes: 0 0 0 0 0 0 0 0 0 0 0 0 0 0 0 0 0 0 0 0 0 0 0 0 0 0 0 0
527404e019a112203632b5eeb64e03f72ca85f78 [FaultTracer] Extracted changes: 0 3 4 1 0 0 1 0 0 0 0 0 0 0 1 1 0 0 1 0 0 0 0 0 0 0 1 1
6bfedd6c6519d08f3bd2d293ad73c67fbc43cce8 [FaultTracer] Extracted changes: 3 1 12 7 0 0 1 0 0 0 0 0 0 1 3 1 0 0 1 0 0 0 0 0 0 1 2 1
51bd278e339c77654f4efe0c1fe06521fe4ec960 [FaultTracer] Extracted changes: 0 0 0 0 0 0 0 0 0 0 0 0 0 0 0 0 0 0 0 0 0 0 0 0 0 0 0 0
600c9c6e969a62ef8a147f9da4ba5790bf923f72 [FaultTracer] Extracted changes: 1 3 12 7 0 0 1 0 0 0 0 0 0 3 1 1 0 0 1 0 0 0 0 0 0 2 1 1
880fad30ad13085eb8c3758ba4904d2753d10706 [FaultTracer] Extracted changes: 0 1 8 6 0 0 0 0 0 0 0 0 0 0 3 0 0 0 0 0 0 0 0 0 0 0 2 0
99e41f7bf25203f71d678dcb1c7df5f4989d51b1 [FaultTracer] Extracted changes: 0 0 0 0 0 0 0 0 0 0 0 0 0 0 0 0 0 0 0 0 0 0 0 0 0 0 0 0
4374e24dbc90130f080cb12aef07f817f8734b22 [FaultTracer] Extracted changes: 0 1 8 6 0 0 0 0 0 0 0 0 0 0 2 0 0 0 0 0 0 0 0 0 0 0 2 0
07f3c606ed9352ec1d806cf1a6a3bd2f2b5867eb [FaultTracer] Extracted changes: 0 1 10 7 0 0 0 0 0 0 0 0 0 0 2 0 0 0 0 0 0 0 0 0 0 0 2 0
9b3c283e32ccc700e7b646dc69d6fc0271b60d35 [FaultTracer] Extracted changes: 2 0 15 7 0 0 0 0 0 0 0 8 0 4 9 0 0 0 0 0 0 0 0 4 0 2 1 0
7a3e3216ffdcb91ffcfa0a18015cf292eee7428c [FaultTracer] Extracted changes: 0 2 15 7 0 0 0 0 0 0 8 0 0 9 4 0 0 0 0 0 0 0 4 0 0 1 2 0
6852c9222b4e71bd408f503128da58077eeef17b [FaultTracer] Extracted changes: 0 0 6 1 0 0 0 0 0 0 0 8 0 0 9 0 0 0 0 0 0 0 0 4 0 0 1 0
bfd254fee8e01286b0fa7a410d17e3f4a99107b9 [FaultTracer] Extracted changes: 0 0 0 0 0 0 0 0 0 0 0 0 0 0 0 0 0 0 0 0 0 0 0 0 0 0 0 0
b6c5eec9103e6c73b6f858151bfd4e0bef468b93 [FaultTracer] Extracted changes: 0 0 0 0 0 0 0 0 0 0 0 0 0 0 0 0 0 0 0 0 0 0 0 0 0 0 0 0
e77dca708b386000562ec0c0def44a59d61add3d [FaultTracer] Extracted changes: 0 0 0 0 0 0 0 0 0 0 0 0 0 0 0 0 0 0 0 0 0 0 0 0 0 0 0 0
9516adee756e56eafcd3b1522b2b360be9995222 [FaultTracer] Extracted changes: 0 0 0 0 0 0 0 0 0 0 0 0 0 0 0 0 0 0 0 0 0 0 0 0 0 0 0 0
c24d0df1f8d464c7325c175bd11b8366495a2ce6 [FaultTracer] Extracted changes: 0 0 14 0 0 0 0 0 0 0 0 0 0 0 0 0 0 0 0 0 0 0 0 0 0 0 0 0
0281edfad706724c1923fba7c4cf52532e33afa3 [FaultTracer] Extracted changes: 0 0 0 0 0 0 0 0 0 0 0 0 0 0 0 0 0 0 0 0 0 0 0 0 0 0 0 0
8e9f5e14650c81c7ad6e950cfc234fab60945db4 [FaultTracer] Extracted changes: 0 0 0 0 0 0 0 0 0 0 0 0 0 0 0 0 0 0 0 0 0 0 0 0 0 0 0 0
6dae6ed1af43171c56c60520179487380d673879 [FaultTracer] Extracted changes: 0 0 0 0 0 0 0 0 0 0 0 0 0 0 0 0 0 0 0 0 0 0 0 0 0 0 0 0
1e3bd4fc6c96cac8ba131c2a7e16038d69822051 [FaultTracer] Extracted changes: 0 0 3 0 0 0 0 0 0 3 0 0 0 0 0 0 0 0 0 0 0 3 0 0 0 0 0 0
aa7c8b5aebcc049593961886c95c7cf52321175b [FaultTracer] Extracted changes: 0 0 0 0 0 0 0 0 0 0 0 0 0 0 0 0 0 0 0 0 0 0 0 0 0 0 0 0
0532323b043d47b34e77e0c352aef00a32cd6316 [FaultTracer] Extracted changes: 0 0 0 0 0 0 0 0 0 0 0 0 0 0 0 0 0 0 0 0 0 0 0 0 0 0 0 0
4d0b17e38832119520db001cbf9d46e30658e5a7 [FaultTracer] Extracted changes: 0 0 0 0 0 0 0 0 0 0 0 0 0 0 0 0 0 0 0 0 0 0 0 0 0 0 0 0
2161b578cdaa42878337bfde373c20067eb3541b [FaultTracer] Extracted changes: 0 0 22 0 0 0 0 0 0 0 0 0 0 0 0 22 0 0 0 0 0 0 0 0 0 0 0 22
fdadda59e7b0189b451212564fac51a2ae2cf3c4 [FaultTracer] Extracted changes: 0 0 0 0 0 0 0 0 0 0 0 0 0 0 0 0 0 0 0 0 0 0 0 0 0 0 0 0
963896129e182c1c034bac15cc23976dfdd945f6 [FaultTracer] Extracted changes: 0 0 6 0 0 0 0 0 0 6 0 0 0 0 0 12 0 0 0 0 0 6 0 0 0 0 0 6
fcbdaf2f8d88478d5dd48ca3575e976c7591a9cb [FaultTracer] Extracted changes: 0 0 8 0 0 0 0 0 0 6 0 0 4 0 0 12 0 0 0 0 0 6 0 0 2 0 0 6
aba37d61377a729d42e541149345234ef1e1815e [FaultTracer] Extracted changes: 0 0 8 0 0 0 0 0 0 6 0 0 4 0 0 12 0 0 0 0 0 6 0 0 2 0 0 6
9145b8e80bb9e337eeba04ee3ea018961911b4b3 [FaultTracer] Extracted changes: 0 0 2 0 0 0 0 0 0 0 0 0 4 0 0 0 0 0 0 0 0 0 0 0 2 0 0 0
be8454772847e36802601356288f8ae8ef51ee7c [FaultTracer] Extracted changes: 0 0 1 0 0 0 1 0 0 0 0 0 0 0 0 0 0 0 1 0 0 0 0 0 0 0 0 0
dd75ed91fa080490ca330a06c91333d22f245f76 [FaultTracer] Extracted changes: 0 0 0 0 0 0 0 0 0 0 0 0 0 0 0 0 0 0 0 0 0 0 0 0 0 0 0 0
358be77e12557bce5d63eaf74def0e856613c502 [FaultTracer] Extracted changes: 0 0 1 0 0 0 0 0 0 0 0 0 0 0 0 2 0 0 0 0 0 0 0 0 0 0 0 1
b0c4057efd2065d5c4269b1a41923d4de98ba0b3 [FaultTracer] Extracted changes: 0 0 1 0 0 0 0 0 0 0 0 0 0 0 1 3 0 0 0 0 0 0 0 0 0 0 1 1
31acda230694b859aaf3e6788ec3f5107b54a333 [FaultTracer] Extracted changes: 0 0 0 0 0 0 0 0 0 0 0 0 0 0 0 0 0 0 0 0 0 0 0 0 0 0 0 0
296af31f54e1501dc9efea807fd6da62c01463d7 [FaultTracer] Extracted changes: 0 0 1 0 0 0 0 0 0 0 0 0 0 0 0 2 0 0 0 0 0 0 0 0 0 0 0 1
f0eb677360872183b98f8821051b6cfc9aa8bdf9 [FaultTracer] Extracted changes: 0 0 2 0 0 0 0 0 0 0 0 0 0 0 2 0 0 0 0 0 0 0 0 0 0 0 2 0
44119bf0af9ab40c25f5010c7350659a29025dca [FaultTracer] Extracted changes: 0 0 0 0 0 0 0 0 0 0 0 0 0 0 0 0 0 0 0 0 0 0 0 0 0 0 0 0
