6423a7665516d738ae50d272e3b4ca72cdb89a9d [FaultTracer] Extracted changes: 0 0 0 0 0 0 0 0 0 0 0 0 0 0 0 0 0 0 0 0 0 0 0 0 0 0 0 0
91d6bd74fa358fdc8d7cb7681c76c509fd9a8e7d [FaultTracer] Extracted changes: 0 0 0 0 0 0 0 0 0 0 0 0 0 0 0 0 0 0 0 0 0 0 0 0 0 0 0 0
8f9271399aca64a6f5afe36d3eec365eb68e310e [FaultTracer] Extracted changes: 0 0 1 0 0 0 0 0 0 0 0 0 0 0 0 1 0 0 0 0 0 0 0 0 0 0 0 1
8274993e293a79fc75829df398233915a6387a4b [FaultTracer] Extracted changes: 0 0 2 0 0 0 0 0 0 0 0 0 1 0 0 1 0 0 0 0 0 0 0 0 1 0 0 1
e2dbe55d56bd6c1209276050f527d36717e33e1d [FaultTracer] Extracted changes: 0 0 2 0 0 0 0 0 0 0 0 0 0 0 0 2 0 0 0 0 0 0 0 0 0 0 0 2
10325422e5a4735aa87a4d47bdb377e09fe963d2 [FaultTracer] Extracted changes: 0 0 0 0 0 0 0 0 0 0 0 0 0 0 0 0 0 0 0 0 0 0 0 0 0 0 0 0
65ed41ff7a8cfb0bbc03620e186382a16e23db56 [FaultTracer] Extracted changes: 0 0 0 0 0 0 0 0 0 0 0 0 0 0 0 0 0 0 0 0 0 0 0 0 0 0 0 0
a945ecbbdda782b51d5c2c670345fbf4dffacab7 [FaultTracer] Extracted changes: 0 0 1 0 0 1 0 0 0 1 0 0 0 0 0 1 0 1 0 0 0 1 0 0 0 0 0 1
e4c72a5522aabfa6a660088aa9262d849756e464 [FaultTracer] Extracted changes: 0 0 0 0 0 0 0 0 0 0 0 0 0 0 0 0 0 0 0 0 0 0 0 0 0 0 0 0
8c5335e6c67f88568099622cf37667d69db06524 [FaultTracer] Extracted changes: 0 0 0 0 0 0 0 0 0 0 0 0 0 0 0 0 0 0 0 0 0 0 0 0 0 0 0 0
32ccabe3ba197d085ed887c314dae8c6c7da462e [FaultTracer] Extracted changes: 0 0 664 664 0 0 0 0 0 0 0 0 0 0 0 0 0 0 0 0 0 0 0 0 0 0 0 0
7e8df326f4e66bd4bc38d8d4626700e4cf338ea5 [FaultTracer] Extracted changes: 0 0 0 0 0 0 0 0 0 0 0 0 0 0 0 0 0 0 0 0 0 0 0 0 0 0 0 0
4f82195afdc4279c05826fc20f8642bfdaaafec3 [FaultTracer] Extracted changes: 0 0 6 0 0 0 0 0 0 0 0 0 0 0 0 13 0 0 0 0 0 0 0 0 0 0 0 2
607e3447c92754d871a3f2eb8c472e45afed6c1c [FaultTracer] Extracted changes: 0 0 0 0 0 0 0 0 0 0 0 0 0 0 0 0 0 0 0 0 0 0 0 0 0 0 0 0
aadb9a31ed969fc72cc87d486ec02383faa5bd06 [FaultTracer] Extracted changes: 0 0 5 0 0 0 0 0 0 0 0 0 0 0 0 7 0 0 0 0 0 0 0 0 0 0 0 5
eb2b89efbe15ab0b70fd94f0ecd0aa03866fb4d2 [FaultTracer] Extracted changes: 0 0 1 0 0 0 0 0 0 0 0 0 1 0 0 0 0 0 0 0 0 0 0 0 1 0 0 0
151f2cd3d80c006f4ec228cdf610c3a35feb195d [FaultTracer] Extracted changes: 0 0 0 0 0 0 0 0 0 0 0 0 0 0 0 0 0 0 0 0 0 0 0 0 0 0 0 0
33884b226454324f27700f9069f4702b44ef8ced [FaultTracer] Extracted changes: 0 0 0 0 0 0 0 0 0 0 0 0 0 0 0 0 0 0 0 0 0 0 0 0 0 0 0 0
89afbb0c3eaa2d074dc1ef46d09675f24da0e120 [FaultTracer] Extracted changes: 0 0 2 0 0 0 0 0 0 0 0 0 1 0 0 2 0 0 0 0 0 0 0 0 1 0 0 1
23108b1bd90de315aed37fa3fc1f38f8a56ab9ba [FaultTracer] Extracted changes: 0 0 1 0 0 0 0 0 0 0 0 0 1 0 0 0 0 0 0 0 0 0 0 0 1 0 0 0
d6644e4fbe3d125eed2d85e58fc7133466042f10 [FaultTracer] Extracted changes: 0 0 4 0 0 0 0 0 0 0 0 0 12 0 0 0 0 0 0 0 0 0 0 0 4 0 0 0
96c8ea2fb3719e2f6e3d7a4d7b46718f26515a86 [FaultTracer] Extracted changes: 0 0 1 0 0 0 1 0 0 1 0 0 0 0 0 1 0 0 1 0 0 1 0 0 0 0 0 1
dc53e49b4afa5d59c533cf2b4918402c37411fbd [FaultTracer] Extracted changes: 0 0 1 0 0 0 0 0 0 0 0 0 2 0 0 0 0 0 0 0 0 0 0 0 1 0 0 0
f9cab271b3bc8c2fb6e2c51449ad3bc07e62e174 [FaultTracer] Extracted changes: 0 0 2 0 0 0 0 0 0 0 0 0 2 0 0 0 0 0 0 0 0 0 0 0 2 0 0 0
383bc8eefae7e17d0bb0349ab2300488c655ec42 [FaultTracer] Extracted changes: 0 0 1 0 0 0 1 0 0 1 0 0 0 0 0 1 0 0 1 0 0 1 0 0 0 0 0 1
eafeca43268f16aa9d4a179e44b9e7747699c1eb [FaultTracer] Extracted changes: 0 0 0 0 0 0 0 0 0 0 0 0 0 0 0 0 0 0 0 0 0 0 0 0 0 0 0 0
61bc7f27b498d919d0a534d00de2aa6d0ebf7447 [FaultTracer] Extracted changes: 0 0 2 0 0 0 0 0 0 0 0 0 3 0 0 3 0 0 0 0 0 0 0 0 1 0 0 1
9b481a97010a19e375cf423ffe25dda1b40e0e47 [FaultTracer] Extracted changes: 0 0 4 0 0 0 0 0 0 0 0 0 1 0 0 3 0 0 0 0 0 0 0 0 1 0 0 3
cfdc3f767c0063224622af168e78c6b2d2c77388 [FaultTracer] Extracted changes: 0 0 2 0 0 0 0 0 0 0 0 0 0 0 0 2 0 0 0 0 0 0 0 0 0 0 0 2
4733cb5b798cd72aed82a9118648b4a86c91539f [FaultTracer] Extracted changes: 0 0 0 0 0 0 0 0 0 0 0 0 0 0 0 0 0 0 0 0 0 0 0 0 0 0 0 0
3f103f8c9b72ef6ada41684c122ef7bd3cc90d22 [FaultTracer] Extracted changes: 0 0 0 0 0 0 0 0 0 0 0 0 0 0 0 0 0 0 0 0 0 0 0 0 0 0 0 0
1f73bbeb67683e8852f889e8f11c8fb1b4d963a2 [FaultTracer] Extracted changes: 0 0 0 0 0 0 0 0 0 0 0 0 0 0 0 0 0 0 0 0 0 0 0 0 0 0 0 0
1e5c2b87792b58f45fd3b33f1373925ebfe879a0 [FaultTracer] Extracted changes: 0 0 2 0 0 0 0 0 0 0 0 1 1 0 4 0 0 0 0 0 0 0 0 1 1 0 1 0
a40b2a907a69e51675d7d0502b2608833c4da343 [FaultTracer] Extracted changes: 0 0 2 0 0 0 0 0 0 0 0 2 2 0 3 2 0 0 0 0 0 0 0 1 1 0 1 1
c37a911d3a1541adc25c8d76f717015b2266d123 [FaultTracer] Extracted changes: 0 0 1 0 0 0 0 0 0 0 0 0 0 0 0 2 0 0 0 0 0 0 0 0 0 0 0 1
2dd459003e19e4bbc2811b10d38337f295fc5a19 [FaultTracer] Extracted changes: 0 0 1 0 0 0 0 0 0 0 0 0 3 0 0 0 0 0 0 0 0 0 0 0 1 0 0 0
a069c490e8119189fa2b43d3b597b79b3d42a367 [FaultTracer] Extracted changes: 0 0 2 0 0 0 0 0 0 0 0 2 0 0 2 0 0 0 0 0 0 0 0 1 0 0 1 0
d79e43216faba4b3e73536915bfddc550cc0f20f [FaultTracer] Extracted changes: 0 0 2 0 0 0 0 0 0 0 0 0 1 2 2 0 0 0 0 0 0 0 0 0 1 1 1 0
ff4497aff8cc9de4e0b2c6e5e23e5b6550f76f29 [FaultTracer] Extracted changes: 0 0 0 0 0 0 0 0 0 0 0 0 0 0 0 0 0 0 0 0 0 0 0 0 0 0 0 0
ea666d523021a3c33294030e7c6ac49a77be543a [FaultTracer] Extracted changes: 0 0 0 0 0 0 0 0 0 0 0 0 0 0 0 0 0 0 0 0 0 0 0 0 0 0 0 0
05647d46e9ac2bf674b320e8467616aa72954f3e [FaultTracer] Extracted changes: 0 0 2 0 0 0 0 0 0 0 0 1 0 0 1 0 0 0 0 0 0 0 0 1 0 0 1 0
8d95ae41975a2307501aa0f4a7eba296c59edce9 [FaultTracer] Extracted changes: 0 0 2 0 0 0 0 0 0 0 0 1 1 1 2 0 0 0 0 0 0 0 0 1 1 1 1 0
8d601ab71228f7c3dff950540e7ee6e4043e9053 [FaultTracer] Extracted changes: 0 4 0 0 0 0 0 0 0 0 0 0 0 0 0 0 0 0 0 0 0 0 0 0 0 0 0 0
c0c7112dcdeb75b521d55cd47d0c61be66b0499e [FaultTracer] Extracted changes: 0 0 4 3 0 0 0 0 0 0 0 0 0 0 0 3 0 0 0 0 0 0 0 0 0 0 0 1
9f89fd4626bbb4e34a905835e397bcffbad59307 [FaultTracer] Extracted changes: 0 3 2 1 0 0 0 0 0 1 1 1 1 0 10 1 0 0 0 0 0 1 1 1 1 0 1 1
0095d8adf26b9469115b1be0358cb09d1fcb5fd4 [FaultTracer] Extracted changes: 0 0 2 0 0 0 0 0 0 0 0 0 1 4 1 0 0 0 0 0 0 0 0 0 1 1 1 0
0f6a292a29fedd49741310cd517ac4ba907bf8d4 [FaultTracer] Extracted changes: 0 0 0 0 0 0 0 0 0 0 0 0 0 0 0 0 0 0 0 0 0 0 0 0 0 0 0 0
fd80301b1eeb4b2db55a09aeb54348faacec11cd [FaultTracer] Extracted changes: 0 0 1 0 0 0 0 0 0 1 0 0 0 0 0 0 0 0 0 0 0 1 0 0 0 0 0 0
c14890f08b9bb47ab8ad27f4dd4c714e32961d0d [FaultTracer] Extracted changes: 0 0 0 0 0 0 0 0 0 0 0 0 0 0 0 0 0 0 0 0 0 0 0 0 0 0 0 0
8bac0be0361c47da8c5ca24135ca37ffe8d78e29 [FaultTracer] Extracted changes: 0 0 0 0 0 0 0 0 0 0 0 0 0 0 0 0 0 0 0 0 0 0 0 0 0 0 0 0
792e9556739843fc9dd0f9b1645452ae5456e28f [FaultTracer] Extracted changes: 0 0 0 0 0 0 0 0 0 0 0 0 0 0 0 0 0 0 0 0 0 0 0 0 0 0 0 0
f3d2d55ab9b783af65f2050272cd0318a9ad23a2 [FaultTracer] Extracted changes: 0 0 0 0 0 0 0 0 0 0 0 0 0 0 0 0 0 0 0 0 0 0 0 0 0 0 0 0
efdff37fbacefe35c6f459b6f8a7483d3da85f8c [FaultTracer] Extracted changes: 0 0 0 0 0 0 0 0 0 0 0 0 0 0 0 0 0 0 0 0 0 0 0 0 0 0 0 0
33c104e1b4aee768558c63b2a43a88132ff93f6b [FaultTracer] Extracted changes: 0 0 1 0 0 0 0 0 0 0 0 0 0 0 0 0 0 0 0 0 0 0 0 0 0 0 0 0
c0771cbc3c445a9d1d2a43ac4ce3c0edbc806957 [FaultTracer] Extracted changes: 0 0 1 0 0 0 0 0 0 0 0 0 0 0 0 0 0 0 0 0 0 0 0 0 0 0 0 0
3aface95813003ff75505e2ed7d75b072228d3f8 [FaultTracer] Extracted changes: 0 0 1 0 0 0 0 0 0 0 0 0 0 0 0 0 0 0 0 0 0 0 0 0 0 0 0 0
2c437a12bbc578442daaef85ab486d1e55763853 [FaultTracer] Extracted changes: 0 0 6 0 0 0 0 0 0 3 7 8 0 0 0 5 0 0 0 0 0 3 2 2 0 0 0 3
ec700cf69db225654aadce932dc000bdab302ccd [FaultTracer] Extracted changes: 0 0 2 0 0 0 0 1 1 0 0 0 0 0 0 1 0 0 0 1 1 0 0 0 0 0 0 1
ab0570e63aae3027239dcd5d22caab95111a5de8 [FaultTracer] Extracted changes: 0 0 3 0 0 0 0 0 0 0 0 0 0 0 0 0 0 0 0 0 0 0 0 0 0 0 0 0
f015fb2b31a5621689a57ce9d2d300e5f32357e1 [FaultTracer] Extracted changes: 0 0 0 0 0 0 0 0 0 0 0 0 0 0 0 0 0 0 0 0 0 0 0 0 0 0 0 0
0f87dceb80b432b434dbd81ed4f1ab97c740efc1 [FaultTracer] Extracted changes: 0 0 1 0 0 0 0 0 0 0 0 0 1 0 0 0 0 0 0 0 0 0 0 0 1 0 0 0
c9a5e54a7c0b4c0be46940d136677a2c9f052ed7 [FaultTracer] Extracted changes: 0 0 0 0 0 0 0 0 0 0 0 0 0 0 0 0 0 0 0 0 0 0 0 0 0 0 0 0
23c706ff915c4be7d371d3098fc8de2cc3aa2b67 [FaultTracer] Extracted changes: 0 0 0 0 0 0 0 0 0 0 0 0 0 0 0 0 0 0 0 0 0 0 0 0 0 0 0 0
71a1c49eb3610984173728751b1a5e78ddf40c6f [FaultTracer] Extracted changes: 0 0 1 0 0 0 0 0 0 0 0 0 0 0 0 1 0 0 0 0 0 0 0 0 0 0 0 1
cf950e7365848130c5c2d57c871652e6f83e96a8 [FaultTracer] Extracted changes: 0 0 0 0 0 0 0 0 0 0 0 0 0 0 0 0 0 0 0 0 0 0 0 0 0 0 0 0
b836907ddbc53d8c47d2e2a6a36a690faa2d82e6 [FaultTracer] Extracted changes: 0 0 0 0 0 0 0 0 0 0 0 0 0 0 0 0 0 0 0 0 0 0 0 0 0 0 0 0
46c42fcdaa16542b0f167ea429b613fd653e6fc8 [FaultTracer] Extracted changes: 0 0 2 1 0 0 0 0 0 0 0 0 0 0 0 1 0 0 0 0 0 0 0 0 0 0 0 1
e6b830bf95f712672cb9e77cd852606cd134c5fc [FaultTracer] Extracted changes: 0 0 0 0 0 0 0 0 0 0 0 0 0 0 0 0 0 0 0 0 0 0 0 0 0 0 0 0
050b67d4f88d60e03a57fa5cf2177088b8224092 [FaultTracer] Extracted changes: 0 0 0 0 0 0 0 0 0 0 0 0 0 0 0 0 0 0 0 0 0 0 0 0 0 0 0 0
5df67bf13af9a044f3bf7d8df3bd2daa763843a7 [FaultTracer] Extracted changes: 1 0 0 0 0 0 0 0 0 0 0 0 0 0 0 0 0 0 0 0 0 0 0 0 0 0 0 0
b0bcf4f60a1e92480d78e44e3fda6e42cfc1b207 [FaultTracer] Extracted changes: 0 0 2 0 0 0 0 0 0 0 0 0 1 0 0 1 0 0 0 0 0 0 0 0 1 0 0 1
695342cb1cef42f30fd1a8496f181c92b21ae82d [FaultTracer] Extracted changes: 0 0 0 0 0 0 0 0 0 0 0 0 0 0 0 0 0 0 0 0 0 0 0 0 0 0 0 0
d2cc78e2dd2b7ad0171a15df9704fa4fc4f28cc3 [FaultTracer] Extracted changes: 0 0 0 0 0 0 0 0 0 0 0 0 0 0 0 0 0 0 0 0 0 0 0 0 0 0 0 0
b6d35656f4b0dde16c2e6e5a04c1487e244708a8 [FaultTracer] Extracted changes: 0 0 3 0 0 0 0 0 0 0 0 0 1 0 0 1 0 0 0 0 0 0 0 0 1 0 0 1
09c52410e62b0e1e221d413d7ab18feefcca6bf7 [FaultTracer] Extracted changes: 0 0 2 0 0 0 0 0 0 0 0 0 1 0 0 1 0 0 0 0 0 0 0 0 1 0 0 1
429c847b24d2c4adb0b9768d1e38bf05e5bafb7b [FaultTracer] Extracted changes: 0 0 1 0 0 0 0 0 0 0 0 1 1 0 0 0 0 0 0 0 0 0 0 1 1 0 0 0
9dcd87f9c46786f3da54af7ac1ba4696840dffa8 [FaultTracer] Extracted changes: 0 0 1 0 0 0 0 0 0 0 1 0 1 0 0 0 0 0 0 0 0 0 1 0 1 0 0 0
f55530a2ffd3c481f6554d98e9d73f2e8c62ec8d [FaultTracer] Extracted changes: 0 0 0 0 0 0 0 0 0 0 0 0 0 0 0 0 0 0 0 0 0 0 0 0 0 0 0 0
dfd69e038cc7035031d1807c4ade870d2a7e2ece [FaultTracer] Extracted changes: 0 0 0 0 0 0 0 0 0 0 0 0 0 0 0 0 0 0 0 0 0 0 0 0 0 0 0 0
7d54a14a75b55568a59760382a0a56e8cd3428f3 [FaultTracer] Extracted changes: 0 5 0 0 0 0 0 0 0 0 0 0 0 0 0 0 0 0 0 0 0 0 0 0 0 0 0 0
011775551ef75d75f81189eb4604fd0f2ed424ba [FaultTracer] Extracted changes: 0 0 0 0 0 0 0 0 0 0 0 0 0 0 0 0 0 0 0 0 0 0 0 0 0 0 0 0
3415c02e7b6669f7fc3ca563dcfedf832815d192 [FaultTracer] Extracted changes: 0 0 0 0 0 0 0 0 0 0 0 0 0 0 0 0 0 0 0 0 0 0 0 0 0 0 0 0
db12f89ad2e153d8494a92ee3a50a23faeb14912 [FaultTracer] Extracted changes: 0 0 0 0 0 0 0 0 0 0 0 0 0 0 0 0 0 0 0 0 0 0 0 0 0 0 0 0
b155e6461adb72087b6f575f4e01f8ca1e624a30 [FaultTracer] Extracted changes: 0 0 0 0 0 0 0 0 0 0 0 0 0 0 0 0 0 0 0 0 0 0 0 0 0 0 0 0
a49ea7a65b7990b3e6e625bc8bfff7396ee49300 [FaultTracer] Extracted changes: 0 0 7 0 0 0 0 0 0 0 0 0 31 1 1 4 0 0 0 0 0 0 0 0 2 1 1 4
aa75c23b2e51c8d42730c8b410e6a7148a7bb094 [FaultTracer] Extracted changes: 0 0 0 0 0 0 0 0 0 0 0 0 0 0 0 0 0 0 0 0 0 0 0 0 0 0 0 0
2d6dea18b08caf615329eef0032f16911c5388d0 [FaultTracer] Extracted changes: 0 0 1 0 0 0 0 0 0 0 0 0 0 0 0 2 0 0 0 0 0 0 0 0 0 0 0 1
41bc4cd029fc486b5570ec344cdeae049bbca860 [FaultTracer] Extracted changes: 0 0 1 0 0 0 0 0 0 0 0 0 0 0 40 6 0 0 0 0 0 0 0 0 0 0 1 1
51b2cabf2c3737de06fc889b39d40240d1b134c2 [FaultTracer] Extracted changes: 0 0 2 1 0 0 0 0 0 0 0 0 0 0 0 0 0 0 0 0 0 0 0 0 0 0 0 0
8a05e0b0f640289c32f2f261f35450532cc2a1aa [FaultTracer] Extracted changes: 0 0 0 0 0 0 0 0 0 0 0 0 0 0 0 0 0 0 0 0 0 0 0 0 0 0 0 0
32a0f4609f3e3ff0ec00a53e32680428ded88328 [FaultTracer] Extracted changes: 0 0 0 0 0 0 0 0 0 0 0 0 0 0 0 0 0 0 0 0 0 0 0 0 0 0 0 0
e56ac1c37d236c9a0e4e7b86bd7d1b7201ac177d [FaultTracer] Extracted changes: 0 0 0 0 0 0 0 0 0 0 0 0 0 0 0 0 0 0 0 0 0 0 0 0 0 0 0 0
480949c375a0f9c06196f1b754fee4006732d752 [FaultTracer] Extracted changes: 0 13 0 0 0 0 0 0 0 0 0 0 0 0 0 0 0 0 0 0 0 0 0 0 0 0 0 0
def3c4672b1f99b35ec1fb1aaa316e6043463d73 [FaultTracer] Extracted changes: 0 0 1 1 0 0 0 0 0 0 0 0 0 0 0 0 0 0 0 0 0 0 0 0 0 0 0 0
2cd3f0f10a797b744509903b8eca4fd2fd4ed6f6 [FaultTracer] Extracted changes: 0 0 0 0 0 0 0 0 0 0 0 0 0 0 0 0 0 0 0 0 0 0 0 0 0 0 0 0
82d76aca8b4d845ed7bc5c74280f089c35447637 [FaultTracer] Extracted changes: 0 0 0 0 0 0 0 0 0 0 0 0 0 0 0 0 0 0 0 0 0 0 0 0 0 0 0 0
1b362986bc99c04941d046ebb36e19c370435b1f [FaultTracer] Extracted changes: 0 0 0 0 0 0 0 0 0 0 0 0 0 0 0 0 0 0 0 0 0 0 0 0 0 0 0 0
8c1a0d2ee1433681958809b4a0fede65f62936e6 [FaultTracer] Extracted changes: 0 0 2 0 0 0 0 0 0 0 0 0 1 0 1 0 0 0 0 0 0 0 0 0 1 0 1 0
a08ec31dbf212a033953dc6916a743dccbb93e37 [FaultTracer] Extracted changes: 0 0 0 0 0 0 0 0 0 0 0 0 0 0 0 0 0 0 0 0 0 0 0 0 0 0 0 0
