0c2eb1b30cd5fbd4c661208e52b7f3eba23283f6
0b771bff43c7e9eb1901e1c42f8ee51a79a77829
baf4d37df89bfd3c5ad8772a4b7e3beddf7fff44
fba36461b84b2d37321ecb34905ecd43c7db642b
c09fa77be1b3aac00a7986c420f4dd7270f28f73
fcd0d20316b11c4f6d68f239917097510209570c
bf7deec4a09e29739f9b9d6636e966e8f803f431
443f5bc50064380b78f5eb3165e014c04798a76f
89077b20e2f7798b5bded1cf414706e12a75a4b7
6775c13ee57a7d96cece585eb72f8c1651489d6c
7731f476807fd16e15bdad6b4de7f0c3687147f6
7bc4748d33f4b56a2fcc7d472666785b239659f4
94e30edd59aeed98e0bb3998cb1571804c9f39a1
538db6b91242a7a6f43b9f51462157e6c8ad9bb3
2233866d844def8d8f79514b814de52da3f912ad
1115775b102826cea922882a98f6cfc06605a378
490e2ec0a0a4ffc588ff15f9a187647af8352546
24f5b47e2c63778800410bdaa4c8a831bb44b72b
e8fe34b0cc8e249ee64d291f9385197e6834911c
a6826bd7a3e9b458c9dc010af432f741064dbce6
1b98034698b0a3c21108c147b5afbeed60dac870
1f01ee76c468dbd924d961fc6b061f954e93525d
61c7561b219727e297d31e073d85147cd93f9782
125371a9a3f00894a16b0903f7b3815cd5358bc1
66bea86171914d61d142e9bd83d380f1e0666e21
a3cdec6711c961b85ec4e6c549752312f1f2e6a6
a71027e42d59f4b8f1762438eca7b32f84531d6a
9c9bacc7cbc93df422352bc2c03540302bac7e40
ed4536ab1b4c42f4fe568625ffe33240146f977a
9878c65ec94390ce27877747dab7d332615acef6
01c6363d346b7db4cac42bc479ca535d34ce202c
eb015a3f8543a66cc62bfd77009d354985d2e974
e151cf7661ad8a23f18212ad9841742dd60e69a1
ad2e34b9838b3330f2050711e6e07a05c11a451d
5a672d859e7abdddd615aab4611d1acfbc1d544b
601bc41a91c0c024e8f8171c5dd25903fc32911e
fdf99f9186f626edca9e6651048e72e4b5436abf
e09b0c6e843fa3e67f9d8939d53866c9aa7eb293
4f78a9b45abc7ea96b23f3dc86b5e82d3b05b716
ae9a541693a0fe10fd8b6d7ce01ff8682b10a4fd
a3462b82a90f451d31f80674d2c8d5242df28e22
26a91c857b31644d22eafd41eaa6f235b84de78f
ca59be426b3f43f54591810974d2e81d68628616
362c480a5a836a27bfd6b28f91c538469b96296d
cb7ae10ec066c1e1644bf646c4566e1ef1e3a904
3a29f0036febf09bbd50641ed3b888fec199a0cc
45e767968f7691d40bf24d8a296451c7d8a010d3
1de4c600292d7436280265b11667a1f70dd7b173
2bfd29c994786b2b9107787fcba219c23b60f14c
3f295ff6cb96701d93268d33fe48c17eac02837d
3d3dff89789f2405a2fb3ffd400933c6c2203100
114ed25fbe3c90238f554bb8d22b7ddfd1bee1b7
9b82428b6fbf774a3484ad924b9d14d15dc760da
be662c2dcba3b7ccaf2428fe67a74d7586143f43
42d6838378edb5ea7a621e7b52f4f6a0c5c45866
c4374b68b0b3fb539a6a56460bd13aac1ca58d80
fd810b7b283e04c3969ab61f1c55b2055f9d5adf
17a6c82bcc1f3538d8ea1a6448b588e6d3e3b6ee
6d62722673b48befc6ef91855f8dbddd428f683e
b9190ec5d87eeebca0f38db16b6e583c7362653f
722a8b5c81c04539e4ad03f9e04d0ffdf819aa20
edd08e13aa8d4df67f2ef7d2e58df6bfeedfff6d
c92b1f5416fd80fa73c96fca6315555847f3efc5
9d9cdeee0c7f1b95a0b72579d018df8db26af479
868063c0aba7a3c4b1ba2b0b9828da68b5bbaa9f
6f7c85ddeaf239f9377fc8bff358a87228eefede
1ae95e70baec0d4c0db3d86b27d2117f315c0b76
2a706b28bfb4788bca1601a13cd59c68879aa8fb
ba8b488d4968d74315119ee8fcf2382bf92a628b
ad7102c643e1d0f31629446dc6e5ea89c52c7190
