f49c671d9926eb677490a76cc8317970e5be433c [FaultTracer] Extracted changes: 0 0 2 0 0 0 0 0 0 1 0 0 0 1 0 0 0 0 0 0 0 1 0 0 0 1 0 0
783e0c7552a1b7d38dc32334a75e9bb73f07575c [FaultTracer] Extracted changes: 0 0 0 0 0 0 0 0 0 0 0 0 0 0 0 0 0 0 0 0 0 0 0 0 0 0 0 0
98aa441a6b110643665896ab9dac7cab6ee88936 [FaultTracer] Extracted changes: 0 0 0 0 0 0 0 0 0 0 0 0 0 0 0 0 0 0 0 0 0 0 0 0 0 0 0 0
4bac3c38ead34a77954e9901c86f691366da723d [FaultTracer] Extracted changes: 0 0 0 0 0 0 0 0 0 0 0 0 0 0 0 0 0 0 0 0 0 0 0 0 0 0 0 0
6265a7522991ce56b67f1a4935003bcaf029b1e8 [FaultTracer] Extracted changes: 0 0 0 0 0 0 0 0 0 0 0 0 0 0 0 0 0 0 0 0 0 0 0 0 0 0 0 0
d2a0bb0593dab948c9b738266be880eaf00352df [FaultTracer] Extracted changes: 0 0 2 0 0 0 0 0 0 1 0 0 0 0 1 0 0 0 0 0 0 1 0 0 0 0 1 0
451e2c4f87e38076f8b768a6f59b4eab96744f3b [FaultTracer] Extracted changes: 0 0 0 0 0 0 0 0 0 0 0 0 0 0 0 0 0 0 0 0 0 0 0 0 0 0 0 0
dadca66121a67692d937f06c7df797886cf17d31 [FaultTracer] Extracted changes: 0 0 1 0 0 0 0 0 0 0 0 0 0 0 0 1 0 0 0 0 0 0 0 0 0 0 0 1
0a357a84750ac43ca0d1a068099390eadbfc0f8a [FaultTracer] Extracted changes: 0 1 9 0 0 0 0 0 0 4 0 0 1 2 7 5 0 0 0 0 0 1 0 0 1 1 5 3
d7774f13ad2dc7cf7295bb8376c21bbf5c662fc4 [FaultTracer] Extracted changes: 0 0 0 0 0 0 0 0 0 0 0 0 0 0 0 0 0 0 0 0 0 0 0 0 0 0 0 0
d750c2bc808a0cff07ffeeb09d6af6be20754bdf [FaultTracer] Extracted changes: 0 0 0 0 0 0 0 0 0 0 0 0 0 0 0 0 0 0 0 0 0 0 0 0 0 0 0 0
4289f5e53527bd20e241d5e92fe55ef0ef20576b [FaultTracer] Extracted changes: 0 0 2 0 0 0 0 0 0 0 0 0 0 0 0 22 0 0 0 0 0 0 0 0 0 0 0 2
0a201881f01bce85efece778345ebd60cf58ba35 [FaultTracer] Extracted changes: 0 0 0 0 0 0 0 0 0 0 0 0 0 0 0 0 0 0 0 0 0 0 0 0 0 0 0 0
8f41ec9713568111cf6b81736d97b46aeb281ace [FaultTracer] Extracted changes: 0 0 0 0 0 0 0 0 0 0 0 0 0 0 0 0 0 0 0 0 0 0 0 0 0 0 0 0
7d2a3bf80b95c19fe3b2e101d619e3091bd06d4f [FaultTracer] Extracted changes: 0 0 0 0 0 0 0 0 0 0 0 0 0 0 0 0 0 0 0 0 0 0 0 0 0 0 0 0
556d2a007e74e51771f841ecbffb5b82f748dec3 [FaultTracer] Extracted changes: 0 0 2 0 0 0 0 0 0 0 0 0 0 0 1 1 0 0 0 0 0 0 0 0 0 0 1 1
c0cbd65f849645635110df3b719c7e9cc00104ca [FaultTracer] Extracted changes: 0 0 0 0 0 0 0 0 0 0 0 0 0 0 0 0 0 0 0 0 0 0 0 0 0 0 0 0
73fd550faa7b37ef31dd246752394cbb5f5543da [FaultTracer] Extracted changes: 0 0 2 0 0 0 0 0 0 0 0 0 0 0 1 1 0 0 0 0 0 0 0 0 0 0 1 1
76fa43737656d859f0943f5326cf2b8565c4b032 [FaultTracer] Extracted changes: 0 0 4 0 0 0 0 0 0 0 0 0 1 1 2 1 0 0 0 0 0 0 0 0 1 1 1 1
635830e5d8b7ee7c99ffaf40251936a876ee2df5 [FaultTracer] Extracted changes: 0 0 4 0 0 0 0 0 0 0 0 0 1 2 1 1 0 0 0 0 0 0 0 0 1 1 1 1
9ced54cc82338351cffd18d44c3b0ab21624e4f2 [FaultTracer] Extracted changes: 0 0 2 0 0 0 0 0 0 0 0 0 1 0 2 0 0 0 0 0 0 0 0 0 1 0 1 0
f5bd8f5063258501c7fba6f49925625dfdd7799a [FaultTracer] Extracted changes: 0 0 0 0 0 0 0 0 0 0 0 0 0 0 0 0 0 0 0 0 0 0 0 0 0 0 0 0
e0b01d44d113a7a1504f48f0ae924a57a01d90a2 [FaultTracer] Extracted changes: 0 0 0 0 0 0 0 0 0 0 0 0 0 0 0 0 0 0 0 0 0 0 0 0 0 0 0 0
e0d6015d3d42330fe0e4ab0c8fa0330435228bde [FaultTracer] Extracted changes: 0 0 33 0 0 0 0 0 0 0 0 0 0 0 0 36 0 0 0 0 0 0 0 0 0 0 0 33
0e82517a7f4a2e659143ce84ff1f4ea706e9a88c [FaultTracer] Extracted changes: 0 0 0 0 0 0 0 0 0 0 0 0 0 0 0 0 0 0 0 0 0 0 0 0 0 0 0 0
f4152948bdf4efa3075d770190c48139b1341309 [FaultTracer] Extracted changes: 0 0 0 0 0 0 0 0 0 0 0 0 0 0 0 0 0 0 0 0 0 0 0 0 0 0 0 0
b6b8ef051decf0d450146cbc87475b9f4dcc3de8 [FaultTracer] Extracted changes: 0 0 0 0 0 0 0 0 0 0 0 0 0 0 0 0 0 0 0 0 0 0 0 0 0 0 0 0
91ad3ada2d9c7d246cf8ec75726b6d085255f751 [FaultTracer] Extracted changes: 0 0 0 0 0 0 0 0 0 0 0 0 0 0 0 0 0 0 0 0 0 0 0 0 0 0 0 0
83c7de55bd5af7ef3fb27573c69b4d33c4414c61 [FaultTracer] Extracted changes: 0 0 0 0 0 0 0 0 0 0 0 0 0 0 0 0 0 0 0 0 0 0 0 0 0 0 0 0
aaf4396ceb75f39aaa4083f3c96aabc822deeb9e [FaultTracer] Extracted changes: 0 0 1 0 0 0 0 0 0 0 0 0 0 0 0 1 0 0 0 0 0 0 0 0 0 0 0 1
60be421469dd85893978bfc645b41e94c63ba1b1 [FaultTracer] Extracted changes: 0 0 1 0 0 0 0 0 0 0 0 0 0 0 0 1 0 0 0 0 0 0 0 0 0 0 0 1
474bf290ab6e2eb51cf041f50a9943ca5f262520 [FaultTracer] Extracted changes: 0 0 0 0 0 0 0 0 0 0 0 0 0 0 0 0 0 0 0 0 0 0 0 0 0 0 0 0
aaaa7432d1c23cd6462724cb2c460efe9ffb028a [FaultTracer] Extracted changes: 0 0 0 0 0 0 0 0 0 0 0 0 0 0 0 0 0 0 0 0 0 0 0 0 0 0 0 0
2190b1b82f07ebaa864b2775186c238f3aeb8885 [FaultTracer] Extracted changes: 0 0 0 0 0 0 0 0 0 0 0 0 0 0 0 0 0 0 0 0 0 0 0 0 0 0 0 0
125389ced2b4d159e8a14545d564a9e39e8e193c [FaultTracer] Extracted changes: 0 0 1 0 0 0 0 0 0 0 0 0 0 0 0 1 0 0 0 0 0 0 0 0 0 0 0 1
e7e6d78327d8c7d837e2a229d920b7e224504253 [FaultTracer] Extracted changes: 0 0 0 0 0 0 0 0 0 0 0 0 0 0 0 0 0 0 0 0 0 0 0 0 0 0 0 0
5abe1c4dfe19f27ad155fd08970a0308607779b2 [FaultTracer] Extracted changes: 0 0 1 0 0 0 0 0 0 0 0 0 0 0 2 0 0 0 0 0 0 0 0 0 0 0 1 0
d979bd86945ba316bace078fd2314a2751d0c908 [FaultTracer] Extracted changes: 0 0 0 0 0 0 0 0 0 0 0 0 0 0 0 0 0 0 0 0 0 0 0 0 0 0 0 0
6c50ef551e56b01909b999eb2645996a9b670567 [FaultTracer] Extracted changes: 0 0 1 0 0 0 0 0 0 0 0 0 0 0 1 0 0 0 0 0 0 0 0 0 0 0 1 0
0b80f3ebf6c752debb8dbea87aa729968dcfa68e [FaultTracer] Extracted changes: 0 0 0 0 0 0 0 0 0 0 0 0 0 0 0 0 0 0 0 0 0 0 0 0 0 0 0 0
a77d85d9c7ea5a2b987f35e185e12c622c0d13a4 [FaultTracer] Extracted changes: 0 0 0 0 0 0 0 0 0 0 0 0 0 0 0 0 0 0 0 0 0 0 0 0 0 0 0 0
625c9048aa5ec2d38b850172fa9f0700c8c217b4 [FaultTracer] Extracted changes: 0 0 0 0 0 0 0 0 0 0 0 0 0 0 0 0 0 0 0 0 0 0 0 0 0 0 0 0
5e830f1b5c277627799fb035907a7596140517e3 [FaultTracer] Extracted changes: 0 0 0 0 0 0 0 0 0 0 0 0 0 0 0 0 0 0 0 0 0 0 0 0 0 0 0 0
b0cdaa7ea200481284d8a5f1ee7c5acf21a013b5 [FaultTracer] Extracted changes: 0 0 0 0 0 0 0 0 0 0 0 0 0 0 0 0 0 0 0 0 0 0 0 0 0 0 0 0
c55c81b0d6f297dda50532e1fd0e2bf779323d86 [FaultTracer] Extracted changes: 0 0 1 0 0 0 1 0 0 0 0 0 2 0 0 0 0 0 1 0 0 0 0 0 1 0 0 0
da91f20e8c7e7d4aa624e6260c534757168cd476 [FaultTracer] Extracted changes: 0 0 0 0 0 0 0 0 0 0 0 0 0 0 0 0 0 0 0 0 0 0 0 0 0 0 0 0
84aeb139de0149dd13a022120890985df5f1080a [FaultTracer] Extracted changes: 0 0 0 0 0 0 0 0 0 0 0 0 0 0 0 0 0 0 0 0 0 0 0 0 0 0 0 0
5484d6ff6e722bd3993c468595c5b5c60b800930 [FaultTracer] Extracted changes: 0 0 0 0 0 0 0 0 0 0 0 0 0 0 0 0 0 0 0 0 0 0 0 0 0 0 0 0
40835fb3573ecdda5da26b100095894e131629b1 [FaultTracer] Extracted changes: 0 0 0 0 0 0 0 0 0 0 0 0 0 0 0 0 0 0 0 0 0 0 0 0 0 0 0 0
19999da2cfb0cbc3af076ef984ea8a7b596f80f2 [FaultTracer] Extracted changes: 0 0 0 0 0 0 0 0 0 0 0 0 0 0 0 0 0 0 0 0 0 0 0 0 0 0 0 0
a8722f8427361ce564aefbcc3f6a82899ee55736 [FaultTracer] Extracted changes: 0 0 0 0 0 0 0 0 0 0 0 0 0 0 0 0 0 0 0 0 0 0 0 0 0 0 0 0
0a91bbf06df0bee056261d4c52612ae12a661c56 [FaultTracer] Extracted changes: 0 0 0 0 0 0 0 0 0 0 0 0 0 0 0 0 0 0 0 0 0 0 0 0 0 0 0 0
88d97b818d9bbdaee06c3ed174c4fb6902d5c25d [FaultTracer] Extracted changes: 0 0 0 0 0 0 0 0 0 0 0 0 0 0 0 0 0 0 0 0 0 0 0 0 0 0 0 0
fef3ce069e7ef19965fc70d743bbaaa246897700 [FaultTracer] Extracted changes: 0 0 2 0 0 0 0 0 0 0 0 0 0 0 1 1 0 0 0 0 0 0 0 0 0 0 1 1
3195c2cad51f89a59041dae3130ec2d8e0546be0 [FaultTracer] Extracted changes: 0 0 0 0 0 0 0 0 0 0 0 0 0 0 0 0 0 0 0 0 0 0 0 0 0 0 0 0
72c59900d0f05257be01899b9353653ce481b032 [FaultTracer] Extracted changes: 0 0 0 0 0 0 0 0 0 0 0 0 0 0 0 0 0 0 0 0 0 0 0 0 0 0 0 0
a2e141279d34c29090c80a84c6a47ec33a90ed04 [FaultTracer] Extracted changes: 0 0 0 0 0 0 0 0 0 0 0 0 0 0 0 0 0 0 0 0 0 0 0 0 0 0 0 0
719ee5ce890a6df4abb981591aef15519c07f6ba [FaultTracer] Extracted changes: 0 0 0 0 0 0 0 0 0 0 0 0 0 0 0 0 0 0 0 0 0 0 0 0 0 0 0 0
527eedfaa125a3017f5230a25b6e174386ffea12 [FaultTracer] Extracted changes: 0 0 0 0 0 0 0 0 0 0 0 0 0 0 0 0 0 0 0 0 0 0 0 0 0 0 0 0
bff42077d309887fb2762e6b3acb7d910d60021d [FaultTracer] Extracted changes: 0 0 0 0 0 0 0 0 0 0 0 0 0 0 0 0 0 0 0 0 0 0 0 0 0 0 0 0
257a489c11fd4110c201d1182af4e1530573f20b [FaultTracer] Extracted changes: 0 2 3 3 0 0 0 0 0 0 0 0 0 0 0 0 0 0 0 0 0 0 0 0 0 0 0 0
1735445fbdf8829f7ddd5985d26414d98b3c9ccd [FaultTracer] Extracted changes: 0 0 0 0 0 0 0 0 0 0 0 0 0 0 0 0 0 0 0 0 0 0 0 0 0 0 0 0
b286423ba5ebb365f7c65bb9214dad5f4b3670f5 [FaultTracer] Extracted changes: 0 0 3 0 0 0 0 0 0 0 0 0 0 0 2 2 0 0 0 0 0 0 0 0 0 0 1 2
2acaddc80b7aef2d1a1538a52c32c3b472c347ae [FaultTracer] Extracted changes: 0 0 0 0 0 0 0 0 0 0 0 0 0 0 0 0 0 0 0 0 0 0 0 0 0 0 0 0
7a1faaf78c957ca7fefb61bffd74ce355f735cb1 [FaultTracer] Extracted changes: 0 0 0 0 0 0 0 0 0 0 0 0 0 0 0 0 0 0 0 0 0 0 0 0 0 0 0 0
569fe0b4cc7db61af8d1b95e2f688b3543f46374 [FaultTracer] Extracted changes: 0 0 0 0 0 0 0 0 0 0 0 0 0 0 0 0 0 0 0 0 0 0 0 0 0 0 0 0
ebfdf29f39d4271dfedb5c3c659040f85a0ea5df [FaultTracer] Extracted changes: 0 0 0 0 0 0 0 0 0 0 0 0 0 0 0 0 0 0 0 0 0 0 0 0 0 0 0 0
2e27ba998265f5d761b63306b7ae0a3f1cdffcbc [FaultTracer] Extracted changes: 0 0 0 0 0 0 0 0 0 0 0 0 0 0 0 0 0 0 0 0 0 0 0 0 0 0 0 0
c866452a78b537a4459ccde2693eb0db1aaa08eb [FaultTracer] Extracted changes: 0 0 4 0 0 0 0 0 0 0 0 1 0 0 6 0 0 0 0 0 0 0 0 1 0 0 3 0
5714b9360e324f8bbc47bed424cfe613f82e931b [FaultTracer] Extracted changes: 0 0 0 0 0 0 0 0 0 0 0 0 0 0 0 0 0 0 0 0 0 0 0 0 0 0 0 0
57224c530e407fdaab7b451641acd5b177953dde [FaultTracer] Extracted changes: 0 0 0 0 0 0 0 0 0 0 0 0 0 0 0 0 0 0 0 0 0 0 0 0 0 0 0 0
1e86b1eb37c158e6970de3cf9d25bf4ebbaedcb2 [FaultTracer] Extracted changes: 0 0 0 0 0 0 0 0 0 0 0 0 0 0 0 0 0 0 0 0 0 0 0 0 0 0 0 0
ac49bf6dc694550eff859159c1ac9fc33ba1b3e7 [FaultTracer] Extracted changes: 0 0 0 0 0 0 0 0 0 0 0 0 0 0 0 0 0 0 0 0 0 0 0 0 0 0 0 0
0815c2db3af376598c85336c0bdbb4ecb72439f5 [FaultTracer] Extracted changes: 0 0 0 0 0 0 0 0 0 0 0 0 0 0 0 0 0 0 0 0 0 0 0 0 0 0 0 0
f054298876a1f37f864eb5ed3fd0eb56134b2965 [FaultTracer] Extracted changes: 0 0 3 0 0 0 1 0 0 0 2 0 0 0 10 1 0 0 1 0 0 0 2 0 0 0 1 1
80c7dedc1cf7ecaf81a206cd90c8f08975ed7d3f [FaultTracer] Extracted changes: 0 0 0 0 0 0 0 0 0 0 0 0 0 0 0 0 0 0 0 0 0 0 0 0 0 0 0 0
5f7609b6c98a8bfef7cadf5ae98501f8debde2e8 [FaultTracer] Extracted changes: 0 0 0 0 0 0 0 0 0 0 0 0 0 0 0 0 0 0 0 0 0 0 0 0 0 0 0 0
63759ede8cce761faa5c55e43a667bfcd7b3639b [FaultTracer] Extracted changes: 0 0 0 0 0 0 0 0 0 0 0 0 0 0 0 0 0 0 0 0 0 0 0 0 0 0 0 0
eb693d4746b0d938a0dd669f1ca20297ecb09990 [FaultTracer] Extracted changes: 0 0 0 0 0 0 0 0 0 0 0 0 0 0 0 0 0 0 0 0 0 0 0 0 0 0 0 0
88555b56eb85e70d8d051228a61186448551dcce [FaultTracer] Extracted changes: 0 0 0 0 0 0 0 0 0 0 0 0 0 0 0 0 0 0 0 0 0 0 0 0 0 0 0 0
836aa412608fea64a9bd66a403637dda15dcb161 [FaultTracer] Extracted changes: 0 0 5 0 0 0 0 0 0 0 0 0 0 0 5 0 0 0 0 0 0 0 0 0 0 0 5 0
381cca4018848c2fa75ae93efd44872c3d60cd59 [FaultTracer] Extracted changes: 0 0 3 0 0 0 0 0 0 0 0 0 1 0 1 2 0 0 0 0 0 0 0 0 1 0 1 2
eaaff1d0687fc86a745ca8f3ea0b069b3cf54233 [FaultTracer] Extracted changes: 0 0 0 0 0 0 0 0 0 0 0 0 0 0 0 0 0 0 0 0 0 0 0 0 0 0 0 0
909046aa9aab5fae75e2152fd6ded722a4d5aba2 [FaultTracer] Extracted changes: 0 0 0 0 0 0 0 0 0 0 0 0 0 0 0 0 0 0 0 0 0 0 0 0 0 0 0 0
5ef0b60327ab92d74c554ce9f42d091544de23a9 [FaultTracer] Extracted changes: 0 0 0 0 0 0 0 0 0 0 0 0 0 0 0 0 0 0 0 0 0 0 0 0 0 0 0 0
7ed094c8ce1dfa0e01a8c42e2ea4c2982bf4e5b5 [FaultTracer] Extracted changes: 0 0 0 0 0 0 0 0 0 0 0 0 0 0 0 0 0 0 0 0 0 0 0 0 0 0 0 0
d0f77df52f9e047fa88c3ee351f52706d53cf1d2 [FaultTracer] Extracted changes: 0 0 0 0 0 0 0 0 0 0 0 0 0 0 0 0 0 0 0 0 0 0 0 0 0 0 0 0
e6dd4ba04d1e16bbc9c98cfd19f330a15b6fd060 [FaultTracer] Extracted changes: 0 0 0 0 0 0 0 0 0 0 0 0 0 0 0 0 0 0 0 0 0 0 0 0 0 0 0 0
625c06ae84f088233f387fd14be010bde701581c [FaultTracer] Extracted changes: 0 0 0 0 0 0 0 0 0 0 0 0 0 0 0 0 0 0 0 0 0 0 0 0 0 0 0 0
ca7bec7931d244bf0cd344efe480aa9d9c54db9e [FaultTracer] Extracted changes: 0 0 0 0 0 0 0 0 0 0 0 0 0 0 0 0 0 0 0 0 0 0 0 0 0 0 0 0
c61c1f3fb68c2bafb6eb6d73f2bdc505624a9e3a [FaultTracer] Extracted changes: 0 0 0 0 0 0 0 0 0 0 0 0 0 0 0 0 0 0 0 0 0 0 0 0 0 0 0 0
eda629fffe60c8315f813950e811c21d8879c557 [FaultTracer] Extracted changes: 0 0 1 0 0 0 0 0 0 0 0 0 0 0 0 1 0 0 0 0 0 0 0 0 0 0 0 1
4d84d89207088ff08fc76d00bf90a56525aa7589 [FaultTracer] Extracted changes: 0 0 1 0 0 0 0 0 0 0 0 0 1 0 0 0 0 0 0 0 0 0 0 0 1 0 0 0
f81758e92881cb18bc1e0a84e2ac64464dd5ba85 [FaultTracer] Extracted changes: 0 0 2 0 0 0 0 0 0 0 0 0 0 0 1 1 0 0 0 0 0 0 0 0 0 0 1 1
dc437656ff8b825e87d7edf72125dc368b21c885 [FaultTracer] Extracted changes: 0 0 4 0 0 0 1 0 0 0 0 0 0 1 2 9 0 0 1 0 0 0 0 0 0 1 1 4
fb2063b3f83610f29572b631edaa7e0471d249ac [FaultTracer] Extracted changes: 0 0 0 0 0 0 0 0 0 0 0 0 0 0 0 0 0 0 0 0 0 0 0 0 0 0 0 0
9839f89a0c35f24c21cc026ecc5b1664f7707225 [FaultTracer] Extracted changes: 0 0 1 0 0 0 0 0 0 0 0 0 0 0 0 1 0 0 0 0 0 0 0 0 0 0 0 1
262448b391379d053451719f3d14024e7ed9e588 [FaultTracer] Extracted changes: 0 0 2 0 0 0 0 0 0 0 0 1 1 0 0 1 0 0 0 0 0 0 0 1 1 0 0 1
53922f2a5d3ca0750c22e4ead2194175545598d4 [FaultTracer] Extracted changes: 0 0 0 0 0 0 0 0 0 0 0 0 0 0 0 0 0 0 0 0 0 0 0 0 0 0 0 0
