[INFO] Scanning for projects...
[INFO]                                                                         
[INFO] ------------------------------------------------------------------------
[INFO] Building Apache Commons Imaging 1.0-SNAPSHOT
[INFO] ------------------------------------------------------------------------
[INFO] 
[INFO] --- maven-enforcer-plugin:1.4.1:enforce (enforce-maven-3) @ commons-imaging ---
[INFO] 
[INFO] --- build-helper-maven-plugin:1.10:parse-version (parse-version) @ commons-imaging ---
[INFO] 
[INFO] --- maven-antrun-plugin:1.8:run (javadoc.resources) @ commons-imaging ---
[INFO] Executing tasks

main:
[INFO] Executed tasks
[INFO] 
[INFO] --- maven-remote-resources-plugin:1.5:process (default) @ commons-imaging ---
[INFO] 
[INFO] --- buildnumber-maven-plugin:1.4:create (default) @ commons-imaging ---
[INFO] Executing: /bin/sh -c cd '/home/lingming/hybrid-rts/subjects/commons-imaging/ed6115b320aa309100ba2edabff22f5e0c51a71b' && 'svn' '--non-interactive' 'info'
[INFO] Working directory: /home/lingming/hybrid-rts/subjects/commons-imaging/ed6115b320aa309100ba2edabff22f5e0c51a71b
[INFO] Storing buildNumber: ?????? at timestamp: 1483313991732
[INFO] Executing: /bin/sh -c cd '/home/lingming/hybrid-rts/subjects/commons-imaging/ed6115b320aa309100ba2edabff22f5e0c51a71b' && 'svn' '--non-interactive' 'info'
[INFO] Working directory: /home/lingming/hybrid-rts/subjects/commons-imaging/ed6115b320aa309100ba2edabff22f5e0c51a71b
[INFO] Storing buildScmBranch: UNKNOWN_BRANCH
[INFO] 
[INFO] --- maven-resources-plugin:2.7:resources (default-resources) @ commons-imaging ---
[INFO] Using 'UTF-8' encoding to copy filtered resources.
[INFO] Copying 1 resource
[INFO] Copying 2 resources to META-INF
[INFO] 
[INFO] --- maven-compiler-plugin:3.5.1:compile (default-compile) @ commons-imaging ---
[INFO] Changes detected - recompiling the module!
[INFO] Compiling 328 source files to /home/lingming/hybrid-rts/subjects/commons-imaging/ed6115b320aa309100ba2edabff22f5e0c51a71b/target/classes
[INFO] 
[INFO] --- maven-bundle-plugin:3.0.1:manifest (bundle-manifest) @ commons-imaging ---
[INFO] 
[INFO] --- animal-sniffer-maven-plugin:1.15:check (checkAPIcompatibility) @ commons-imaging ---
[INFO] Checking unresolved references to org.codehaus.mojo.signature:java17:1.0
[INFO] 
[INFO] --- maven-resources-plugin:2.7:testResources (default-testResources) @ commons-imaging ---
[INFO] Using 'UTF-8' encoding to copy filtered resources.
[INFO] skip non existing resourceDirectory /home/lingming/hybrid-rts/subjects/commons-imaging/ed6115b320aa309100ba2edabff22f5e0c51a71b/src/test/resources
[INFO] Copying 2 resources to META-INF
[INFO] 
[INFO] --- maven-compiler-plugin:3.5.1:testCompile (default-testCompile) @ commons-imaging ---
[INFO] Nothing to compile - all classes are up to date
[INFO] 
[INFO] --- jacoco-maven-plugin:0.7.6.201602180812:prepare-agent (prepare-agent) @ commons-imaging ---
[INFO] argLine set to -javaagent:/home/lingming/.m2/repository/org/jacoco/org.jacoco.agent/0.7.6.201602180812/org.jacoco.agent-0.7.6.201602180812-runtime.jar=destfile=/home/lingming/hybrid-rts/subjects/commons-imaging/ed6115b320aa309100ba2edabff22f5e0c51a71b/target/jacoco.exec
[INFO] 
[INFO] --- maven-surefire-plugin:2.19.1:test (default-test) @ commons-imaging ---

-------------------------------------------------------
 T E S T S
-------------------------------------------------------
Running org.apache.commons.imaging.formats.jpeg.JpegReadTest
Tests run: 10, Failures: 0, Errors: 0, Skipped: 0, Time elapsed: 1.257 sec - in org.apache.commons.imaging.formats.jpeg.JpegReadTest
Running org.apache.commons.imaging.formats.jpeg.xmp.JpegXmpDumpTest
Tests run: 5, Failures: 0, Errors: 0, Skipped: 0, Time elapsed: 0 sec - in org.apache.commons.imaging.formats.jpeg.xmp.JpegXmpDumpTest
Running org.apache.commons.imaging.formats.jpeg.xmp.JpegXmpRewriteTest
Tests run: 5, Failures: 0, Errors: 0, Skipped: 0, Time elapsed: 0.024 sec - in org.apache.commons.imaging.formats.jpeg.xmp.JpegXmpRewriteTest
Running org.apache.commons.imaging.formats.jpeg.iptc.IptcFullDiscardTest
Tests run: 2, Failures: 0, Errors: 0, Skipped: 0, Time elapsed: 0.072 sec - in org.apache.commons.imaging.formats.jpeg.iptc.IptcFullDiscardTest
Running org.apache.commons.imaging.formats.jpeg.iptc.IptcUpdateTest
Tests run: 16, Failures: 0, Errors: 0, Skipped: 0, Time elapsed: 0.035 sec - in org.apache.commons.imaging.formats.jpeg.iptc.IptcUpdateTest
Running org.apache.commons.imaging.formats.jpeg.iptc.IptcDumpTest
Tests run: 4, Failures: 0, Errors: 0, Skipped: 0, Time elapsed: 0.007 sec - in org.apache.commons.imaging.formats.jpeg.iptc.IptcDumpTest
Running org.apache.commons.imaging.formats.jpeg.iptc.IptcAddTest
Tests run: 10, Failures: 0, Errors: 0, Skipped: 0, Time elapsed: 0.013 sec - in org.apache.commons.imaging.formats.jpeg.iptc.IptcAddTest
Running org.apache.commons.imaging.formats.jpeg.decoder.DctTest
Tests run: 2, Failures: 0, Errors: 0, Skipped: 0, Time elapsed: 0.003 sec - in org.apache.commons.imaging.formats.jpeg.decoder.DctTest
Running org.apache.commons.imaging.formats.jpeg.JpegWithJpegThumbnailTest
Tests run: 1, Failures: 0, Errors: 0, Skipped: 0, Time elapsed: 0.003 sec - in org.apache.commons.imaging.formats.jpeg.JpegWithJpegThumbnailTest
Running org.apache.commons.imaging.formats.jpeg.exif.MakerNoteFieldTest
Tests run: 8, Failures: 0, Errors: 0, Skipped: 0, Time elapsed: 0.015 sec - in org.apache.commons.imaging.formats.jpeg.exif.MakerNoteFieldTest
Running org.apache.commons.imaging.formats.jpeg.exif.GpsTest
Tests run: 8, Failures: 0, Errors: 0, Skipped: 0, Time elapsed: 0.012 sec - in org.apache.commons.imaging.formats.jpeg.exif.GpsTest
Running org.apache.commons.imaging.formats.jpeg.exif.ExifDumpTest
Tests run: 16, Failures: 0, Errors: 0, Skipped: 0, Time elapsed: 0.029 sec - in org.apache.commons.imaging.formats.jpeg.exif.ExifDumpTest
Running org.apache.commons.imaging.formats.jpeg.exif.TextFieldTest
Tests run: 8, Failures: 0, Errors: 0, Skipped: 0, Time elapsed: 0.012 sec - in org.apache.commons.imaging.formats.jpeg.exif.TextFieldTest
Running org.apache.commons.imaging.formats.jpeg.exif.ExifRewriteTest
Tests run: 4, Failures: 0, Errors: 0, Skipped: 0, Time elapsed: 0.289 sec - in org.apache.commons.imaging.formats.jpeg.exif.ExifRewriteTest
Running org.apache.commons.imaging.formats.jpeg.exif.WriteExifMetadataExampleTest
Tests run: 10, Failures: 0, Errors: 0, Skipped: 0, Time elapsed: 0.047 sec - in org.apache.commons.imaging.formats.jpeg.exif.WriteExifMetadataExampleTest
Running org.apache.commons.imaging.formats.jpeg.exif.MicrosoftTagTest
Tests run: 2, Failures: 0, Errors: 0, Skipped: 0, Time elapsed: 0.007 sec - in org.apache.commons.imaging.formats.jpeg.exif.MicrosoftTagTest
Running org.apache.commons.imaging.formats.jpeg.exif.AsciiFieldTest
Tests run: 1, Failures: 0, Errors: 0, Skipped: 0, Time elapsed: 0.002 sec - in org.apache.commons.imaging.formats.jpeg.exif.AsciiFieldTest
Running org.apache.commons.imaging.formats.ico.IcoReadTest
Tests run: 3, Failures: 0, Errors: 0, Skipped: 2, Time elapsed: 0.034 sec - in org.apache.commons.imaging.formats.ico.IcoReadTest
Running org.apache.commons.imaging.formats.ico.IcoRoundtripTest
Tests run: 8, Failures: 0, Errors: 0, Skipped: 0, Time elapsed: 0.035 sec - in org.apache.commons.imaging.formats.ico.IcoRoundtripTest
Running org.apache.commons.imaging.formats.xmp.XmpDumpTest
Tests run: 1, Failures: 0, Errors: 0, Skipped: 0, Time elapsed: 0.012 sec - in org.apache.commons.imaging.formats.xmp.XmpDumpTest
Running org.apache.commons.imaging.formats.xmp.XmpUpdateTest
Tests run: 1, Failures: 0, Errors: 0, Skipped: 0, Time elapsed: 0.115 sec - in org.apache.commons.imaging.formats.xmp.XmpUpdateTest
Running org.apache.commons.imaging.formats.pnm.PnmImageParserTest
Tests run: 4, Failures: 0, Errors: 0, Skipped: 0, Time elapsed: 0.002 sec - in org.apache.commons.imaging.formats.pnm.PnmImageParserTest
Running org.apache.commons.imaging.formats.wbmp.WbmpReadTest
Tests run: 1, Failures: 0, Errors: 0, Skipped: 0, Time elapsed: 0.003 sec - in org.apache.commons.imaging.formats.wbmp.WbmpReadTest
Running org.apache.commons.imaging.formats.icns.IcnsRoundTripTest
Tests run: 8, Failures: 0, Errors: 0, Skipped: 0, Time elapsed: 0.012 sec - in org.apache.commons.imaging.formats.icns.IcnsRoundTripTest
Running org.apache.commons.imaging.formats.icns.IcnsReadTest
Tests run: 9, Failures: 0, Errors: 0, Skipped: 3, Time elapsed: 0.01 sec - in org.apache.commons.imaging.formats.icns.IcnsReadTest
Running org.apache.commons.imaging.formats.xpm.XpmReadTest
Tests run: 1, Failures: 0, Errors: 0, Skipped: 0, Time elapsed: 0.378 sec - in org.apache.commons.imaging.formats.xpm.XpmReadTest
Running org.apache.commons.imaging.formats.dcx.DcxReadTest
Tests run: 3, Failures: 0, Errors: 0, Skipped: 2, Time elapsed: 0.014 sec - in org.apache.commons.imaging.formats.dcx.DcxReadTest
Running org.apache.commons.imaging.formats.psd.PsdReadTest
Tests run: 1, Failures: 0, Errors: 0, Skipped: 0, Time elapsed: 0.02 sec - in org.apache.commons.imaging.formats.psd.PsdReadTest
Running org.apache.commons.imaging.formats.png.PngTextTest
Tests run: 1, Failures: 0, Errors: 0, Skipped: 0, Time elapsed: 0.007 sec - in org.apache.commons.imaging.formats.png.PngTextTest
Running org.apache.commons.imaging.formats.png.ConvertPngToGifTest
Tests run: 1, Failures: 0, Errors: 0, Skipped: 0, Time elapsed: 0.447 sec - in org.apache.commons.imaging.formats.png.ConvertPngToGifTest
Running org.apache.commons.imaging.formats.png.PngMultipleRoundtripTest
Tests run: 1, Failures: 0, Errors: 0, Skipped: 0, Time elapsed: 0.241 sec - in org.apache.commons.imaging.formats.png.PngMultipleRoundtripTest
Running org.apache.commons.imaging.formats.png.PngReadTest
Tests run: 1, Failures: 0, Errors: 0, Skipped: 0, Time elapsed: 0.072 sec - in org.apache.commons.imaging.formats.png.PngReadTest
Running org.apache.commons.imaging.formats.png.PngWriteReadTest
Tests run: 2, Failures: 0, Errors: 0, Skipped: 0, Time elapsed: 0.096 sec - in org.apache.commons.imaging.formats.png.PngWriteReadTest
Running org.apache.commons.imaging.formats.tiff.TiffReadWriteTagsTest
Tests run: 1, Failures: 0, Errors: 0, Skipped: 0, Time elapsed: 0.001 sec - in org.apache.commons.imaging.formats.tiff.TiffReadWriteTagsTest
Running org.apache.commons.imaging.formats.tiff.write.TiffOutputSetTest
Tests run: 1, Failures: 0, Errors: 0, Skipped: 0, Time elapsed: 0 sec - in org.apache.commons.imaging.formats.tiff.write.TiffOutputSetTest
Running org.apache.commons.imaging.formats.tiff.write.TiffOutputDirectoryTest
Tests run: 1, Failures: 0, Errors: 0, Skipped: 0, Time elapsed: 0 sec - in org.apache.commons.imaging.formats.tiff.write.TiffOutputDirectoryTest
Running org.apache.commons.imaging.formats.tiff.TiffLzwTest
Tests run: 3, Failures: 0, Errors: 0, Skipped: 1, Time elapsed: 0.261 sec - in org.apache.commons.imaging.formats.tiff.TiffLzwTest
Running org.apache.commons.imaging.formats.tiff.TiffCcittTest
Tests run: 2, Failures: 0, Errors: 0, Skipped: 0, Time elapsed: 0.472 sec - in org.apache.commons.imaging.formats.tiff.TiffCcittTest
Running org.apache.commons.imaging.formats.tiff.TiffSubImageTest
Tests run: 1, Failures: 0, Errors: 0, Skipped: 0, Time elapsed: 0.001 sec - in org.apache.commons.imaging.formats.tiff.TiffSubImageTest
Running org.apache.commons.imaging.formats.tiff.TiffTagIntegrityTest
Tests run: 1, Failures: 0, Errors: 0, Skipped: 0, Time elapsed: 0.003 sec - in org.apache.commons.imaging.formats.tiff.TiffTagIntegrityTest
Running org.apache.commons.imaging.formats.tiff.TiffReadTest
Tests run: 1, Failures: 0, Errors: 0, Skipped: 0, Time elapsed: 0.292 sec - in org.apache.commons.imaging.formats.tiff.TiffReadTest
Running org.apache.commons.imaging.formats.tiff.TiffRoundtripTest
Tests run: 1, Failures: 0, Errors: 0, Skipped: 0, Time elapsed: 6.418 sec - in org.apache.commons.imaging.formats.tiff.TiffRoundtripTest
Running org.apache.commons.imaging.formats.pcx.PcxReadTest
Tests run: 1, Failures: 0, Errors: 0, Skipped: 0, Time elapsed: 0.009 sec - in org.apache.commons.imaging.formats.pcx.PcxReadTest
Running org.apache.commons.imaging.formats.gif.GifReadTest
Tests run: 6, Failures: 0, Errors: 0, Skipped: 2, Time elapsed: 0.012 sec - in org.apache.commons.imaging.formats.gif.GifReadTest
Running org.apache.commons.imaging.formats.bmp.BmpReadTest
Tests run: 15, Failures: 0, Errors: 0, Skipped: 5, Time elapsed: 0.009 sec - in org.apache.commons.imaging.formats.bmp.BmpReadTest
Running org.apache.commons.imaging.formats.bmp.BmpRoundtripTest
Tests run: 6, Failures: 0, Errors: 0, Skipped: 0, Time elapsed: 0.095 sec - in org.apache.commons.imaging.formats.bmp.BmpRoundtripTest
Running org.apache.commons.imaging.formats.pam.PamReadTest
Tests run: 1, Failures: 0, Errors: 0, Skipped: 0, Time elapsed: 0.005 sec - in org.apache.commons.imaging.formats.pam.PamReadTest
Running org.apache.commons.imaging.formats.rgbe.RgbeReadTest
Tests run: 1, Failures: 0, Errors: 0, Skipped: 0, Time elapsed: 0.055 sec - in org.apache.commons.imaging.formats.rgbe.RgbeReadTest
Running org.apache.commons.imaging.formats.xbm.XbmReadTest
Tests run: 1, Failures: 0, Errors: 0, Skipped: 0, Time elapsed: 0.021 sec - in org.apache.commons.imaging.formats.xbm.XbmReadTest
Running org.apache.commons.imaging.ImagingGuessFormatTest
Tests run: 11, Failures: 0, Errors: 0, Skipped: 0, Time elapsed: 0.005 sec - in org.apache.commons.imaging.ImagingGuessFormatTest
Running org.apache.commons.imaging.roundtrip.RoundtripTest
Tests run: 6, Failures: 0, Errors: 0, Skipped: 0, Time elapsed: 12.969 sec - in org.apache.commons.imaging.roundtrip.RoundtripTest
Running org.apache.commons.imaging.color.ColorCmyTest
Tests run: 5, Failures: 0, Errors: 0, Skipped: 0, Time elapsed: 0.003 sec - in org.apache.commons.imaging.color.ColorCmyTest
Running org.apache.commons.imaging.color.ColorHslTest
Tests run: 5, Failures: 0, Errors: 0, Skipped: 0, Time elapsed: 0.001 sec - in org.apache.commons.imaging.color.ColorHslTest
Running org.apache.commons.imaging.color.ColorConversionsTest
Tests run: 4, Failures: 0, Errors: 0, Skipped: 0, Time elapsed: 0.004 sec - in org.apache.commons.imaging.color.ColorConversionsTest
Running org.apache.commons.imaging.color.ColorHsvTest
Tests run: 5, Failures: 0, Errors: 0, Skipped: 0, Time elapsed: 0 sec - in org.apache.commons.imaging.color.ColorHsvTest
Running org.apache.commons.imaging.color.ColorCmykTest
Tests run: 6, Failures: 0, Errors: 0, Skipped: 0, Time elapsed: 0 sec - in org.apache.commons.imaging.color.ColorCmykTest
Running org.apache.commons.imaging.color.ColorCieLabTest
Tests run: 5, Failures: 0, Errors: 0, Skipped: 0, Time elapsed: 0.001 sec - in org.apache.commons.imaging.color.ColorCieLabTest
Running org.apache.commons.imaging.color.ColorHunterLabTest
Tests run: 5, Failures: 0, Errors: 0, Skipped: 0, Time elapsed: 0.001 sec - in org.apache.commons.imaging.color.ColorHunterLabTest
Running org.apache.commons.imaging.color.ColorCieLchTest
Tests run: 5, Failures: 0, Errors: 0, Skipped: 0, Time elapsed: 0.001 sec - in org.apache.commons.imaging.color.ColorCieLchTest
Running org.apache.commons.imaging.color.ColorXyzTest
Tests run: 5, Failures: 0, Errors: 0, Skipped: 0, Time elapsed: 0 sec - in org.apache.commons.imaging.color.ColorXyzTest
Running org.apache.commons.imaging.color.ColorCieLuvTest
Tests run: 5, Failures: 0, Errors: 0, Skipped: 0, Time elapsed: 0 sec - in org.apache.commons.imaging.color.ColorCieLuvTest
Running org.apache.commons.imaging.common.RationalNumberTest
Tests run: 65, Failures: 0, Errors: 0, Skipped: 0, Time elapsed: 0.021 sec - in org.apache.commons.imaging.common.RationalNumberTest
Running org.apache.commons.imaging.common.BinaryFileFunctionsTest
Tests run: 2, Failures: 0, Errors: 0, Skipped: 0, Time elapsed: 0 sec - in org.apache.commons.imaging.common.BinaryFileFunctionsTest
Running org.apache.commons.imaging.common.bytesource.ByteSourceDataTest
Tests run: 15, Failures: 0, Errors: 0, Skipped: 0, Time elapsed: 0.018 sec - in org.apache.commons.imaging.common.bytesource.ByteSourceDataTest
Running org.apache.commons.imaging.common.bytesource.ByteSourceImageTest
Tests run: 81, Failures: 0, Errors: 0, Skipped: 0, Time elapsed: 0.584 sec - in org.apache.commons.imaging.common.bytesource.ByteSourceImageTest
Running org.apache.commons.imaging.palette.PaletteQuantizationTest
Tests run: 1, Failures: 0, Errors: 0, Skipped: 0, Time elapsed: 0.016 sec - in org.apache.commons.imaging.palette.PaletteQuantizationTest

Results :

Tests run: 432, Failures: 0, Errors: 0, Skipped: 15

[INFO] 
[INFO] --- animal-sniffer-maven-plugin:1.15:check (check-java-api) @ commons-imaging ---
[INFO] Checking unresolved references to org.codehaus.mojo.signature:java17:1.0
[INFO] ------------------------------------------------------------------------
[INFO] BUILD SUCCESS
[INFO] ------------------------------------------------------------------------
[INFO] Total time: 32.763 s
[INFO] Finished at: 2017-01-01T17:40:23-06:00
[INFO] Final Memory: 44M/2386M
[INFO] ------------------------------------------------------------------------
