04c1bce1f91ff97aad65d353ed92fbeffbc061fd [FaultTracer] Extracted changes: 0 0 3 0 0 0 0 0 0 1 0 0 0 0 5 1 0 0 0 0 0 1 0 0 0 0 3 1
8f98b4fcf487b264e02f9bfd09ce90feb22f82d7 [FaultTracer] Extracted changes: 0 0 2 0 0 0 0 0 0 0 0 0 0 0 5 0 0 0 0 0 0 0 0 0 0 0 2 0
ef143df014ca39660005335d94e99120b343c06e [FaultTracer] Extracted changes: 0 0 0 0 0 0 0 0 0 0 0 0 0 0 0 0 0 0 0 0 0 0 0 0 0 0 0 0
cff3fa5afcd61b7fee6f99cc8b1698ee39b3a2a3 [FaultTracer] Extracted changes: 0 0 2 0 0 0 0 0 0 0 0 0 0 0 3 0 0 0 0 0 0 0 0 0 0 0 2 0
36d421a57dafb2e8594792d0d3dd3ed37081ebff [FaultTracer] Extracted changes: 0 0 3 0 0 0 0 0 0 0 0 0 0 0 0 0 0 0 0 0 0 0 0 0 0 0 0 0
fefac9e889da2e7a01e88f9403035c647920c7c7 [FaultTracer] Extracted changes: 0 0 2 0 0 0 0 0 0 0 0 0 0 0 4 0 0 0 0 0 0 0 0 0 0 0 2 0
cceda0d8eea21145c4ecaec7d69538e3bb08c177 [FaultTracer] Extracted changes: 0 0 2 0 0 0 0 0 0 0 0 0 0 0 2 0 0 0 0 0 0 0 0 0 0 0 2 0
7f85fc5b987d69391d8530a2ecbfade130e9f55b [FaultTracer] Extracted changes: 0 0 2 0 0 0 0 0 0 0 0 0 0 0 2 0 0 0 0 0 0 0 0 0 0 0 2 0
fe7d944731edd714f7d37daefd6eea2f0a3dca20 [FaultTracer] Extracted changes: 0 0 2 0 0 0 0 0 0 0 0 0 0 0 2 0 0 0 0 0 0 0 0 0 0 0 2 0
b5caa8e8c8821dd30bd3c95c62ed0a5ea14acb88 [FaultTracer] Extracted changes: 0 0 2 1 0 0 0 0 0 0 0 0 0 0 0 1 0 0 0 0 0 0 0 0 0 0 0 1
df285b05e8c988ac20f685c7600c6e9469c6dcf1 [FaultTracer] Extracted changes: 0 0 0 0 0 0 0 0 0 0 0 0 0 0 0 0 0 0 0 0 0 0 0 0 0 0 0 0
1e7e2b8cb2d5d8c2f4cce5535fbfd80d1147ba88 [FaultTracer] Extracted changes: 0 0 0 0 0 0 0 0 0 0 0 0 0 0 0 0 0 0 0 0 0 0 0 0 0 0 0 0
efccb8e6ce576e730cd2cd2e72f6108c6f211449 [FaultTracer] Extracted changes: 0 0 0 0 0 0 0 0 0 0 0 0 0 0 0 0 0 0 0 0 0 0 0 0 0 0 0 0
7856de78840d401c06f510b62c45746c78ea7f11 [FaultTracer] Extracted changes: 0 0 0 0 0 0 0 0 0 0 0 0 0 0 0 0 0 0 0 0 0 0 0 0 0 0 0 0
53434293b89633bba4b5731334dad1c94e58d803 [FaultTracer] Extracted changes: 0 0 0 0 0 0 0 0 0 0 0 0 0 0 0 0 0 0 0 0 0 0 0 0 0 0 0 0
1d22e7a1ad1b2e6cf162476674de1e8f5d4081df [FaultTracer] Extracted changes: 0 0 0 0 0 0 0 0 0 0 0 0 0 0 0 0 0 0 0 0 0 0 0 0 0 0 0 0
a3a70b4a9eb911f96388fbe4abff06657ed14b26 [FaultTracer] Extracted changes: 0 0 0 0 0 0 0 0 0 0 0 0 0 0 0 0 0 0 0 0 0 0 0 0 0 0 0 0
3cee85bcbbd69253d86e1d94f8354909112b2c9c [FaultTracer] Extracted changes: 0 0 0 0 0 0 0 0 0 0 0 0 0 0 0 0 0 0 0 0 0 0 0 0 0 0 0 0
3fcb86a6e54cc608e03ae96bb54027c6f9cae2df [FaultTracer] Extracted changes: 0 0 0 0 0 0 0 0 0 0 0 0 0 0 0 0 0 0 0 0 0 0 0 0 0 0 0 0
482e8b98b379822d3e86b2de32735574ff38a616 [FaultTracer] Extracted changes: 0 0 0 0 0 0 0 0 0 0 0 0 0 0 0 0 0 0 0 0 0 0 0 0 0 0 0 0
09350716e2058aea0efc8da944584ec58b86a0f0 [FaultTracer] Extracted changes: 3 3 21 0 0 0 1 0 0 8 0 0 1 16 13 20 0 0 1 0 0 6 0 0 1 7 6 14
60e0cbe87ad7038de3e47a954b301a00154b4ada [FaultTracer] Extracted changes: 0 0 0 0 0 0 0 0 0 0 0 0 0 0 0 0 0 0 0 0 0 0 0 0 0 0 0 0
f0bc5b8fc20384c92b0800f76d8c417cdeaf3751 [FaultTracer] Extracted changes: 0 0 0 0 0 0 0 0 0 0 0 0 0 0 0 0 0 0 0 0 0 0 0 0 0 0 0 0
6b9fba77a48a0e7e8c8101be0c77448335fd2cac [FaultTracer] Extracted changes: 0 0 0 0 0 0 0 0 0 0 0 0 0 0 0 0 0 0 0 0 0 0 0 0 0 0 0 0
2816b5dfc792713aa793d7ba5e5d28ffb77a979a [FaultTracer] Extracted changes: 0 0 0 0 0 0 0 0 0 0 0 0 0 0 0 0 0 0 0 0 0 0 0 0 0 0 0 0
f2b1e491864325d89ed93c2c3270fa5df7c52894 [FaultTracer] Extracted changes: 0 0 0 0 0 0 0 0 0 0 0 0 0 0 0 0 0 0 0 0 0 0 0 0 0 0 0 0
be89269d8ca31e38c20bbc5038ded2a21472463d [FaultTracer] Extracted changes: 0 0 0 0 0 0 0 0 0 0 0 0 0 0 0 0 0 0 0 0 0 0 0 0 0 0 0 0
89428f16b0c580a123f69391882024ffce98ed67 [FaultTracer] Extracted changes: 0 0 0 0 0 0 0 0 0 0 0 0 0 0 0 0 0 0 0 0 0 0 0 0 0 0 0 0
d377fbbdd542165094f1ef986420106af1ca98e3 [FaultTracer] Extracted changes: 0 0 0 0 0 0 0 0 0 0 0 0 0 0 0 0 0 0 0 0 0 0 0 0 0 0 0 0
fc534100c4e4eef54a31806b59cfc81a6674a4aa [FaultTracer] Extracted changes: 0 0 2 0 0 0 0 0 0 0 0 0 0 0 2 1 0 0 0 0 0 0 0 0 0 0 2 1
75b2d209c5ab7d1cf3aec51254fe93056aee2135 [FaultTracer] Extracted changes: 0 0 0 0 0 0 0 0 0 0 0 0 0 0 0 0 0 0 0 0 0 0 0 0 0 0 0 0
8fc74a9bd95d58aa7e69ef8b64f86063a15b2bed [FaultTracer] Extracted changes: 0 0 0 0 0 0 0 0 0 0 0 0 0 0 0 0 0 0 0 0 0 0 0 0 0 0 0 0
e4071db6dc7c12840dc262ef05d71cd520ba29dd [FaultTracer] Extracted changes: 0 3 0 0 0 0 0 0 0 0 0 0 0 0 0 0 0 0 0 0 0 0 0 0 0 0 0 0
1f207424031bd81af858ffc98e64152b3ce2f22c [FaultTracer] Extracted changes: 0 0 0 0 0 0 0 0 0 0 0 0 0 0 0 0 0 0 0 0 0 0 0 0 0 0 0 0
cf9cbbdae44b88a7cc982765bed085b434f4816e [FaultTracer] Extracted changes: 0 2 0 0 0 0 0 0 0 0 0 0 0 0 0 0 0 0 0 0 0 0 0 0 0 0 0 0
00d9578b74a107e3811c407ecc3da2bcdb166f81 [FaultTracer] Extracted changes: 3 3 0 0 0 0 0 0 0 0 0 0 0 0 0 0 0 0 0 0 0 0 0 0 0 0 0 0
3410aed6696622cb6b7b8bec088f9a92ea55227f [FaultTracer] Extracted changes: 5 5 0 0 0 0 0 0 0 0 0 0 0 0 0 0 0 0 0 0 0 0 0 0 0 0 0 0
8d34352d3ca40ccee76e1473d3e132f7bd8d4a62 [FaultTracer] Extracted changes: 0 0 0 0 0 0 0 0 0 0 0 0 0 0 0 0 0 0 0 0 0 0 0 0 0 0 0 0
447baf8149da8259cbd275b9b2bdfafbcc40ef8c [FaultTracer] Extracted changes: 0 0 0 0 0 0 0 0 0 0 0 0 0 0 0 0 0 0 0 0 0 0 0 0 0 0 0 0
40741a9de6da39b6310ea0892f2098ec26cbc38c [FaultTracer] Extracted changes: 0 0 0 0 0 0 0 0 0 0 0 0 0 0 0 0 0 0 0 0 0 0 0 0 0 0 0 0
85eaaf74477a0518f9c13702e0d390e535ac4346 [FaultTracer] Extracted changes: 0 0 0 0 0 0 0 0 0 0 0 0 0 0 0 0 0 0 0 0 0 0 0 0 0 0 0 0
b29dcd586fcec75fc6cdaebc8013bbd95878d3c7 [FaultTracer] Extracted changes: 0 0 2 0 0 0 0 0 0 0 0 0 0 0 1 6 0 0 0 0 0 0 0 0 0 0 1 2
f3a8208d7c69dca84bb2e9e7126831f83af3b1e9 [FaultTracer] Extracted changes: 0 0 1 0 0 0 0 0 0 0 0 0 0 0 0 14 0 0 0 0 0 0 0 0 0 0 0 1
1761c73c6c3162affccc9879eec0d8af6ce27149 [FaultTracer] Extracted changes: 0 0 1 0 0 0 0 0 0 0 0 0 0 0 0 1 0 0 0 0 0 0 0 0 0 0 0 1
d042d3592e7be9e7c0f9ebb0f1ac8f12db6419ee [FaultTracer] Extracted changes: 0 0 0 0 0 0 0 0 0 0 0 0 0 0 0 0 0 0 0 0 0 0 0 0 0 0 0 0
b1d7b38a1d9e6669841b2d3ef2e844f8b89763c4 [FaultTracer] Extracted changes: 0 0 0 0 0 0 0 0 0 0 0 0 0 0 0 0 0 0 0 0 0 0 0 0 0 0 0 0
436ea0676ccf12166bf3f8d0f3169614eae0fa56 [FaultTracer] Extracted changes: 0 0 0 0 0 0 0 0 0 0 0 0 0 0 0 0 0 0 0 0 0 0 0 0 0 0 0 0
edbe77e5df961c4f6e9cdcdfe00edc72481f7f49 [FaultTracer] Extracted changes: 0 0 5 1 0 0 0 0 0 0 1 3 2 0 7 8 0 0 0 0 0 0 1 2 2 0 3 2
67407f284b52a672fc49db793f10e55cae20b90d [FaultTracer] Extracted changes: 0 0 2 0 0 0 0 0 0 0 0 0 1 0 1 1 0 0 0 0 0 0 0 0 1 0 1 1
bea5ca1141531a4c2c14c4059ebfcf0b00862d42 [FaultTracer] Extracted changes: 0 0 0 0 0 0 0 0 0 0 0 0 0 0 0 0 0 0 0 0 0 0 0 0 0 0 0 0
7344ddb46c70f689b45a0c31eebfc38d4c89c24c [FaultTracer] Extracted changes: 0 0 0 0 0 0 0 0 0 0 0 0 0 0 0 0 0 0 0 0 0 0 0 0 0 0 0 0
3cc0a5daa0e09ca930974c00d8c1e98158ce48dd [FaultTracer] Extracted changes: 0 0 0 0 0 0 0 0 0 0 0 0 0 0 0 0 0 0 0 0 0 0 0 0 0 0 0 0
0cb26ac6a67c0b72fe7c1e031792b9b23c9deacb [FaultTracer] Extracted changes: 0 0 0 0 0 0 0 0 0 0 0 0 0 0 0 0 0 0 0 0 0 0 0 0 0 0 0 0
628813c02504c14a2033785d300c5e22ac573fb9 [FaultTracer] Extracted changes: 0 0 2 0 0 0 0 0 0 0 0 0 1 0 1 0 0 0 0 0 0 0 0 0 1 0 1 0
5544b5af78ba07308f17e37915c2c919bb143870 [FaultTracer] Extracted changes: 0 0 0 0 0 0 0 0 0 0 0 0 0 0 0 0 0 0 0 0 0 0 0 0 0 0 0 0
2ccca975ded63aacaf532065632b15fc01750f68 [FaultTracer] Extracted changes: 0 0 0 0 0 0 0 0 0 0 0 0 0 0 0 0 0 0 0 0 0 0 0 0 0 0 0 0
404f5ed2b8d1da8fe2218ade19eb134f2c4ff0c0 [FaultTracer] Extracted changes: 0 0 0 0 0 0 0 0 0 0 0 0 0 0 0 0 0 0 0 0 0 0 0 0 0 0 0 0
7064987a4dd476bdd21040b1cf660a8cfad92eb2 [FaultTracer] Extracted changes: 0 0 0 0 0 0 0 0 0 0 0 0 0 0 0 0 0 0 0 0 0 0 0 0 0 0 0 0
4b01de88b979dee9a8ba3200cf489edb79b3c71d [FaultTracer] Extracted changes: 0 0 0 0 0 0 0 0 0 0 0 0 0 0 0 0 0 0 0 0 0 0 0 0 0 0 0 0
f65eeb6335b384a26e5aa47186ab94f9305b1265 [FaultTracer] Extracted changes: 0 0 0 0 0 0 0 0 0 0 0 0 0 0 0 0 0 0 0 0 0 0 0 0 0 0 0 0
19abbba0d95840158ed7804c29a0acbe36dc6249 [FaultTracer] Extracted changes: 0 0 1 0 0 0 0 0 0 0 0 0 0 0 0 1 0 0 0 0 0 0 0 0 0 0 0 1
05077ebc87ff764cfbec2be39fefdab7a149eeb8 [FaultTracer] Extracted changes: 0 0 0 0 0 0 0 0 0 0 0 0 0 0 0 0 0 0 0 0 0 0 0 0 0 0 0 0
e7294a6dc99ed5f2c438c71641dca4fdbfb77bbd [FaultTracer] Extracted changes: 0 0 0 0 0 0 0 0 0 0 0 0 0 0 0 0 0 0 0 0 0 0 0 0 0 0 0 0
db9e5beada39ed968d166ded6d9b0cb89c4bf5c4 [FaultTracer] Extracted changes: 0 0 0 0 0 0 0 0 0 0 0 0 0 0 0 0 0 0 0 0 0 0 0 0 0 0 0 0
57753e16dabfb23c415610dd37907b809b267c5e [FaultTracer] Extracted changes: 0 0 2 0 0 0 0 0 0 0 0 1 0 0 5 4 0 0 0 0 0 0 0 1 0 0 1 1
0e1332c0fbc630c9f34ec7ee6f94e8c29d73eaeb [FaultTracer] Extracted changes: 0 0 0 0 0 0 0 0 0 0 0 0 0 0 0 0 0 0 0 0 0 0 0 0 0 0 0 0
b3c7c41b0f8e218667aaa3ea547c56f2c6ce59e2 [FaultTracer] Extracted changes: 0 0 0 0 0 0 0 0 0 0 0 0 0 0 0 0 0 0 0 0 0 0 0 0 0 0 0 0
849306df76a4357ba4da19f3bda104bdedf50723 [FaultTracer] Extracted changes: 0 0 0 0 0 0 0 0 0 0 0 0 0 0 0 0 0 0 0 0 0 0 0 0 0 0 0 0
bd09c878d8f631503573d6a00777c134bd5f1552 [FaultTracer] Extracted changes: 0 0 0 0 0 0 0 0 0 0 0 0 0 0 0 0 0 0 0 0 0 0 0 0 0 0 0 0
dbe87b57691f4005587a23b27db93f62c2bfb4e3 [FaultTracer] Extracted changes: 0 0 0 0 0 0 0 0 0 0 0 0 0 0 0 0 0 0 0 0 0 0 0 0 0 0 0 0
6485eb72383b98949f7b943f036a6d27e965661c [FaultTracer] Extracted changes: 0 0 0 0 0 0 0 0 0 0 0 0 0 0 0 0 0 0 0 0 0 0 0 0 0 0 0 0
afbaa957d94c850294a7e8e20249c18dc92f87b4 [FaultTracer] Extracted changes: 0 0 0 0 0 0 0 0 0 0 0 0 0 0 0 0 0 0 0 0 0 0 0 0 0 0 0 0
561ed068f2f5c291e4a2472ed8140a247e169500 [FaultTracer] Extracted changes: 0 0 0 0 0 0 0 0 0 0 0 0 0 0 0 0 0 0 0 0 0 0 0 0 0 0 0 0
982ebe93d85572f9eae20e053dd499e020fa5900 [FaultTracer] Extracted changes: 0 0 0 0 0 0 0 0 0 0 0 0 0 0 0 0 0 0 0 0 0 0 0 0 0 0 0 0
6b70cd165d2d391115b24ff27a2e255349b88242 [FaultTracer] Extracted changes: 0 0 0 0 0 0 0 0 0 0 0 0 0 0 0 0 0 0 0 0 0 0 0 0 0 0 0 0
53f9e5a9186f5d82979593d2648fcf3e70efe536 [FaultTracer] Extracted changes: 0 0 0 0 0 0 0 0 0 0 0 0 0 0 0 0 0 0 0 0 0 0 0 0 0 0 0 0
d14b48407146d7fc8159978f80dc37daa8ccee15 [FaultTracer] Extracted changes: 0 0 0 0 0 0 0 0 0 0 0 0 0 0 0 0 0 0 0 0 0 0 0 0 0 0 0 0
9fb4ad80fd040935b117ccbafb2c286cf9a93544 [FaultTracer] Extracted changes: 0 0 0 0 0 0 0 0 0 0 0 0 0 0 0 0 0 0 0 0 0 0 0 0 0 0 0 0
2062535c08d5552fe8685b418486c28d599d51cf [FaultTracer] Extracted changes: 0 0 3 0 0 0 0 0 0 3 0 0 0 0 0 4 0 0 0 0 0 3 0 0 0 0 0 3
2e9734b128f1bee856bc73a5dea7e106c04442d3 [FaultTracer] Extracted changes: 0 0 0 0 0 0 0 0 0 0 0 0 0 0 0 0 0 0 0 0 0 0 0 0 0 0 0 0
6344ce7cc648c06a7f170aa1bbb17a1a790a54dc [FaultTracer] Extracted changes: 0 0 1 0 0 0 0 0 0 0 0 0 0 0 0 1 0 0 0 0 0 0 0 0 0 0 0 1
1c543973e93f01249a7e879cdc3f30c604895462 [FaultTracer] Extracted changes: 0 0 0 0 0 0 0 0 0 0 0 0 0 0 0 0 0 0 0 0 0 0 0 0 0 0 0 0
3623d0b6a5dec35536c58762aaf1cf1a7505a209 [FaultTracer] Extracted changes: 0 0 0 0 0 0 0 0 0 0 0 0 0 0 0 0 0 0 0 0 0 0 0 0 0 0 0 0
859829da3fd4da1effcbdc3224ed383bd8ac515a [FaultTracer] Extracted changes: 0 0 2 0 0 0 0 0 0 0 0 1 1 0 1 0 0 0 0 0 0 0 0 1 1 0 1 0
a3fec41476ade3604519145f929e68a6cbef21ff [FaultTracer] Extracted changes: 0 0 0 0 0 0 0 0 0 0 0 0 0 0 0 0 0 0 0 0 0 0 0 0 0 0 0 0
e498bda4b550707acc8352bc65ab75a30ef88ba4 [FaultTracer] Extracted changes: 0 0 0 0 0 0 0 0 0 0 0 0 0 0 0 0 0 0 0 0 0 0 0 0 0 0 0 0
f8028c6ab2e29fb49f41b0b439fc78d9b46ed526 [FaultTracer] Extracted changes: 0 0 0 0 0 0 0 0 0 0 0 0 0 0 0 0 0 0 0 0 0 0 0 0 0 0 0 0
42956360e42e805d390a0d31ee031db029937bfa [FaultTracer] Extracted changes: 0 0 0 0 0 0 0 0 0 0 0 0 0 0 0 0 0 0 0 0 0 0 0 0 0 0 0 0
b0739e8c96625a7a8105e4c1262012184efddec0 [FaultTracer] Extracted changes: 0 0 0 0 0 0 0 0 0 0 0 0 0 0 0 0 0 0 0 0 0 0 0 0 0 0 0 0
51c848d04590dbe3b6355763c86302a61f31c3e4 [FaultTracer] Extracted changes: 0 0 0 0 0 0 0 0 0 0 0 0 0 0 0 0 0 0 0 0 0 0 0 0 0 0 0 0
d407702e4a646e01ad81684afc9cc0c66551ea95 [FaultTracer] Extracted changes: 0 0 0 0 0 0 0 0 0 0 0 0 0 0 0 0 0 0 0 0 0 0 0 0 0 0 0 0
ae12e7318d56ccbb5273218b0ff8cd00c8ee51fd [FaultTracer] Extracted changes: 0 0 2 0 0 0 0 0 0 0 0 0 0 0 1 1 0 0 0 0 0 0 0 0 0 0 1 1
9720cbf8b2b6595f79e08f2964c53e47c96324f4 [FaultTracer] Extracted changes: 0 0 0 0 0 0 0 0 0 0 0 0 0 0 0 0 0 0 0 0 0 0 0 0 0 0 0 0
59877a43eb049806818386dedb072ffbcf694964 [FaultTracer] Extracted changes: 0 0 0 0 0 0 0 0 0 0 0 0 0 0 0 0 0 0 0 0 0 0 0 0 0 0 0 0
d8575412eb50c8758f64e9bb37363c974a0a36ac [FaultTracer] Extracted changes: 0 0 2 0 0 0 0 0 0 0 0 0 0 0 1 1 0 0 0 0 0 0 0 0 0 0 1 1
a3e6680f935a0b6533563c0b58d41a217996aa93 [FaultTracer] Extracted changes: 0 0 2 0 0 0 1 0 0 0 0 0 0 0 1 1 0 0 1 0 0 0 0 0 0 0 1 1
a23dfda185b8414033aa2350c75fcd56a0911728 [FaultTracer] Extracted changes: 0 0 2 0 0 0 0 0 0 0 0 0 0 0 1 1 0 0 0 0 0 0 0 0 0 0 1 1
33469fe1be59affd9b4a7a9562dd1ff4862323e1 [FaultTracer] Extracted changes: 0 0 0 0 0 0 0 0 0 0 0 0 0 0 0 0 0 0 0 0 0 0 0 0 0 0 0 0
