08e6e578823c717f5fe68009f570729cb9796f32
36b82ca6cc7ea6d6d708e068779ee75c8668ce4a
833ede4a5c3abdebded9fb121d6c175dc0d6c9f9
f27141e44b4fc5508c42ba803049c4a0a7e1baad
d2ba0b4e9ed53142b80048104b315080b63ade46
643106cc52a13b98da635b364bef1bd602da9b31
afe0d725e67e5013eda62942c252f3efa116cb68
b942e455468ad09fba96362f9a785b9ddbcafa80
074ff353744eff286fa4eb67f6636c46f080432f
9ac38aa72115deef1705ff045fe84417289c76c6
d003a44008bf940f51fffd77be0191129be5e034
b18769bcb38d2fa375390869862e85cfc30351f8
7399cd0e140443c1966bbefd09bf304568d6d398
7924c3eb138ad3f697b834e6c27c2dd222d8ac30
92cbdb5d32db531f232e2be89db8525652835d67
058266d5b4f6ad8fb3815a42d9ae939a22efc8aa
ba7a1d9221953eba24de09e6b34fa03fc464134b
c8aab833dc81f7ce2d6371775fb8ecf8e3e7c747
fd6b34f5810ea1c13b440c2e8a1c869251cd4982
076093555ee7eaf215b6697703c642b76950ba66
08470b872575f17374e2539730e4cf729f9ec896
ee0ea8f08d93e9e2bc915807361e40ac09294329
3fd1cc9a364474bb07515447966b55146f3ddd48
b39d864ed70afc943101ca41eab4ef3d6b91ac46
deb25442797903a2f57c84f3f714be0145a856e0
1042e648f7a183330cc3006b0f9a55f0c3a2d750
25d6d45f4c03dc357a81a6518eb5a3abbc051dc9
6ba7fcd8c4ee06909bf8e61f474ee7ea5e077139
06fb552d8154cf65f85902eb344ea4357cad9c99
05d5ffd894da949ba487d3793bbe23159f2ddb7a
6d876743d57ea05c796322f75b0e089766632973
1d9f765acd7828bd876b1add7e097548552cfdcb
2646eb2f2529f9c32cb16dea970c00f6f0e517cb
a376bec7b2db06a3fe1fe74606fb3d286aaec36d
ceace5949b9205a3431d72cb19fd2045da26951a
4137c2c7fbfa05c02c1690d8331c7d9df8c7ebd8
a132a7d8029eabce3a92366982a49267226ba609
11fa801b49200d9d144eb4ee52bcb9ba9ddc91f8
eac72f9c0be74dc11a408572673540981bad7175
e31b1f3685b4379e3844dfc0db52b774d4e845c0
86bbee45de86820c572addcb5240e372dec66135
ce92645ba0fa2683048aae09901a973a902990a3
e25d5b56b3a345d6ea0b93987cf37667e366bf6d
9bf7c9531d8efc9b18709c50c1d8c4b3fa847f3c
87abc705ae9d37c9d938436e2df095f75bb5fc02
f7ca4d234a80af8de293bdb52e0a64fcdea007de
caa777603cb75fef3554b1a945e544dcd22c6265
c3785830dfe906a07808786a5055d4a37d557b84
9d6d5cba5230cd1d746344b7fba8703933d8e708
e765382267892c0ec620de63d71cc212a0bb40d8
aee90cd860f29869ae83ccd5e5d80e9b48889f2e
0ad7a2f75ec71077d8764c15ef037adc7bda7d3b
d8c359182eb6cc3e5a802cc6925e1bc0ffa41722
0021f36a905c2b706a1e8259cc6ddd5b8b04b941
d66ed36a18a5a3189f4334b8465f49fb89b4c9a0
d6f655d6d67cc8f29f7ea0fbfd83e7677749b1ac
027c9618e138b790e313bbc8aa9f8309794a8625
9c5f72063c2bde7e97568eaa53c4edd712e0e0e8
7c29c99bd0f7309b88773b263e76f927c60ef32e
bc0341e7797453c856e57d92b87ff494f3d1d432
490fb759beeb2672b519b8975dc74c56e1764d86
13763e9fc475764c7e8d86eccca7c1e010e29793
6d1828b6c8b935c39c3d7a92e32b152b1ac54c56
d7db7c71eed2c33ba624339cd57caf7fbb3eefdd
2a314dfff5d5731a76ca9762b71922316f3d4dc7
5c5b52c285d7a47f33494d7154cf232535657551
455c286ce118f76b8f590452990a20b1c8e72b51
1852dd49966d2af57f57d4c1f3cc6ad1d04b3b6b
14c05c8aa142014192b5b2799b8c2b21677fd33d
93d984bd77a758f5b2f0e5062699a6c21ac30ed6
03ac03c5be1ef80c103a166f32825b7ead020b60
47671103d2309844841083aa2621719194e40cdd
ddc1e8901d859144a3a1626115d3e026174ccb09
fce13ade43de9a63110d2fb8da1d94c21413c0a2
c228ac3dd3ff9867c20783ca85ff35ec94819af9
0dae57364253e454b9de5838420bdeea1f1452fe
6735b4bb903c1700b25a0813a383b4fdfa58c7cc
ffe4cb02e1e62315e5d73aec8bf5cbdd3dba459a
f60440f12f9465390bc39dea7ee8e120d382eb3f
9f93c221178c11cd27d6580db0047f738f93ba32
12cb13bdfb8d7dd824f5247bc4cdb7010acbc6ca
d10de65692caebea82ffd9c773737b58926f8324
5391654a7a48558c466f490af1be54b5a2424f9d
a5477497084d5b2313b0660e11fb0cf545c07540
8d3a6416127910512e9e2ad459c3435542c8689b
3cb177a0860d5aa5bc9e29b8ad2cb6cb9d37ab7e
cc4dc2e9b69370e94505ee53dcbd0c895fe26763
