91300eb4de2b72c7dd6a2f300ccb38cf9e4fd99c [FaultTracer] Extracted changes: 0 0 0 0 0 0 0 0 0 0 0 0 0 0 0 0 0 0 0 0 0 0 0 0 0 0 0 0
0e8d49f7faec3de3c3068013717cace0ed1c6d68 [FaultTracer] Extracted changes: 0 3 0 0 0 0 0 0 0 0 0 0 0 0 0 0 0 0 0 0 0 0 0 0 0 0 0 0
50ebc0f5446a38762932f9f7d202856501b2c9c7 [FaultTracer] Extracted changes: 0 0 3 1 0 0 1 0 0 1 0 0 0 0 3 3 0 0 1 0 0 1 0 0 0 0 1 1
71ae282ead03e312808b80b2cc3214b641496bfd [FaultTracer] Extracted changes: 0 0 0 0 0 0 0 0 0 0 0 0 0 0 0 0 0 0 0 0 0 0 0 0 0 0 0 0
8f4d8c84418380414a4858d4d59eb8be20e4d13f [FaultTracer] Extracted changes: 0 0 0 0 0 0 0 0 0 0 0 0 0 0 0 0 0 0 0 0 0 0 0 0 0 0 0 0
6e9369fa2be92b3934db589142114a52db69f469 [FaultTracer] Extracted changes: 0 0 0 0 0 0 0 0 0 0 0 0 0 0 0 0 0 0 0 0 0 0 0 0 0 0 0 0
ffae22fa23904573ab0e93c5c94e3884e5e16f85 [FaultTracer] Extracted changes: 0 0 0 0 0 0 0 0 0 0 0 0 0 0 0 0 0 0 0 0 0 0 0 0 0 0 0 0
d1dd46c9fcd8e12da4bad4eb6dde64702de410bb [FaultTracer] Extracted changes: 0 0 14 0 0 0 0 0 0 0 0 0 0 0 0 20 0 0 0 0 0 0 0 0 0 0 0 14
0822508475c82d83ea93edaaf6b6d3a7ace3778f [FaultTracer] Extracted changes: 0 0 0 0 0 0 0 0 0 0 0 0 0 0 0 0 0 0 0 0 0 0 0 0 0 0 0 0
493de4fb1d1a1eac9c9993d23a18a11f866b41e0 [FaultTracer] Extracted changes: 0 0 0 0 0 0 0 0 0 0 0 0 0 0 0 0 0 0 0 0 0 0 0 0 0 0 0 0
b4a590075a41b833a8c8155d61c17b87d5bb83bf [FaultTracer] Extracted changes: 0 4 0 0 0 0 0 0 0 0 0 0 0 0 0 0 0 0 0 0 0 0 0 0 0 0 0 0
9cad8211cc6ecf280e031d9c8b1c0e985d70019c [FaultTracer] Extracted changes: 0 0 0 0 0 0 0 0 0 0 0 0 0 0 0 0 0 0 0 0 0 0 0 0 0 0 0 0
bf98493511a848355f5127abd69ac9ac51ea709f [FaultTracer] Extracted changes: 0 0 1 0 0 0 0 0 0 1 0 0 0 0 0 1 0 0 0 0 0 1 0 0 0 0 0 1
3a88001d966aa3f9abc03e8116a3d9981e4a6cd2 [FaultTracer] Extracted changes: 0 0 0 0 0 0 0 0 0 0 0 0 0 0 0 0 0 0 0 0 0 0 0 0 0 0 0 0
891a13d5a9a328b20aeda6330079ce4f86e6a991 [FaultTracer] Extracted changes: 0 0 0 0 0 0 0 0 0 0 0 0 0 0 0 0 0 0 0 0 0 0 0 0 0 0 0 0
fe4c5b4fc40f6bb1cb5698d87ff102baeaaca4e8 [FaultTracer] Extracted changes: 0 0 0 0 0 0 0 0 0 0 0 0 0 0 0 0 0 0 0 0 0 0 0 0 0 0 0 0
9e190453fabb03149644a491f498822a996a9ae5 [FaultTracer] Extracted changes: 0 0 0 0 0 0 0 0 0 0 0 0 0 0 0 0 0 0 0 0 0 0 0 0 0 0 0 0
1f608abd1d869fa4d049482401ad4b901342fd9a [FaultTracer] Extracted changes: 0 0 2 0 0 0 1 0 0 0 0 0 0 0 1 0 0 0 1 0 0 0 0 0 0 0 1 0
9f21a03adeb43b02a548d6fb79984c00ce5cd398 [FaultTracer] Extracted changes: 0 0 1 0 0 0 0 0 0 0 0 0 0 0 1 0 0 0 0 0 0 0 0 0 0 0 1 0
e97dc18159bfd8ae0aa14aaeb6b18d541cf03e3b [FaultTracer] Extracted changes: 0 0 0 0 0 0 0 0 0 0 0 0 0 0 0 0 0 0 0 0 0 0 0 0 0 0 0 0
d1059a2fe9e4d3a4318c15744a658701eaad877a [FaultTracer] Extracted changes: 0 0 0 0 0 0 0 0 0 0 0 0 0 0 0 0 0 0 0 0 0 0 0 0 0 0 0 0
ff84d7b2e8d89555c518767416af0a60d0f245ba [FaultTracer] Extracted changes: 0 0 1 0 0 0 0 0 0 0 0 0 0 0 0 1 0 0 0 0 0 0 0 0 0 0 0 1
155333ae881e52a4ad49b3de6cfa848bca838677 [FaultTracer] Extracted changes: 0 0 1 0 0 0 0 0 0 0 0 0 0 0 0 0 0 0 0 0 0 0 0 0 0 0 0 0
f398b292b3463ffdf104db050849de74962392d8 [FaultTracer] Extracted changes: 0 0 2 0 0 0 1 0 0 0 0 0 0 0 0 3 0 0 1 0 0 0 0 0 0 0 0 2
01fd9c792b8a2f3a7206d43c21d34de8135eaf6e [FaultTracer] Extracted changes: 0 0 2 0 0 0 0 0 0 0 0 0 0 0 0 2 0 0 0 0 0 0 0 0 0 0 0 2
f7c43cd216051aeff62194bfe1b98a7fe7f75c9f [FaultTracer] Extracted changes: 0 0 2 0 0 0 0 0 0 0 0 0 0 0 1 1 0 0 0 0 0 0 0 0 0 0 1 1
03bf0d33143ebd13e4f389cd4ecac8aec17c2057 [FaultTracer] Extracted changes: 0 0 1 0 0 0 0 0 0 0 0 0 0 0 0 1 0 0 0 0 0 0 0 0 0 0 0 1
ead6ffdd5f924cb7b100b3ff7fc2cb9edc17a66b [FaultTracer] Extracted changes: 0 0 0 0 0 0 0 0 0 0 0 0 0 0 0 0 0 0 0 0 0 0 0 0 0 0 0 0
0ca171374af25573eb4956ac0bfa6b65d02fc561 [FaultTracer] Extracted changes: 0 0 1 0 0 0 0 0 0 0 0 0 0 0 1 0 0 0 0 0 0 0 0 0 0 0 1 0
698b384a95456673fdfaaac2b9b3088dfad6f2a3 [FaultTracer] Extracted changes: 0 0 2 0 0 0 1 0 0 0 0 0 0 0 0 1 0 0 1 0 0 0 0 0 0 0 0 1
c45994e38779957dbc09d74831aaa664e7031a46 [FaultTracer] Extracted changes: 0 0 0 0 0 0 0 0 0 0 0 0 0 0 0 0 0 0 0 0 0 0 0 0 0 0 0 0
223afabe13faa77aeea5f2aee2671e6a6c7f67cc [FaultTracer] Extracted changes: 0 0 0 0 0 0 0 0 0 0 0 0 0 0 0 0 0 0 0 0 0 0 0 0 0 0 0 0
774055bcbf09322a0d64217e0f238c709987c573 [FaultTracer] Extracted changes: 0 0 1 0 0 0 1 0 0 0 0 0 0 0 0 2 0 0 1 0 0 0 0 0 0 0 0 1
173baf88e4d0fd247addffa7f20019aaf3ac9a2d [FaultTracer] Extracted changes: 0 0 0 0 0 0 0 0 0 0 0 0 0 0 0 0 0 0 0 0 0 0 0 0 0 0 0 0
294fd27a2037bef673bb89b66982380a62012590 [FaultTracer] Extracted changes: 0 0 0 0 0 0 0 0 0 0 0 0 0 0 0 0 0 0 0 0 0 0 0 0 0 0 0 0
7171c74b860be6b434c5fd3f33e2e6e2bcb7b33b [FaultTracer] Extracted changes: 0 0 6 0 0 0 0 0 0 0 0 0 0 0 0 1 0 0 0 0 0 0 0 0 0 0 0 1
5120797447ee6b029f483049db56cc4aac673e50 [FaultTracer] Extracted changes: 0 0 1 0 0 0 0 0 0 0 0 0 0 0 0 1 0 0 0 0 0 0 0 0 0 0 0 1
2503f516334f884a39ff9c82bfbd64c720bf26bc [FaultTracer] Extracted changes: 0 0 3 0 0 0 0 0 0 0 0 0 0 0 0 1 0 0 0 0 0 0 0 0 0 0 0 1
4f3bab6fd20a46cab2d709c8d1e51de6956fc38d [FaultTracer] Extracted changes: 0 0 0 0 0 0 0 0 0 0 0 0 0 0 0 0 0 0 0 0 0 0 0 0 0 0 0 0
dee5abd5c38c5274b7ee88b15dd1bb90b4212690 [FaultTracer] Extracted changes: 0 0 1 0 0 0 1 0 0 0 0 0 2 0 0 2 0 0 1 0 0 0 0 0 1 0 0 1
b455d026a1c743e4f5362007479d8cfcf7d4e01a [FaultTracer] Extracted changes: 0 0 0 0 0 0 0 0 0 0 0 0 0 0 0 0 0 0 0 0 0 0 0 0 0 0 0 0
8f3cd78f4af31975ed66f576516593ea3f7a5c41 [FaultTracer] Extracted changes: 0 0 0 0 0 0 0 0 0 0 0 0 0 0 0 0 0 0 0 0 0 0 0 0 0 0 0 0
a80de92017b53a313d548a868b746652ce6435cc [FaultTracer] Extracted changes: 0 0 0 0 0 0 0 0 0 0 0 0 0 0 0 0 0 0 0 0 0 0 0 0 0 0 0 0
5f1990dfd0b2809e22e569c035ab7a67adca54d4 [FaultTracer] Extracted changes: 0 0 0 0 0 0 0 0 0 0 0 0 0 0 0 0 0 0 0 0 0 0 0 0 0 0 0 0
7af7df977cbef0b4181ad942e0864a69073433f3 [FaultTracer] Extracted changes: 0 0 0 0 0 0 0 0 0 0 0 0 0 0 0 0 0 0 0 0 0 0 0 0 0 0 0 0
e9c7aad39ad53f68afbebee8976c7bdc46941d92 [FaultTracer] Extracted changes: 0 0 4 0 0 0 0 0 0 0 0 0 9 0 0 3 0 0 0 0 0 0 0 0 1 0 0 3
69d178919b0d9d1b015c8d80ed2c6e338fb1c5e0 [FaultTracer] Extracted changes: 0 0 0 0 0 0 0 0 0 0 0 0 0 0 0 0 0 0 0 0 0 0 0 0 0 0 0 0
01c19ebfa73e98ea8d5a56d8c599d1e864938734 [FaultTracer] Extracted changes: 0 0 0 0 0 0 0 0 0 0 0 0 0 0 0 0 0 0 0 0 0 0 0 0 0 0 0 0
f553c9246ace9c4e19ce56ce81ebf90079b210d5 [FaultTracer] Extracted changes: 0 0 4 4 0 0 0 0 0 0 0 0 0 0 0 0 0 0 0 0 0 0 0 0 0 0 0 0
a022b47e7808d165401115a1b40fa655acae63f4 [FaultTracer] Extracted changes: 0 0 1 0 0 0 1 0 0 0 0 0 0 0 0 0 0 0 1 0 0 0 0 0 0 0 0 0
8e4ffb044bc78cb8c317e14e9c25b0affc28df73 [FaultTracer] Extracted changes: 0 0 2 0 0 0 0 0 0 0 0 0 0 0 2 1 0 0 0 0 0 0 0 0 0 0 1 1
05de0f3b3b7ef1785c4e80c14c3009d73230c5d5 [FaultTracer] Extracted changes: 0 0 2 0 0 0 1 0 0 0 0 0 0 0 0 1 0 0 1 0 0 0 0 0 0 0 0 1
cb9e256f9e69ebdbccb802fcd890d5d181cdd1d4 [FaultTracer] Extracted changes: 0 0 4 0 0 0 2 0 0 0 0 1 1 0 2 0 0 0 2 0 0 0 0 1 1 0 1 0
eae9dfe50078f332847a65db0f3d8ed9b330cf3a [FaultTracer] Extracted changes: 0 0 0 0 0 0 0 0 0 0 0 0 0 0 0 0 0 0 0 0 0 0 0 0 0 0 0 0
700dd81e5bc3e30586b168dca6b8f54f0e81005c [FaultTracer] Extracted changes: 0 0 1 0 0 0 1 0 0 0 0 0 0 0 0 0 0 0 1 0 0 0 0 0 0 0 0 0
6320e4fe55ca5390894042b4aee769b640f30aa2 [FaultTracer] Extracted changes: 0 0 1 0 0 0 0 0 0 0 0 0 2 0 0 0 0 0 0 0 0 0 0 0 1 0 0 0
69824a90e8be025b922d67e84def48e40fc71412 [FaultTracer] Extracted changes: 0 0 1 0 0 0 1 0 0 0 0 0 0 0 0 0 0 0 1 0 0 0 0 0 0 0 0 0
a5138f48e8a08b57124dd88d7b41e9ae99f4e59d [FaultTracer] Extracted changes: 0 0 0 0 0 0 0 0 0 0 0 0 0 0 0 0 0 0 0 0 0 0 0 0 0 0 0 0
af7bab91aaeaa4ab479e2e41295fd69226e04f95 [FaultTracer] Extracted changes: 0 0 1 0 0 0 1 0 0 0 0 0 0 0 0 0 0 0 1 0 0 0 0 0 0 0 0 0
9e95e23f8b114a141246ed8ed4aab2a68c94d1be [FaultTracer] Extracted changes: 0 0 0 0 0 0 0 0 0 0 0 0 0 0 0 0 0 0 0 0 0 0 0 0 0 0 0 0
0110a996fdf2e25217ff5c3c54cbcc625e3f0f20 [FaultTracer] Extracted changes: 0 0 1 0 0 0 1 0 0 0 0 0 0 0 0 0 0 0 1 0 0 0 0 0 0 0 0 0
ecfd9ad84c9c4b7e1f09f7a8368f954f356e4e3b [FaultTracer] Extracted changes: 0 0 2 0 0 0 1 0 0 1 0 0 0 0 0 1 0 0 1 0 0 1 0 0 0 0 0 1
7431e024984957b5fc1e2092ca304cf786eca8ce [FaultTracer] Extracted changes: 0 0 0 0 0 0 0 0 0 0 0 0 0 0 0 0 0 0 0 0 0 0 0 0 0 0 0 0
46b355e9c90b3407b49e995b519b2276809ac01c [FaultTracer] Extracted changes: 0 0 0 0 0 0 0 0 0 0 0 0 0 0 0 0 0 0 0 0 0 0 0 0 0 0 0 0
cf1644105e0326279c6d8c1cf067a045ef5d6bae [FaultTracer] Extracted changes: 0 0 0 0 0 0 0 0 0 0 0 0 0 0 0 0 0 0 0 0 0 0 0 0 0 0 0 0
0a28a52b7b7a73b19e97e54afb2a905f2d22d123 [FaultTracer] Extracted changes: 0 0 0 0 0 0 0 0 0 0 0 0 0 0 0 0 0 0 0 0 0 0 0 0 0 0 0 0
a1d05cfbd8fc94c883e3e5658e30da232d40526b [FaultTracer] Extracted changes: 0 0 0 0 0 0 0 0 0 0 0 0 0 0 0 0 0 0 0 0 0 0 0 0 0 0 0 0
f5d6d6287b9cb8f052e8013ce082ab2f9a2150c9 [FaultTracer] Extracted changes: 0 0 0 0 0 0 0 0 0 0 0 0 0 0 0 0 0 0 0 0 0 0 0 0 0 0 0 0
0aae89cdada593b8990fc45e271e689f6e917789 [FaultTracer] Extracted changes: 0 0 0 0 0 0 0 0 0 0 0 0 0 0 0 0 0 0 0 0 0 0 0 0 0 0 0 0
3ce16ccad16c15f607227606a65148cc6c84e58a [FaultTracer] Extracted changes: 0 0 0 0 0 0 0 0 0 0 0 0 0 0 0 0 0 0 0 0 0 0 0 0 0 0 0 0
63ba82ab1b6035bd26dbc615cf722c40f969691f [FaultTracer] Extracted changes: 0 0 15 9 0 0 0 0 0 1 0 0 1 0 0 1 0 0 0 0 0 1 0 0 1 0 0 1
3721b60f4efb87035e18df7c789f40592a600623 [FaultTracer] Extracted changes: 0 0 0 0 0 0 0 0 0 0 0 0 0 0 0 0 0 0 0 0 0 0 0 0 0 0 0 0
eb0d74bc8ad21b9ab7f588a9fcf129001ca3d09f [FaultTracer] Extracted changes: 0 0 2 0 0 0 0 0 0 0 0 0 1 0 0 1 0 0 0 0 0 0 0 0 1 0 0 1
a6a20929e0f6b25370a57d13f57815a6d06131f4 [FaultTracer] Extracted changes: 0 0 0 0 0 0 0 0 0 0 0 0 0 0 0 0 0 0 0 0 0 0 0 0 0 0 0 0
f64278b76a9fd3146b505c889b9e7531573a11c6 [FaultTracer] Extracted changes: 0 0 0 0 0 0 0 0 0 0 0 0 0 0 0 0 0 0 0 0 0 0 0 0 0 0 0 0
ac007527d3f20f0aea8a44614fdfad9c588a1448 [FaultTracer] Extracted changes: 0 0 0 0 0 0 0 0 0 0 0 0 0 0 0 0 0 0 0 0 0 0 0 0 0 0 0 0
6906b1a19e8e1113a9d07901fc94cfaabbc610e3 [FaultTracer] Extracted changes: 0 0 0 0 0 0 0 0 0 0 0 0 0 0 0 0 0 0 0 0 0 0 0 0 0 0 0 0
5021d4cd1986cd41f425bb59be6041556d88790d [FaultTracer] Extracted changes: 0 0 0 0 0 0 0 0 0 0 0 0 0 0 0 0 0 0 0 0 0 0 0 0 0 0 0 0
248e5093c4a28c76c08aefc7ab8f04a1d052f69a [FaultTracer] Extracted changes: 0 0 0 0 0 0 0 0 0 0 0 0 0 0 0 0 0 0 0 0 0 0 0 0 0 0 0 0
e255862130157e622494c53f2b368ecc3ea00419 [FaultTracer] Extracted changes: 0 0 0 0 0 0 0 0 0 0 0 0 0 0 0 0 0 0 0 0 0 0 0 0 0 0 0 0
a3049c578620a5b478d7668d8585019464c0e31d [FaultTracer] Extracted changes: 0 0 1 0 0 0 1 0 0 0 0 0 0 0 0 0 0 0 1 0 0 0 0 0 0 0 0 0
a44ec12c0f7dc53c50486177710801c0e8526825 [FaultTracer] Extracted changes: 0 0 0 0 0 0 0 0 0 0 0 0 0 0 0 0 0 0 0 0 0 0 0 0 0 0 0 0
182b1274a6b50201239b11f9743ec851a087699b [FaultTracer] Extracted changes: 0 0 0 0 0 0 0 0 0 0 0 0 0 0 0 0 0 0 0 0 0 0 0 0 0 0 0 0
f3b69d8d4dd284515c97978a0b3521d40501f2f4 [FaultTracer] Extracted changes: 0 0 0 0 0 0 0 0 0 0 0 0 0 0 0 0 0 0 0 0 0 0 0 0 0 0 0 0
1eb2088b0aed6b848a06a4e472b9c02e711b583b [FaultTracer] Extracted changes: 0 0 0 0 0 0 0 0 0 0 0 0 0 0 0 0 0 0 0 0 0 0 0 0 0 0 0 0
98e5d9b053c2f3a58aa859440ea81e5e87abf9a0 [FaultTracer] Extracted changes: 0 0 0 0 0 0 0 0 0 0 0 0 0 0 0 0 0 0 0 0 0 0 0 0 0 0 0 0
0ae2de4352d2b2d775806f9fa8e3ab1340d83f7f [FaultTracer] Extracted changes: 0 0 0 0 0 0 0 0 0 0 0 0 0 0 0 0 0 0 0 0 0 0 0 0 0 0 0 0
e6cf3910331d8f7e2b862597eec5d299a3fd5bf3 [FaultTracer] Extracted changes: 0 0 0 0 0 0 0 0 0 0 0 0 0 0 0 0 0 0 0 0 0 0 0 0 0 0 0 0
3732ecd015fcc1d094ceffa2c043e7f9a533d4d2 [FaultTracer] Extracted changes: 0 0 2 0 0 0 0 0 0 0 0 0 0 0 2 1 0 0 0 0 0 0 0 0 0 0 1 1
c247c6e361bc1ea677526418cbbc2eb5ab2d54b9 [FaultTracer] Extracted changes: 0 0 1 0 0 0 0 0 0 0 0 0 0 0 0 2 0 0 0 0 0 0 0 0 0 0 0 1
684bd348e0496cda429e3f3b32dcd70cab85d5ae [FaultTracer] Extracted changes: 0 0 0 0 0 0 0 0 0 0 0 0 0 0 0 0 0 0 0 0 0 0 0 0 0 0 0 0
466a16575d4db6eb942fa2fb53bdae3936cfd066 [FaultTracer] Extracted changes: 0 6 0 0 0 0 0 0 0 0 0 0 0 0 0 0 0 0 0 0 0 0 0 0 0 0 0 0
27f1c3badc173b2e739121dce36b3a6634dd3a65 [FaultTracer] Extracted changes: 0 0 2 0 0 0 1 0 0 1 0 0 0 0 0 0 0 0 1 0 0 1 0 0 0 0 0 0
b01e9e0720f663f3e4fd0dd0a03e013957998f84 [FaultTracer] Extracted changes: 0 0 1 0 0 0 1 0 0 0 0 0 0 0 0 0 0 0 1 0 0 0 0 0 0 0 0 0
2d611069d28aa79786b7503346ba5a7c4fd3df54 [FaultTracer] Extracted changes: 0 0 1 0 0 0 0 0 0 1 0 0 0 0 0 0 0 0 0 0 0 1 0 0 0 0 0 0
8bbbe31ee3f78967ccfd67d2eafe5d5ff58ca8e8 [FaultTracer] Extracted changes: 0 0 2 0 0 0 1 0 0 1 0 0 0 0 0 0 0 0 1 0 0 1 0 0 0 0 0 0
