[INFO] Scanning for projects...
[INFO]                                                                         
[INFO] ------------------------------------------------------------------------
[INFO] Building Closure Compiler Unshaded 1.0-SNAPSHOT
[INFO] ------------------------------------------------------------------------
[INFO] 
[INFO] --- maven-enforcer-plugin:1.2:enforce (enforce-maven) @ closure-compiler-unshaded ---
[INFO] 
[INFO] --- build-helper-maven-plugin:1.12:add-source (add-source) @ closure-compiler-unshaded ---
[INFO] Source directory: /home/lingming/hybrid-rts/subjects/closure-compiler/31b24ee606ca75516b91cb38a8b079330db152c3/gen added.
[INFO] 
[INFO] --- maven-resources-plugin:3.0.1:resources (default-resources) @ closure-compiler-unshaded ---
[INFO] Using 'UTF-8' encoding to copy filtered resources.
[INFO] Copying 113 resources
[INFO] 
[INFO] --- maven-resources-plugin:3.0.1:copy-resources (rhino_ast-custom) @ closure-compiler-unshaded ---
[INFO] Using 'UTF-8' encoding to copy filtered resources.
[INFO] Copying 1 resource to /home/lingming/hybrid-rts/subjects/closure-compiler/31b24ee606ca75516b91cb38a8b079330db152c3/target/classes
[INFO] 
[INFO] --- maven-compiler-plugin:3.5.1:compile (default-compile) @ closure-compiler-unshaded ---
[INFO] Nothing to compile - all classes are up to date
[INFO] 
[INFO] --- maven-bundle-plugin:3.2.0:manifest (bundle-manifest) @ closure-compiler-unshaded ---
[INFO] 
[INFO] --- build-helper-maven-plugin:1.12:add-test-source (add-test-source) @ closure-compiler-unshaded ---
[INFO] Test Source directory: /home/lingming/hybrid-rts/subjects/closure-compiler/31b24ee606ca75516b91cb38a8b079330db152c3/src/com/google/javascript/rhino/testing added.
[INFO] Test Source directory: /home/lingming/hybrid-rts/subjects/closure-compiler/31b24ee606ca75516b91cb38a8b079330db152c3/src/com/google/javascript/jscomp/testing added.
[INFO] Test Source directory: /home/lingming/hybrid-rts/subjects/closure-compiler/31b24ee606ca75516b91cb38a8b079330db152c3/src/com/google/javascript/refactoring/testing added.
[INFO] 
[INFO] --- maven-resources-plugin:3.0.1:testResources (default-testResources) @ closure-compiler-unshaded ---
[INFO] Using 'UTF-8' encoding to copy filtered resources.
[INFO] skip non existing resourceDirectory /home/lingming/hybrid-rts/subjects/closure-compiler/31b24ee606ca75516b91cb38a8b079330db152c3/src/test/resources
[INFO] 
[INFO] --- maven-compiler-plugin:3.5.1:testCompile (default-testCompile) @ closure-compiler-unshaded ---
[INFO] Changes detected - recompiling the module!
[INFO] Compiling 346 source files to /home/lingming/hybrid-rts/subjects/closure-compiler/31b24ee606ca75516b91cb38a8b079330db152c3/target/test-classes
[WARNING] bootstrap class path not set in conjunction with -source 1.7
/home/lingming/hybrid-rts/subjects/closure-compiler/31b24ee606ca75516b91cb38a8b079330db152c3/test/com/google/javascript/jscomp/CompilerTestCase.java:[1669,38] [deprecation] isBlock() in Node has been deprecated
[WARNING] /home/lingming/hybrid-rts/subjects/closure-compiler/31b24ee606ca75516b91cb38a8b079330db152c3/test/com/google/javascript/jscomp/Es6CompilerTestCase.java:[76,36] [deprecation] ECMASCRIPT6 in LanguageMode has been deprecated
[WARNING] /home/lingming/hybrid-rts/subjects/closure-compiler/31b24ee606ca75516b91cb38a8b079330db152c3/test/com/google/javascript/jscomp/Es6CompilerTestCase.java:[116,35] [deprecation] ECMASCRIPT6 in LanguageMode has been deprecated
[WARNING] /home/lingming/hybrid-rts/subjects/closure-compiler/31b24ee606ca75516b91cb38a8b079330db152c3/test/com/google/javascript/jscomp/Es6CompilerTestCase.java:[128,35] [deprecation] ECMASCRIPT6 in LanguageMode has been deprecated
[WARNING] /home/lingming/hybrid-rts/subjects/closure-compiler/31b24ee606ca75516b91cb38a8b079330db152c3/test/com/google/javascript/jscomp/Es6CompilerTestCase.java:[140,36] [deprecation] ECMASCRIPT6 in LanguageMode has been deprecated
[WARNING] /home/lingming/hybrid-rts/subjects/closure-compiler/31b24ee606ca75516b91cb38a8b079330db152c3/test/com/google/javascript/jscomp/Es6CompilerTestCase.java:[154,36] [deprecation] ECMASCRIPT6 in LanguageMode has been deprecated
[WARNING] /home/lingming/hybrid-rts/subjects/closure-compiler/31b24ee606ca75516b91cb38a8b079330db152c3/test/com/google/javascript/jscomp/Es6CompilerTestCase.java:[167,36] [deprecation] ECMASCRIPT6 in LanguageMode has been deprecated
[WARNING] /home/lingming/hybrid-rts/subjects/closure-compiler/31b24ee606ca75516b91cb38a8b079330db152c3/test/com/google/javascript/jscomp/Es6CompilerTestCase.java:[181,36] [deprecation] ECMASCRIPT6 in LanguageMode has been deprecated
[WARNING] /home/lingming/hybrid-rts/subjects/closure-compiler/31b24ee606ca75516b91cb38a8b079330db152c3/test/com/google/javascript/jscomp/Es6CompilerTestCase.java:[196,36] [deprecation] ECMASCRIPT6 in LanguageMode has been deprecated
[WARNING] /home/lingming/hybrid-rts/subjects/closure-compiler/31b24ee606ca75516b91cb38a8b079330db152c3/test/com/google/javascript/jscomp/Es6CompilerTestCase.java:[209,36] [deprecation] ECMASCRIPT6 in LanguageMode has been deprecated
[WARNING] /home/lingming/hybrid-rts/subjects/closure-compiler/31b24ee606ca75516b91cb38a8b079330db152c3/test/com/google/javascript/jscomp/Es6CompilerTestCase.java:[224,36] [deprecation] ECMASCRIPT6 in LanguageMode has been deprecated
[WARNING] /home/lingming/hybrid-rts/subjects/closure-compiler/31b24ee606ca75516b91cb38a8b079330db152c3/test/com/google/javascript/jscomp/Es6CompilerTestCase.java:[253,37] [deprecation] ECMASCRIPT6 in LanguageMode has been deprecated
[WARNING] /home/lingming/hybrid-rts/subjects/closure-compiler/31b24ee606ca75516b91cb38a8b079330db152c3/test/com/google/javascript/jscomp/Es6CompilerTestCase.java:[266,37] [deprecation] ECMASCRIPT6 in LanguageMode has been deprecated
[WARNING] /home/lingming/hybrid-rts/subjects/closure-compiler/31b24ee606ca75516b91cb38a8b079330db152c3/test/com/google/javascript/jscomp/Es6CompilerTestCase.java:[278,37] [deprecation] ECMASCRIPT6 in LanguageMode has been deprecated
[WARNING] /home/lingming/hybrid-rts/subjects/closure-compiler/31b24ee606ca75516b91cb38a8b079330db152c3/test/com/google/javascript/jscomp/Es6CompilerTestCase.java:[296,36] [deprecation] ECMASCRIPT6 in LanguageMode has been deprecated
[WARNING] /home/lingming/hybrid-rts/subjects/closure-compiler/31b24ee606ca75516b91cb38a8b079330db152c3/test/com/google/javascript/jscomp/Es6CompilerTestCase.java:[324,41] [deprecation] ECMASCRIPT6 in LanguageMode has been deprecated
[WARNING] /home/lingming/hybrid-rts/subjects/closure-compiler/31b24ee606ca75516b91cb38a8b079330db152c3/test/com/google/javascript/jscomp/Es6CompilerTestCase.java:[336,36] [deprecation] ECMASCRIPT6 in LanguageMode has been deprecated
[WARNING] /home/lingming/hybrid-rts/subjects/closure-compiler/31b24ee606ca75516b91cb38a8b079330db152c3/test/com/google/javascript/jscomp/Es6CompilerTestCase.java:[346,36] [deprecation] ECMASCRIPT6 in LanguageMode has been deprecated
[WARNING] /home/lingming/hybrid-rts/subjects/closure-compiler/31b24ee606ca75516b91cb38a8b079330db152c3/test/com/google/javascript/jscomp/Es6CompilerTestCase.java:[376,51] [deprecation] ECMASCRIPT6 in LanguageMode has been deprecated
[WARNING] /home/lingming/hybrid-rts/subjects/closure-compiler/31b24ee606ca75516b91cb38a8b079330db152c3/test/com/google/javascript/jscomp/Es6CompilerTestCase.java:[381,65] [deprecation] ECMASCRIPT6 in LanguageMode has been deprecated
[WARNING] /home/lingming/hybrid-rts/subjects/closure-compiler/31b24ee606ca75516b91cb38a8b079330db152c3/test/com/google/javascript/jscomp/MinimizeExitPointsTest.java:[262,52] [deprecation] ECMASCRIPT6 in LanguageMode has been deprecated
[WARNING] /home/lingming/hybrid-rts/subjects/closure-compiler/31b24ee606ca75516b91cb38a8b079330db152c3/test/com/google/javascript/jscomp/CheckConformanceTest.java:[79,28] [deprecation] ECMASCRIPT6_STRICT in LanguageMode has been deprecated
[WARNING] /home/lingming/hybrid-rts/subjects/closure-compiler/31b24ee606ca75516b91cb38a8b079330db152c3/test/com/google/javascript/jscomp/CoalesceVariableNamesTest.java:[47,21] [deprecation] traverse(AbstractCompiler,Node,Callback) in NodeTraversal has been deprecated
[WARNING] /home/lingming/hybrid-rts/subjects/closure-compiler/31b24ee606ca75516b91cb38a8b079330db152c3/test/com/google/javascript/jscomp/StrictModeCheckTest.java:[49,36] [deprecation] ECMASCRIPT6_STRICT in LanguageMode has been deprecated
[WARNING] /home/lingming/hybrid-rts/subjects/closure-compiler/31b24ee606ca75516b91cb38a8b079330db152c3/test/com/google/javascript/jscomp/J2clPassTest.java:[353,28] [deprecation] ECMASCRIPT6 in LanguageMode has been deprecated
[WARNING] /home/lingming/hybrid-rts/subjects/closure-compiler/31b24ee606ca75516b91cb38a8b079330db152c3/test/com/google/javascript/jscomp/J2clPassTest.java:[364,28] [deprecation] ECMASCRIPT6 in LanguageMode has been deprecated
[WARNING] /home/lingming/hybrid-rts/subjects/closure-compiler/31b24ee606ca75516b91cb38a8b079330db152c3/test/com/google/javascript/jscomp/CallGraphTest.java:[629,41] [deprecation] isBlock() in Node has been deprecated
[WARNING] /home/lingming/hybrid-rts/subjects/closure-compiler/31b24ee606ca75516b91cb38a8b079330db152c3/test/com/google/javascript/jscomp/CallGraphTest.java:[646,40] [deprecation] isBlock() in Node has been deprecated
[WARNING] /home/lingming/hybrid-rts/subjects/closure-compiler/31b24ee606ca75516b91cb38a8b079330db152c3/test/com/google/javascript/jscomp/CallGraphTest.java:[670,38] [deprecation] isBlock() in Node has been deprecated
[WARNING] /home/lingming/hybrid-rts/subjects/closure-compiler/31b24ee606ca75516b91cb38a8b079330db152c3/test/com/google/javascript/jscomp/Es6RewriteGeneratorsTest.java:[29,36] [deprecation] ECMASCRIPT6 in LanguageMode has been deprecated
[WARNING] /home/lingming/hybrid-rts/subjects/closure-compiler/31b24ee606ca75516b91cb38a8b079330db152c3/test/com/google/javascript/jscomp/CodePrinterTest.java:[33,31] [deprecation] ECMASCRIPT7 in LanguageMode has been deprecated
[WARNING] /home/lingming/hybrid-rts/subjects/closure-compiler/31b24ee606ca75516b91cb38a8b079330db152c3/test/com/google/javascript/jscomp/CodePrinterTest.java:[49,31] [deprecation] ECMASCRIPT7 in LanguageMode has been deprecated
[WARNING] /home/lingming/hybrid-rts/subjects/closure-compiler/31b24ee606ca75516b91cb38a8b079330db152c3/test/com/google/javascript/jscomp/CodePrinterTest.java:[269,31] [deprecation] ECMASCRIPT6 in LanguageMode has been deprecated
[WARNING] /home/lingming/hybrid-rts/subjects/closure-compiler/31b24ee606ca75516b91cb38a8b079330db152c3/test/com/google/javascript/jscomp/CodePrinterTest.java:[277,31] [deprecation] ECMASCRIPT6 in LanguageMode has been deprecated
[WARNING] /home/lingming/hybrid-rts/subjects/closure-compiler/31b24ee606ca75516b91cb38a8b079330db152c3/test/com/google/javascript/jscomp/CodePrinterTest.java:[290,31] [deprecation] ECMASCRIPT6 in LanguageMode has been deprecated
[WARNING] /home/lingming/hybrid-rts/subjects/closure-compiler/31b24ee606ca75516b91cb38a8b079330db152c3/test/com/google/javascript/jscomp/CodePrinterTest.java:[303,31] [deprecation] ECMASCRIPT6 in LanguageMode has been deprecated
[WARNING] /home/lingming/hybrid-rts/subjects/closure-compiler/31b24ee606ca75516b91cb38a8b079330db152c3/test/com/google/javascript/jscomp/CodePrinterTest.java:[316,31] [deprecation] ECMASCRIPT6 in LanguageMode has been deprecated
[WARNING] /home/lingming/hybrid-rts/subjects/closure-compiler/31b24ee606ca75516b91cb38a8b079330db152c3/test/com/google/javascript/jscomp/CodePrinterTest.java:[329,31] [deprecation] ECMASCRIPT6 in LanguageMode has been deprecated
[WARNING] /home/lingming/hybrid-rts/subjects/closure-compiler/31b24ee606ca75516b91cb38a8b079330db152c3/test/com/google/javascript/jscomp/CodePrinterTest.java:[336,31] [deprecation] ECMASCRIPT6 in LanguageMode has been deprecated
[WARNING] /home/lingming/hybrid-rts/subjects/closure-compiler/31b24ee606ca75516b91cb38a8b079330db152c3/test/com/google/javascript/jscomp/CodePrinterTest.java:[345,31] [deprecation] ECMASCRIPT6 in LanguageMode has been deprecated
[WARNING] /home/lingming/hybrid-rts/subjects/closure-compiler/31b24ee606ca75516b91cb38a8b079330db152c3/test/com/google/javascript/jscomp/CodePrinterTest.java:[350,31] [deprecation] ECMASCRIPT6 in LanguageMode has been deprecated
[WARNING] /home/lingming/hybrid-rts/subjects/closure-compiler/31b24ee606ca75516b91cb38a8b079330db152c3/test/com/google/javascript/jscomp/CodePrinterTest.java:[357,31] [deprecation] ECMASCRIPT6 in LanguageMode has been deprecated
[WARNING] /home/lingming/hybrid-rts/subjects/closure-compiler/31b24ee606ca75516b91cb38a8b079330db152c3/test/com/google/javascript/jscomp/CodePrinterTest.java:[364,31] [deprecation] ECMASCRIPT6 in LanguageMode has been deprecated
[WARNING] /home/lingming/hybrid-rts/subjects/closure-compiler/31b24ee606ca75516b91cb38a8b079330db152c3/test/com/google/javascript/jscomp/CodePrinterTest.java:[371,31] [deprecation] ECMASCRIPT6 in LanguageMode has been deprecated
[WARNING] /home/lingming/hybrid-rts/subjects/closure-compiler/31b24ee606ca75516b91cb38a8b079330db152c3/test/com/google/javascript/jscomp/CodePrinterTest.java:[378,31] [deprecation] ECMASCRIPT6 in LanguageMode has been deprecated
[WARNING] /home/lingming/hybrid-rts/subjects/closure-compiler/31b24ee606ca75516b91cb38a8b079330db152c3/test/com/google/javascript/jscomp/CodePrinterTest.java:[384,31] [deprecation] ECMASCRIPT6 in LanguageMode has been deprecated
[WARNING] /home/lingming/hybrid-rts/subjects/closure-compiler/31b24ee606ca75516b91cb38a8b079330db152c3/test/com/google/javascript/jscomp/CodePrinterTest.java:[393,31] [deprecation] ECMASCRIPT6 in LanguageMode has been deprecated
[WARNING] /home/lingming/hybrid-rts/subjects/closure-compiler/31b24ee606ca75516b91cb38a8b079330db152c3/test/com/google/javascript/jscomp/CodePrinterTest.java:[398,31] [deprecation] ECMASCRIPT6 in LanguageMode has been deprecated
[WARNING] /home/lingming/hybrid-rts/subjects/closure-compiler/31b24ee606ca75516b91cb38a8b079330db152c3/test/com/google/javascript/jscomp/CodePrinterTest.java:[404,31] [deprecation] ECMASCRIPT6 in LanguageMode has been deprecated
[WARNING] /home/lingming/hybrid-rts/subjects/closure-compiler/31b24ee606ca75516b91cb38a8b079330db152c3/test/com/google/javascript/jscomp/CodePrinterTest.java:[416,31] [deprecation] ECMASCRIPT6 in LanguageMode has been deprecated
[WARNING] /home/lingming/hybrid-rts/subjects/closure-compiler/31b24ee606ca75516b91cb38a8b079330db152c3/test/com/google/javascript/jscomp/CodePrinterTest.java:[422,31] [deprecation] ECMASCRIPT6 in LanguageMode has been deprecated
[WARNING] /home/lingming/hybrid-rts/subjects/closure-compiler/31b24ee606ca75516b91cb38a8b079330db152c3/test/com/google/javascript/jscomp/CodePrinterTest.java:[441,31] [deprecation] ECMASCRIPT6 in LanguageMode has been deprecated
[WARNING] /home/lingming/hybrid-rts/subjects/closure-compiler/31b24ee606ca75516b91cb38a8b079330db152c3/test/com/google/javascript/jscomp/CodePrinterTest.java:[460,31] [deprecation] ECMASCRIPT6 in LanguageMode has been deprecated
[WARNING] /home/lingming/hybrid-rts/subjects/closure-compiler/31b24ee606ca75516b91cb38a8b079330db152c3/test/com/google/javascript/jscomp/CodePrinterTest.java:[577,31] [deprecation] ECMASCRIPT6 in LanguageMode has been deprecated
[WARNING] /home/lingming/hybrid-rts/subjects/closure-compiler/31b24ee606ca75516b91cb38a8b079330db152c3/test/com/google/javascript/jscomp/CodePrinterTest.java:[584,31] [deprecation] ECMASCRIPT6 in LanguageMode has been deprecated
[WARNING] /home/lingming/hybrid-rts/subjects/closure-compiler/31b24ee606ca75516b91cb38a8b079330db152c3/test/com/google/javascript/jscomp/CodePrinterTest.java:[592,31] [deprecation] ECMASCRIPT6 in LanguageMode has been deprecated
[WARNING] /home/lingming/hybrid-rts/subjects/closure-compiler/31b24ee606ca75516b91cb38a8b079330db152c3/test/com/google/javascript/jscomp/CodePrinterTest.java:[947,31] [deprecation] ECMASCRIPT6 in LanguageMode has been deprecated
[WARNING] /home/lingming/hybrid-rts/subjects/closure-compiler/31b24ee606ca75516b91cb38a8b079330db152c3/test/com/google/javascript/jscomp/CodePrinterTest.java:[952,31] [deprecation] ECMASCRIPT6 in LanguageMode has been deprecated
[WARNING] /home/lingming/hybrid-rts/subjects/closure-compiler/31b24ee606ca75516b91cb38a8b079330db152c3/test/com/google/javascript/jscomp/CodePrinterTest.java:[972,31] [deprecation] ECMASCRIPT6 in LanguageMode has been deprecated
[WARNING] /home/lingming/hybrid-rts/subjects/closure-compiler/31b24ee606ca75516b91cb38a8b079330db152c3/test/com/google/javascript/jscomp/CodePrinterTest.java:[1003,31] [deprecation] ECMASCRIPT6 in LanguageMode has been deprecated
[WARNING] /home/lingming/hybrid-rts/subjects/closure-compiler/31b24ee606ca75516b91cb38a8b079330db152c3/test/com/google/javascript/jscomp/CodePrinterTest.java:[1502,31] [deprecation] ECMASCRIPT6 in LanguageMode has been deprecated
[WARNING] /home/lingming/hybrid-rts/subjects/closure-compiler/31b24ee606ca75516b91cb38a8b079330db152c3/test/com/google/javascript/jscomp/CodePrinterTest.java:[1555,31] [deprecation] ECMASCRIPT6 in LanguageMode has been deprecated
[WARNING] /home/lingming/hybrid-rts/subjects/closure-compiler/31b24ee606ca75516b91cb38a8b079330db152c3/test/com/google/javascript/jscomp/CodePrinterTest.java:[1656,31] [deprecation] ECMASCRIPT6 in LanguageMode has been deprecated
[WARNING] /home/lingming/hybrid-rts/subjects/closure-compiler/31b24ee606ca75516b91cb38a8b079330db152c3/test/com/google/javascript/jscomp/CodePrinterTest.java:[1664,31] [deprecation] ECMASCRIPT6 in LanguageMode has been deprecated
[WARNING] /home/lingming/hybrid-rts/subjects/closure-compiler/31b24ee606ca75516b91cb38a8b079330db152c3/test/com/google/javascript/jscomp/CodePrinterTest.java:[1679,31] [deprecation] ECMASCRIPT6 in LanguageMode has been deprecated
[WARNING] /home/lingming/hybrid-rts/subjects/closure-compiler/31b24ee606ca75516b91cb38a8b079330db152c3/test/com/google/javascript/jscomp/CodePrinterTest.java:[1865,31] [deprecation] ECMASCRIPT6 in LanguageMode has been deprecated
[WARNING] /home/lingming/hybrid-rts/subjects/closure-compiler/31b24ee606ca75516b91cb38a8b079330db152c3/test/com/google/javascript/jscomp/CodePrinterTest.java:[2050,31] [deprecation] ECMASCRIPT6 in LanguageMode has been deprecated
[WARNING] /home/lingming/hybrid-rts/subjects/closure-compiler/31b24ee606ca75516b91cb38a8b079330db152c3/test/com/google/javascript/jscomp/CodePrinterTest.java:[2056,31] [deprecation] ECMASCRIPT6 in LanguageMode has been deprecated
[WARNING] /home/lingming/hybrid-rts/subjects/closure-compiler/31b24ee606ca75516b91cb38a8b079330db152c3/test/com/google/javascript/jscomp/CodePrinterTest.java:[2062,31] [deprecation] ECMASCRIPT6 in LanguageMode has been deprecated
[WARNING] /home/lingming/hybrid-rts/subjects/closure-compiler/31b24ee606ca75516b91cb38a8b079330db152c3/test/com/google/javascript/jscomp/CodePrinterTest.java:[2068,31] [deprecation] ECMASCRIPT6 in LanguageMode has been deprecated
[WARNING] /home/lingming/hybrid-rts/subjects/closure-compiler/31b24ee606ca75516b91cb38a8b079330db152c3/test/com/google/javascript/jscomp/CodePrinterTest.java:[2075,31] [deprecation] ECMASCRIPT6 in LanguageMode has been deprecated
[WARNING] /home/lingming/hybrid-rts/subjects/closure-compiler/31b24ee606ca75516b91cb38a8b079330db152c3/test/com/google/javascript/jscomp/CodePrinterTest.java:[2085,31] [deprecation] ECMASCRIPT6 in LanguageMode has been deprecated
[WARNING] /home/lingming/hybrid-rts/subjects/closure-compiler/31b24ee606ca75516b91cb38a8b079330db152c3/test/com/google/javascript/jscomp/CodePrinterTest.java:[2097,31] [deprecation] ECMASCRIPT6 in LanguageMode has been deprecated
[WARNING] /home/lingming/hybrid-rts/subjects/closure-compiler/31b24ee606ca75516b91cb38a8b079330db152c3/test/com/google/javascript/jscomp/CodePrinterTest.java:[2115,31] [deprecation] ECMASCRIPT6 in LanguageMode has been deprecated
[WARNING] /home/lingming/hybrid-rts/subjects/closure-compiler/31b24ee606ca75516b91cb38a8b079330db152c3/test/com/google/javascript/jscomp/CodePrinterTest.java:[2122,31] [deprecation] ECMASCRIPT6 in LanguageMode has been deprecated
[WARNING] /home/lingming/hybrid-rts/subjects/closure-compiler/31b24ee606ca75516b91cb38a8b079330db152c3/test/com/google/javascript/jscomp/CodePrinterTest.java:[2128,31] [deprecation] ECMASCRIPT6 in LanguageMode has been deprecated
[WARNING] /home/lingming/hybrid-rts/subjects/closure-compiler/31b24ee606ca75516b91cb38a8b079330db152c3/test/com/google/javascript/jscomp/CodePrinterTest.java:[2140,31] [deprecation] ECMASCRIPT6 in LanguageMode has been deprecated
[WARNING] /home/lingming/hybrid-rts/subjects/closure-compiler/31b24ee606ca75516b91cb38a8b079330db152c3/test/com/google/javascript/jscomp/CodePrinterTest.java:[2159,31] [deprecation] ECMASCRIPT6 in LanguageMode has been deprecated
[WARNING] /home/lingming/hybrid-rts/subjects/closure-compiler/31b24ee606ca75516b91cb38a8b079330db152c3/test/com/google/javascript/jscomp/CodePrinterTest.java:[2165,31] [deprecation] ECMASCRIPT6 in LanguageMode has been deprecated
[WARNING] /home/lingming/hybrid-rts/subjects/closure-compiler/31b24ee606ca75516b91cb38a8b079330db152c3/test/com/google/javascript/jscomp/CodePrinterTest.java:[2182,31] [deprecation] ECMASCRIPT8 in LanguageMode has been deprecated
[WARNING] /home/lingming/hybrid-rts/subjects/closure-compiler/31b24ee606ca75516b91cb38a8b079330db152c3/test/com/google/javascript/jscomp/CodePrinterTest.java:[2192,31] [deprecation] ECMASCRIPT8 in LanguageMode has been deprecated
[WARNING] /home/lingming/hybrid-rts/subjects/closure-compiler/31b24ee606ca75516b91cb38a8b079330db152c3/test/com/google/javascript/jscomp/CodePrinterTest.java:[2199,31] [deprecation] ECMASCRIPT8 in LanguageMode has been deprecated
[WARNING] /home/lingming/hybrid-rts/subjects/closure-compiler/31b24ee606ca75516b91cb38a8b079330db152c3/test/com/google/javascript/jscomp/CodePrinterTest.java:[2209,31] [deprecation] ECMASCRIPT8 in LanguageMode has been deprecated
[WARNING] /home/lingming/hybrid-rts/subjects/closure-compiler/31b24ee606ca75516b91cb38a8b079330db152c3/test/com/google/javascript/jscomp/CodePrinterTest.java:[2221,31] [deprecation] ECMASCRIPT6 in LanguageMode has been deprecated
[WARNING] /home/lingming/hybrid-rts/subjects/closure-compiler/31b24ee606ca75516b91cb38a8b079330db152c3/test/com/google/javascript/jscomp/CodePrinterTest.java:[2251,31] [deprecation] ECMASCRIPT6 in LanguageMode has been deprecated
[WARNING] /home/lingming/hybrid-rts/subjects/closure-compiler/31b24ee606ca75516b91cb38a8b079330db152c3/test/com/google/javascript/jscomp/CodePrinterTest.java:[2278,31] [deprecation] ECMASCRIPT6 in LanguageMode has been deprecated
[WARNING] /home/lingming/hybrid-rts/subjects/closure-compiler/31b24ee606ca75516b91cb38a8b079330db152c3/test/com/google/javascript/jscomp/CodePrinterTest.java:[2300,31] [deprecation] ECMASCRIPT6 in LanguageMode has been deprecated
[WARNING] /home/lingming/hybrid-rts/subjects/closure-compiler/31b24ee606ca75516b91cb38a8b079330db152c3/test/com/google/javascript/jscomp/CodePrinterTest.java:[2318,31] [deprecation] ECMASCRIPT6 in LanguageMode has been deprecated
[WARNING] /home/lingming/hybrid-rts/subjects/closure-compiler/31b24ee606ca75516b91cb38a8b079330db152c3/test/com/google/javascript/jscomp/CodePrinterTest.java:[2339,31] [deprecation] ECMASCRIPT6 in LanguageMode has been deprecated
[WARNING] /home/lingming/hybrid-rts/subjects/closure-compiler/31b24ee606ca75516b91cb38a8b079330db152c3/test/com/google/javascript/jscomp/CodePrinterTest.java:[2351,31] [deprecation] ECMASCRIPT6 in LanguageMode has been deprecated
[WARNING] /home/lingming/hybrid-rts/subjects/closure-compiler/31b24ee606ca75516b91cb38a8b079330db152c3/test/com/google/javascript/jscomp/CodePrinterTest.java:[2445,46] [deprecation] ECMASCRIPT6 in LanguageMode has been deprecated
[WARNING] /home/lingming/hybrid-rts/subjects/closure-compiler/31b24ee606ca75516b91cb38a8b079330db152c3/test/com/google/javascript/jscomp/CodePrinterTest.java:[2461,46] [deprecation] ECMASCRIPT6 in LanguageMode has been deprecated
[WARNING] /home/lingming/hybrid-rts/subjects/closure-compiler/31b24ee606ca75516b91cb38a8b079330db152c3/test/com/google/javascript/jscomp/CoverageInstrumentationPassTest.java:[53,39] [deprecation] ECMASCRIPT6 in LanguageMode has been deprecated
[WARNING] /home/lingming/hybrid-rts/subjects/closure-compiler/31b24ee606ca75516b91cb38a8b079330db152c3/test/com/google/javascript/jscomp/CoverageInstrumentationPassTest.java:[63,36] [deprecation] ECMASCRIPT6 in LanguageMode has been deprecated
[WARNING] /home/lingming/hybrid-rts/subjects/closure-compiler/31b24ee606ca75516b91cb38a8b079330db152c3/test/com/google/javascript/jscomp/CoverageInstrumentationPassTest.java:[70,20] [deprecation] ECMASCRIPT6 in LanguageMode has been deprecated
[WARNING] /home/lingming/hybrid-rts/subjects/closure-compiler/31b24ee606ca75516b91cb38a8b079330db152c3/test/com/google/javascript/jscomp/CoverageInstrumentationPassTest.java:[82,32] [deprecation] ECMASCRIPT6 in LanguageMode has been deprecated
[WARNING] /home/lingming/hybrid-rts/subjects/closure-compiler/31b24ee606ca75516b91cb38a8b079330db152c3/test/com/google/javascript/jscomp/CoverageInstrumentationPassTest.java:[94,36] [deprecation] ECMASCRIPT6 in LanguageMode has been deprecated
[WARNING] /home/lingming/hybrid-rts/subjects/closure-compiler/31b24ee606ca75516b91cb38a8b079330db152c3/test/com/google/javascript/jscomp/CoverageInstrumentationPassTest.java:[106,37] [deprecation] ECMASCRIPT6 in LanguageMode has been deprecated
[WARNING] /home/lingming/hybrid-rts/subjects/closure-compiler/31b24ee606ca75516b91cb38a8b079330db152c3/test/com/google/javascript/jscomp/CoverageInstrumentationPassTest.java:[118,41] [deprecation] ECMASCRIPT6 in LanguageMode has been deprecated
[INFO] 
[INFO] --- maven-surefire-plugin:2.19.1:test (default-test) @ closure-compiler-unshaded ---

-------------------------------------------------------
 T E S T S
-------------------------------------------------------
Running com.google.debugging.sourcemap.SourceMapConsumerV3Test
Tests run: 4, Failures: 0, Errors: 0, Skipped: 0, Time elapsed: 0.073 sec - in com.google.debugging.sourcemap.SourceMapConsumerV3Test
Running com.google.debugging.sourcemap.Base64Test
Tests run: 2, Failures: 0, Errors: 0, Skipped: 0, Time elapsed: 0 sec - in com.google.debugging.sourcemap.Base64Test
Running com.google.debugging.sourcemap.Base64VLQTest
Tests run: 4, Failures: 0, Errors: 0, Skipped: 0, Time elapsed: 0.009 sec - in com.google.debugging.sourcemap.Base64VLQTest
Running com.google.debugging.sourcemap.SourceMapGeneratorV3Test
Tests run: 23, Failures: 0, Errors: 0, Skipped: 0, Time elapsed: 0.381 sec - in com.google.debugging.sourcemap.SourceMapGeneratorV3Test
Running com.google.javascript.jscomp.RemoveUnusedVarsTest
Tests run: 84, Failures: 0, Errors: 0, Skipped: 0, Time elapsed: 0.543 sec - in com.google.javascript.jscomp.RemoveUnusedVarsTest
Running com.google.javascript.jscomp.ReplacedStringsDecoderTest
Tests run: 7, Failures: 0, Errors: 0, Skipped: 0, Time elapsed: 0.001 sec - in com.google.javascript.jscomp.ReplacedStringsDecoderTest
Running com.google.javascript.jscomp.ClosureRewriteModuleTest
Tests run: 99, Failures: 0, Errors: 0, Skipped: 0, Time elapsed: 0.325 sec - in com.google.javascript.jscomp.ClosureRewriteModuleTest
Running com.google.javascript.jscomp.IdMappingUtilTest
Tests run: 1, Failures: 0, Errors: 0, Skipped: 0, Time elapsed: 0 sec - in com.google.javascript.jscomp.IdMappingUtilTest
Running com.google.javascript.jscomp.FunctionTypeBuilderTest
Tests run: 9, Failures: 0, Errors: 0, Skipped: 0, Time elapsed: 0.113 sec - in com.google.javascript.jscomp.FunctionTypeBuilderTest
Running com.google.javascript.jscomp.Es6RewriteGeneratorsTest
Tests run: 26, Failures: 0, Errors: 0, Skipped: 0, Time elapsed: 0.196 sec - in com.google.javascript.jscomp.Es6RewriteGeneratorsTest
Running com.google.javascript.jscomp.ReplaceStringsTest
Tests run: 36, Failures: 0, Errors: 0, Skipped: 0, Time elapsed: 0.32 sec - in com.google.javascript.jscomp.ReplaceStringsTest
Running com.google.javascript.jscomp.PolymerPassStaticUtilsTest
Tests run: 2, Failures: 0, Errors: 0, Skipped: 0, Time elapsed: 0.002 sec - in com.google.javascript.jscomp.PolymerPassStaticUtilsTest
Running com.google.javascript.jscomp.ConstCheckTest
Tests run: 34, Failures: 0, Errors: 0, Skipped: 0, Time elapsed: 0.031 sec - in com.google.javascript.jscomp.ConstCheckTest
Running com.google.javascript.jscomp.Es6InlineTypesTest
Tests run: 8, Failures: 0, Errors: 0, Skipped: 0, Time elapsed: 0.012 sec - in com.google.javascript.jscomp.Es6InlineTypesTest
Running com.google.javascript.jscomp.JSCompilerSourceExcerptProviderTest
Tests run: 7, Failures: 0, Errors: 0, Skipped: 0, Time elapsed: 0.006 sec - in com.google.javascript.jscomp.JSCompilerSourceExcerptProviderTest
Running com.google.javascript.jscomp.RenameLabelsTest
Tests run: 3, Failures: 0, Errors: 0, Skipped: 0, Time elapsed: 0.012 sec - in com.google.javascript.jscomp.RenameLabelsTest
Running com.google.javascript.jscomp.parsing.ParserTest
Tests run: 283, Failures: 0, Errors: 0, Skipped: 0, Time elapsed: 4.56 sec - in com.google.javascript.jscomp.parsing.ParserTest
Running com.google.javascript.jscomp.parsing.TypeSyntaxTest
Tests run: 76, Failures: 0, Errors: 0, Skipped: 0, Time elapsed: 0.071 sec - in com.google.javascript.jscomp.parsing.TypeSyntaxTest
Running com.google.javascript.jscomp.parsing.JsDocInfoParserTest
Tests run: 687, Failures: 0, Errors: 0, Skipped: 0, Time elapsed: 0.438 sec - in com.google.javascript.jscomp.parsing.JsDocInfoParserTest
Running com.google.javascript.jscomp.parsing.JsDocTokenStreamTest
Tests run: 20, Failures: 0, Errors: 0, Skipped: 0, Time elapsed: 0 sec - in com.google.javascript.jscomp.parsing.JsDocTokenStreamTest
Running com.google.javascript.jscomp.parsing.AttachJsdocsTest
Tests run: 79, Failures: 0, Errors: 0, Skipped: 0, Time elapsed: 0.013 sec - in com.google.javascript.jscomp.parsing.AttachJsdocsTest
Running com.google.javascript.jscomp.parsing.parser.util.format.SimpleFormatTest
Tests run: 5, Failures: 0, Errors: 0, Skipped: 0, Time elapsed: 0 sec - in com.google.javascript.jscomp.parsing.parser.util.format.SimpleFormatTest
Running com.google.javascript.jscomp.GlobalVarReferenceMapTest
Tests run: 5, Failures: 0, Errors: 0, Skipped: 0, Time elapsed: 0 sec - in com.google.javascript.jscomp.GlobalVarReferenceMapTest
Running com.google.javascript.jscomp.RemoveSuperMethodsPassTest
Tests run: 16, Failures: 0, Errors: 0, Skipped: 0, Time elapsed: 0.163 sec - in com.google.javascript.jscomp.RemoveSuperMethodsPassTest
Running com.google.javascript.jscomp.SideEffectsAnalysisTest
Tests run: 7, Failures: 0, Errors: 0, Skipped: 0, Time elapsed: 0.046 sec - in com.google.javascript.jscomp.SideEffectsAnalysisTest
Running com.google.javascript.jscomp.TypeInferenceTest
Tests run: 143, Failures: 0, Errors: 0, Skipped: 0, Time elapsed: 0.128 sec - in com.google.javascript.jscomp.TypeInferenceTest
Running com.google.javascript.jscomp.AngularPassTest
Tests run: 30, Failures: 0, Errors: 0, Skipped: 0, Time elapsed: 0.047 sec - in com.google.javascript.jscomp.AngularPassTest
Running com.google.javascript.jscomp.MissingRequireTest
Tests run: 93, Failures: 0, Errors: 0, Skipped: 0, Time elapsed: 0.118 sec - in com.google.javascript.jscomp.MissingRequireTest
Running com.google.javascript.jscomp.LightweightMessageFormatterTest
Tests run: 13, Failures: 0, Errors: 0, Skipped: 0, Time elapsed: 0 sec - in com.google.javascript.jscomp.LightweightMessageFormatterTest
Running com.google.javascript.jscomp.SourceMapTest
Tests run: 4, Failures: 0, Errors: 0, Skipped: 0, Time elapsed: 0.005 sec - in com.google.javascript.jscomp.SourceMapTest
Running com.google.javascript.jscomp.CompilerTest
Tests run: 61, Failures: 0, Errors: 0, Skipped: 0, Time elapsed: 2.927 sec - in com.google.javascript.jscomp.CompilerTest
Running com.google.javascript.jscomp.VariableVisibilityAnalysisTest
Tests run: 4, Failures: 0, Errors: 0, Skipped: 0, Time elapsed: 0.004 sec - in com.google.javascript.jscomp.VariableVisibilityAnalysisTest
Running com.google.javascript.jscomp.NormalizeTest
Tests run: 33, Failures: 0, Errors: 0, Skipped: 0, Time elapsed: 0.09 sec - in com.google.javascript.jscomp.NormalizeTest
Running com.google.javascript.jscomp.BasicErrorManagerTest
Tests run: 9, Failures: 0, Errors: 0, Skipped: 0, Time elapsed: 0.001 sec - in com.google.javascript.jscomp.BasicErrorManagerTest
Running com.google.javascript.jscomp.PeepholeFoldConstantsTest
Tests run: 73, Failures: 0, Errors: 0, Skipped: 0, Time elapsed: 0.792 sec - in com.google.javascript.jscomp.PeepholeFoldConstantsTest
Running com.google.javascript.jscomp.CheckJsDocTest
Tests run: 48, Failures: 0, Errors: 0, Skipped: 0, Time elapsed: 0.074 sec - in com.google.javascript.jscomp.CheckJsDocTest
Running com.google.javascript.jscomp.ShadowVariablesTest
Tests run: 23, Failures: 0, Errors: 0, Skipped: 0, Time elapsed: 0.038 sec - in com.google.javascript.jscomp.ShadowVariablesTest
Running com.google.javascript.jscomp.CallGraphTest
Tests run: 38, Failures: 0, Errors: 0, Skipped: 0, Time elapsed: 0.029 sec - in com.google.javascript.jscomp.CallGraphTest
Running com.google.javascript.jscomp.DeclaredGlobalExternsOnWindowTest
Tests run: 17, Failures: 0, Errors: 0, Skipped: 0, Time elapsed: 0.011 sec - in com.google.javascript.jscomp.DeclaredGlobalExternsOnWindowTest
Running com.google.javascript.jscomp.PerformanceTrackerTest
Tests run: 2, Failures: 0, Errors: 0, Skipped: 0, Time elapsed: 0.01 sec - in com.google.javascript.jscomp.PerformanceTrackerTest
Running com.google.javascript.jscomp.CollapseAnonymousFunctionsTest
Tests run: 20, Failures: 0, Errors: 0, Skipped: 0, Time elapsed: 0.015 sec - in com.google.javascript.jscomp.CollapseAnonymousFunctionsTest
Running com.google.javascript.jscomp.RescopeGlobalSymbolsTest
Tests run: 11, Failures: 0, Errors: 0, Skipped: 0, Time elapsed: 0.035 sec - in com.google.javascript.jscomp.RescopeGlobalSymbolsTest
Running com.google.javascript.jscomp.FunctionNamesTest
Tests run: 1, Failures: 0, Errors: 0, Skipped: 0, Time elapsed: 0.008 sec - in com.google.javascript.jscomp.FunctionNamesTest
Running com.google.javascript.jscomp.RewriteJsonToModuleTest
Tests run: 3, Failures: 0, Errors: 0, Skipped: 0, Time elapsed: 0.004 sec - in com.google.javascript.jscomp.RewriteJsonToModuleTest
Running com.google.javascript.jscomp.Es6RewriteArrowFunctionTest
Tests run: 9, Failures: 0, Errors: 0, Skipped: 0, Time elapsed: 0.02 sec - in com.google.javascript.jscomp.Es6RewriteArrowFunctionTest
Running com.google.javascript.jscomp.InferConstsTest
Tests run: 13, Failures: 0, Errors: 0, Skipped: 0, Time elapsed: 0.012 sec - in com.google.javascript.jscomp.InferConstsTest
Running com.google.javascript.jscomp.Es6InlineTypesNotYetParsedTest
Tests run: 12, Failures: 0, Errors: 0, Skipped: 0, Time elapsed: 0.007 sec - in com.google.javascript.jscomp.Es6InlineTypesNotYetParsedTest
Running com.google.javascript.jscomp.SanityCheckTest
Tests run: 3, Failures: 0, Errors: 0, Skipped: 0, Time elapsed: 0.005 sec - in com.google.javascript.jscomp.SanityCheckTest
Running com.google.javascript.jscomp.LiveVariableAnalysisTest
Tests run: 21, Failures: 0, Errors: 0, Skipped: 0, Time elapsed: 0.047 sec - in com.google.javascript.jscomp.LiveVariableAnalysisTest
Running com.google.javascript.jscomp.SimpleReplaceScriptTest
Tests run: 51, Failures: 0, Errors: 0, Skipped: 0, Time elapsed: 0.3 sec - in com.google.javascript.jscomp.SimpleReplaceScriptTest
Running com.google.javascript.jscomp.ReplaceMessagesTest
Tests run: 36, Failures: 0, Errors: 0, Skipped: 0, Time elapsed: 0.019 sec - in com.google.javascript.jscomp.ReplaceMessagesTest
Running com.google.javascript.jscomp.TemplateAstMatcherTest
Tests run: 12, Failures: 0, Errors: 0, Skipped: 0, Time elapsed: 0.071 sec - in com.google.javascript.jscomp.TemplateAstMatcherTest
Running com.google.javascript.jscomp.PolymerPassFindExternsTest
Tests run: 2, Failures: 0, Errors: 0, Skipped: 0, Time elapsed: 0.007 sec - in com.google.javascript.jscomp.PolymerPassFindExternsTest
Running com.google.javascript.jscomp.ReplaceIdGeneratorsTest
Tests run: 35, Failures: 0, Errors: 0, Skipped: 0, Time elapsed: 0.06 sec - in com.google.javascript.jscomp.ReplaceIdGeneratorsTest
Running com.google.javascript.jscomp.J2clSourceFileCheckerTest
Tests run: 4, Failures: 0, Errors: 0, Skipped: 0, Time elapsed: 0.001 sec - in com.google.javascript.jscomp.J2clSourceFileCheckerTest
Running com.google.javascript.jscomp.StrictModeCheckTest
Tests run: 33, Failures: 0, Errors: 0, Skipped: 0, Time elapsed: 0.454 sec - in com.google.javascript.jscomp.StrictModeCheckTest
Running com.google.javascript.jscomp.XtbMessageBundleTest
Tests run: 1, Failures: 0, Errors: 0, Skipped: 0, Time elapsed: 0.024 sec - in com.google.javascript.jscomp.XtbMessageBundleTest
Running com.google.javascript.jscomp.CheckEventfulObjectDisposalTest
Tests run: 24, Failures: 0, Errors: 0, Skipped: 0, Time elapsed: 0.1 sec - in com.google.javascript.jscomp.CheckEventfulObjectDisposalTest
Running com.google.javascript.jscomp.FunctionToBlockMutatorTest
Tests run: 15, Failures: 0, Errors: 0, Skipped: 0, Time elapsed: 0.005 sec - in com.google.javascript.jscomp.FunctionToBlockMutatorTest
Running com.google.javascript.jscomp.NameAnonymousFunctionsTest
Tests run: 14, Failures: 0, Errors: 0, Skipped: 0, Time elapsed: 0.01 sec - in com.google.javascript.jscomp.NameAnonymousFunctionsTest
Running com.google.javascript.jscomp.JSModuleGraphTest
Tests run: 12, Failures: 0, Errors: 0, Skipped: 0, Time elapsed: 0.007 sec - in com.google.javascript.jscomp.JSModuleGraphTest
Running com.google.javascript.jscomp.GoogModuleReplaceScriptTest
Tests run: 8, Failures: 0, Errors: 0, Skipped: 0, Time elapsed: 0.059 sec - in com.google.javascript.jscomp.GoogModuleReplaceScriptTest
Running com.google.javascript.jscomp.CollapseVariableDeclarationsTest
Tests run: 7, Failures: 0, Errors: 0, Skipped: 0, Time elapsed: 0.01 sec - in com.google.javascript.jscomp.CollapseVariableDeclarationsTest
Running com.google.javascript.jscomp.InlineCostEstimatorTest
Tests run: 1, Failures: 0, Errors: 0, Skipped: 0, Time elapsed: 0.006 sec - in com.google.javascript.jscomp.InlineCostEstimatorTest
Running com.google.javascript.jscomp.CheckMissingGetCssNameTest
Tests run: 8, Failures: 0, Errors: 0, Skipped: 0, Time elapsed: 0.014 sec - in com.google.javascript.jscomp.CheckMissingGetCssNameTest
Running com.google.javascript.jscomp.RemoveUnusedClassPropertiesTest
Tests run: 42, Failures: 0, Errors: 0, Skipped: 0, Time elapsed: 0.056 sec - in com.google.javascript.jscomp.RemoveUnusedClassPropertiesTest
Running com.google.javascript.jscomp.J2clIntegrationTest
Tests run: 2, Failures: 0, Errors: 0, Skipped: 0, Time elapsed: 0.062 sec - in com.google.javascript.jscomp.J2clIntegrationTest
Running com.google.javascript.jscomp.DotFormatterTest
Tests run: 4, Failures: 0, Errors: 0, Skipped: 0, Time elapsed: 0.001 sec - in com.google.javascript.jscomp.DotFormatterTest
Running com.google.javascript.jscomp.InlineAndCollapsePropertiesTest
Tests run: 66, Failures: 0, Errors: 0, Skipped: 0, Time elapsed: 0.112 sec - in com.google.javascript.jscomp.InlineAndCollapsePropertiesTest
Running com.google.javascript.jscomp.CheckGlobalThisTest
Tests run: 55, Failures: 0, Errors: 0, Skipped: 0, Time elapsed: 0.028 sec - in com.google.javascript.jscomp.CheckGlobalThisTest
Running com.google.javascript.jscomp.CheckDebuggerStatementTest
Tests run: 5, Failures: 0, Errors: 0, Skipped: 0, Time elapsed: 0.003 sec - in com.google.javascript.jscomp.CheckDebuggerStatementTest
Running com.google.javascript.jscomp.PeepholeSimplifyRegExpTest
Tests run: 15, Failures: 0, Errors: 0, Skipped: 0, Time elapsed: 0.131 sec - in com.google.javascript.jscomp.PeepholeSimplifyRegExpTest
Running com.google.javascript.jscomp.ObjectPropertyStringPreprocessTest
Tests run: 8, Failures: 0, Errors: 0, Skipped: 0, Time elapsed: 0.005 sec - in com.google.javascript.jscomp.ObjectPropertyStringPreprocessTest
Running com.google.javascript.jscomp.ClosureReverseAbstractInterpreterTest
Tests run: 34, Failures: 0, Errors: 0, Skipped: 0, Time elapsed: 0.027 sec - in com.google.javascript.jscomp.ClosureReverseAbstractInterpreterTest
Running com.google.javascript.jscomp.WarningsGuardTest
Tests run: 24, Failures: 0, Errors: 0, Skipped: 0, Time elapsed: 0.006 sec - in com.google.javascript.jscomp.WarningsGuardTest
Running com.google.javascript.jscomp.CheckPathsBetweenNodesTest
Tests run: 10, Failures: 0, Errors: 0, Skipped: 0, Time elapsed: 0.002 sec - in com.google.javascript.jscomp.CheckPathsBetweenNodesTest
Running com.google.javascript.jscomp.ClosureCodeRemovalTest
Tests run: 11, Failures: 0, Errors: 0, Skipped: 0, Time elapsed: 0.007 sec - in com.google.javascript.jscomp.ClosureCodeRemovalTest
Running com.google.javascript.jscomp.VarCheckTest
Tests run: 76, Failures: 0, Errors: 0, Skipped: 0, Time elapsed: 0.064 sec - in com.google.javascript.jscomp.VarCheckTest
Running com.google.javascript.jscomp.J2clEqualitySameRewriterPassTest
Tests run: 4, Failures: 0, Errors: 0, Skipped: 0, Time elapsed: 0.008 sec - in com.google.javascript.jscomp.J2clEqualitySameRewriterPassTest
Running com.google.javascript.jscomp.GatherRawExportsTest
Tests run: 23, Failures: 0, Errors: 0, Skipped: 0, Time elapsed: 0.013 sec - in com.google.javascript.jscomp.GatherRawExportsTest
Running com.google.javascript.jscomp.OptimizeReturnsTest
Tests run: 22, Failures: 0, Errors: 0, Skipped: 0, Time elapsed: 0.014 sec - in com.google.javascript.jscomp.OptimizeReturnsTest
Running com.google.javascript.jscomp.GatherSideEffectSubexpressionsCallbackTest
Tests run: 7, Failures: 0, Errors: 0, Skipped: 0, Time elapsed: 0.001 sec - in com.google.javascript.jscomp.GatherSideEffectSubexpressionsCallbackTest
Running com.google.javascript.jscomp.CodePrinterTest
Tests run: 152, Failures: 0, Errors: 0, Skipped: 0, Time elapsed: 0.293 sec - in com.google.javascript.jscomp.CodePrinterTest
Running com.google.javascript.jscomp.TransformAMDToCJSModuleTest
Tests run: 7, Failures: 0, Errors: 0, Skipped: 0, Time elapsed: 0.01 sec - in com.google.javascript.jscomp.TransformAMDToCJSModuleTest
Running com.google.javascript.jscomp.NodeTraversalTest
Tests run: 8, Failures: 0, Errors: 0, Skipped: 0, Time elapsed: 0.004 sec - in com.google.javascript.jscomp.NodeTraversalTest
Running com.google.javascript.jscomp.ClosureCheckModuleTest
Tests run: 19, Failures: 0, Errors: 0, Skipped: 0, Time elapsed: 0.035 sec - in com.google.javascript.jscomp.ClosureCheckModuleTest
Running com.google.javascript.jscomp.ClosureRewriteClassTest
Tests run: 46, Failures: 0, Errors: 0, Skipped: 0, Time elapsed: 0.074 sec - in com.google.javascript.jscomp.ClosureRewriteClassTest
Running com.google.javascript.jscomp.CoverageInstrumentationPassTest
Tests run: 9, Failures: 0, Errors: 0, Skipped: 0, Time elapsed: 0.07 sec - in com.google.javascript.jscomp.CoverageInstrumentationPassTest
Running com.google.javascript.jscomp.CodePrinterEs6TypedTest
Tests run: 8, Failures: 0, Errors: 0, Skipped: 0, Time elapsed: 0.002 sec - in com.google.javascript.jscomp.CodePrinterEs6TypedTest
Running com.google.javascript.jscomp.AggressiveInlineAliasesTest
Tests run: 50, Failures: 0, Errors: 0, Skipped: 0, Time elapsed: 0.053 sec - in com.google.javascript.jscomp.AggressiveInlineAliasesTest
Running com.google.javascript.jscomp.deps.DependencyResolverTest
Tests run: 10, Failures: 0, Errors: 0, Skipped: 0, Time elapsed: 0.008 sec - in com.google.javascript.jscomp.deps.DependencyResolverTest
Running com.google.javascript.jscomp.deps.Es6SortedDependenciesTest
Tests run: 10, Failures: 0, Errors: 0, Skipped: 0, Time elapsed: 0.002 sec - in com.google.javascript.jscomp.deps.Es6SortedDependenciesTest
Running com.google.javascript.jscomp.deps.ClosureBundlerTest
Tests run: 9, Failures: 0, Errors: 0, Skipped: 0, Time elapsed: 0.294 sec - in com.google.javascript.jscomp.deps.ClosureBundlerTest
Running com.google.javascript.jscomp.deps.ModuleLoaderTest
Tests run: 7, Failures: 0, Errors: 0, Skipped: 0, Time elapsed: 0 sec - in com.google.javascript.jscomp.deps.ModuleLoaderTest
Running com.google.javascript.jscomp.deps.PathUtilTest
Tests run: 3, Failures: 0, Errors: 0, Skipped: 0, Time elapsed: 0.001 sec - in com.google.javascript.jscomp.deps.PathUtilTest
Running com.google.javascript.jscomp.deps.JsFunctionParserTest
Tests run: 5, Failures: 0, Errors: 0, Skipped: 0, Time elapsed: 0.002 sec - in com.google.javascript.jscomp.deps.JsFunctionParserTest
Running com.google.javascript.jscomp.deps.DependencyInfoTest
Tests run: 2, Failures: 0, Errors: 0, Skipped: 0, Time elapsed: 0.001 sec - in com.google.javascript.jscomp.deps.DependencyInfoTest
Running com.google.javascript.jscomp.deps.VirtualFileTest
Tests run: 2, Failures: 0, Errors: 0, Skipped: 0, Time elapsed: 0 sec - in com.google.javascript.jscomp.deps.VirtualFileTest
Running com.google.javascript.jscomp.deps.JsFileLineParserTest
Tests run: 10, Failures: 0, Errors: 0, Skipped: 0, Time elapsed: 0.001 sec - in com.google.javascript.jscomp.deps.JsFileLineParserTest
Running com.google.javascript.jscomp.deps.DepsFileParserTest
Tests run: 10, Failures: 0, Errors: 0, Skipped: 0, Time elapsed: 0.001 sec - in com.google.javascript.jscomp.deps.DepsFileParserTest
Running com.google.javascript.jscomp.deps.JsFileParserTest
Tests run: 17, Failures: 0, Errors: 0, Skipped: 0, Time elapsed: 0.002 sec - in com.google.javascript.jscomp.deps.JsFileParserTest
Running com.google.javascript.jscomp.GlobalNamespaceTest
Tests run: 2, Failures: 0, Errors: 0, Skipped: 0, Time elapsed: 0 sec - in com.google.javascript.jscomp.GlobalNamespaceTest
Running com.google.javascript.jscomp.CrossModuleMethodMotionTest
Tests run: 28, Failures: 0, Errors: 0, Skipped: 0, Time elapsed: 0.028 sec - in com.google.javascript.jscomp.CrossModuleMethodMotionTest
Running com.google.javascript.jscomp.OptimizeParametersTest
Tests run: 56, Failures: 0, Errors: 0, Skipped: 0, Time elapsed: 0.066 sec - in com.google.javascript.jscomp.OptimizeParametersTest
Running com.google.javascript.jscomp.CompilerOptionsTest
Tests run: 2, Failures: 0, Errors: 0, Skipped: 0, Time elapsed: 0 sec - in com.google.javascript.jscomp.CompilerOptionsTest
Running com.google.javascript.jscomp.ControlFlowAnalysisTest
Tests run: 42, Failures: 0, Errors: 0, Skipped: 0, Time elapsed: 0.013 sec - in com.google.javascript.jscomp.ControlFlowAnalysisTest
Running com.google.javascript.jscomp.ProcessTweaksTest
Tests run: 36, Failures: 0, Errors: 0, Skipped: 0, Time elapsed: 0.013 sec - in com.google.javascript.jscomp.ProcessTweaksTest
Running com.google.javascript.jscomp.ProcessCommonJSModulesTest
Tests run: 22, Failures: 0, Errors: 0, Skipped: 0, Time elapsed: 0.04 sec - in com.google.javascript.jscomp.ProcessCommonJSModulesTest
Running com.google.javascript.jscomp.RecoverableJsAstTest
Tests run: 2, Failures: 0, Errors: 0, Skipped: 0, Time elapsed: 0.022 sec - in com.google.javascript.jscomp.RecoverableJsAstTest
Running com.google.javascript.jscomp.InferJSDocInfoTest
Tests run: 6, Failures: 0, Errors: 0, Skipped: 0, Time elapsed: 0.009 sec - in com.google.javascript.jscomp.InferJSDocInfoTest
Running com.google.javascript.jscomp.LinkedFlowScopeTest
Tests run: 10, Failures: 0, Errors: 0, Skipped: 0, Time elapsed: 0.083 sec - in com.google.javascript.jscomp.LinkedFlowScopeTest
Running com.google.javascript.jscomp.InlineVariablesConstantsTest
Tests run: 10, Failures: 0, Errors: 0, Skipped: 0, Time elapsed: 0.016 sec - in com.google.javascript.jscomp.InlineVariablesConstantsTest
Running com.google.javascript.jscomp.DeadAssignmentsEliminationTest
Tests run: 49, Failures: 0, Errors: 0, Skipped: 0, Time elapsed: 0.078 sec - in com.google.javascript.jscomp.DeadAssignmentsEliminationTest
Running com.google.javascript.jscomp.NodeUtilTest
Tests run: 96, Failures: 0, Errors: 0, Skipped: 0, Time elapsed: 0.088 sec - in com.google.javascript.jscomp.NodeUtilTest
Running com.google.javascript.jscomp.OptimizeCallsTest
Tests run: 3, Failures: 0, Errors: 0, Skipped: 0, Time elapsed: 0.002 sec - in com.google.javascript.jscomp.OptimizeCallsTest
Running com.google.javascript.jscomp.DefaultNameGeneratorTest
Tests run: 6, Failures: 0, Errors: 0, Skipped: 0, Time elapsed: 0.088 sec - in com.google.javascript.jscomp.DefaultNameGeneratorTest
Running com.google.javascript.jscomp.TypeCheckTest
Tests run: 1513, Failures: 0, Errors: 0, Skipped: 0, Time elapsed: 4.442 sec - in com.google.javascript.jscomp.TypeCheckTest
Running com.google.javascript.jscomp.PeepholeOptimizationsPassTest
Tests run: 7, Failures: 0, Errors: 0, Skipped: 0, Time elapsed: 0 sec - in com.google.javascript.jscomp.PeepholeOptimizationsPassTest
Running com.google.javascript.jscomp.lint.CheckInterfacesTest
Tests run: 2, Failures: 0, Errors: 0, Skipped: 0, Time elapsed: 0 sec - in com.google.javascript.jscomp.lint.CheckInterfacesTest
Running com.google.javascript.jscomp.lint.CheckPrototypePropertiesTest
Tests run: 2, Failures: 0, Errors: 0, Skipped: 0, Time elapsed: 0 sec - in com.google.javascript.jscomp.lint.CheckPrototypePropertiesTest
Running com.google.javascript.jscomp.lint.CheckPrimitiveAsObjectTest
Tests run: 12, Failures: 0, Errors: 0, Skipped: 0, Time elapsed: 0.003 sec - in com.google.javascript.jscomp.lint.CheckPrimitiveAsObjectTest
Running com.google.javascript.jscomp.lint.CheckEmptyStatementsTest
Tests run: 2, Failures: 0, Errors: 0, Skipped: 0, Time elapsed: 0.003 sec - in com.google.javascript.jscomp.lint.CheckEmptyStatementsTest
Running com.google.javascript.jscomp.lint.CheckMissingSemicolonTest
Tests run: 6, Failures: 0, Errors: 0, Skipped: 0, Time elapsed: 0.014 sec - in com.google.javascript.jscomp.lint.CheckMissingSemicolonTest
Running com.google.javascript.jscomp.lint.CheckEnumsTest
Tests run: 1, Failures: 0, Errors: 0, Skipped: 0, Time elapsed: 0.007 sec - in com.google.javascript.jscomp.lint.CheckEnumsTest
Running com.google.javascript.jscomp.lint.CheckRequiresAndProvidesSortedTest
Tests run: 16, Failures: 0, Errors: 0, Skipped: 0, Time elapsed: 0.015 sec - in com.google.javascript.jscomp.lint.CheckRequiresAndProvidesSortedTest
Running com.google.javascript.jscomp.lint.CheckDuplicateCaseTest
Tests run: 2, Failures: 0, Errors: 0, Skipped: 0, Time elapsed: 0.005 sec - in com.google.javascript.jscomp.lint.CheckDuplicateCaseTest
Running com.google.javascript.jscomp.lint.CheckArrayWithGoogObjectTest
Tests run: 4, Failures: 0, Errors: 0, Skipped: 0, Time elapsed: 0.036 sec - in com.google.javascript.jscomp.lint.CheckArrayWithGoogObjectTest
Running com.google.javascript.jscomp.lint.CheckJSDocStyleTest
Tests run: 31, Failures: 0, Errors: 0, Skipped: 0, Time elapsed: 0.068 sec - in com.google.javascript.jscomp.lint.CheckJSDocStyleTest
Running com.google.javascript.jscomp.lint.CheckUselessBlocksTest
Tests run: 2, Failures: 0, Errors: 0, Skipped: 0, Time elapsed: 0.011 sec - in com.google.javascript.jscomp.lint.CheckUselessBlocksTest
Running com.google.javascript.jscomp.lint.CheckUnusedLabelsTest
Tests run: 2, Failures: 0, Errors: 0, Skipped: 0, Time elapsed: 0.005 sec - in com.google.javascript.jscomp.lint.CheckUnusedLabelsTest
Running com.google.javascript.jscomp.lint.CheckNullableReturnTest
Tests run: 13, Failures: 0, Errors: 0, Skipped: 0, Time elapsed: 0.398 sec - in com.google.javascript.jscomp.lint.CheckNullableReturnTest
Running com.google.javascript.jscomp.StripCodeTest
Tests run: 59, Failures: 0, Errors: 0, Skipped: 0, Time elapsed: 0.034 sec - in com.google.javascript.jscomp.StripCodeTest
Running com.google.javascript.jscomp.CheckSuspiciousCodeTest
Tests run: 9, Failures: 0, Errors: 0, Skipped: 0, Time elapsed: 0.045 sec - in com.google.javascript.jscomp.CheckSuspiciousCodeTest
Running com.google.javascript.jscomp.NewTypeInferenceWithTypeSyntaxTranspilationTest
Tests run: 11, Failures: 0, Errors: 0, Skipped: 0, Time elapsed: 0.313 sec - in com.google.javascript.jscomp.NewTypeInferenceWithTypeSyntaxTranspilationTest
Running com.google.javascript.jscomp.TypeValidatorTest
Tests run: 25, Failures: 0, Errors: 0, Skipped: 0, Time elapsed: 0.032 sec - in com.google.javascript.jscomp.TypeValidatorTest
Running com.google.javascript.jscomp.MustBeReachingVariableDefTest
Tests run: 20, Failures: 0, Errors: 0, Skipped: 0, Time elapsed: 0.014 sec - in com.google.javascript.jscomp.MustBeReachingVariableDefTest
Running com.google.javascript.jscomp.JsMessageTest
Tests run: 3, Failures: 0, Errors: 0, Skipped: 0, Time elapsed: 0 sec - in com.google.javascript.jscomp.JsMessageTest
Running com.google.javascript.jscomp.LazyParsedDependencyInfoTest
Tests run: 7, Failures: 0, Errors: 0, Skipped: 0, Time elapsed: 0.004 sec - in com.google.javascript.jscomp.LazyParsedDependencyInfoTest
Running com.google.javascript.jscomp.AliasStringsTest
Tests run: 14, Failures: 0, Errors: 0, Skipped: 0, Time elapsed: 0.024 sec - in com.google.javascript.jscomp.AliasStringsTest
Running com.google.javascript.jscomp.PeepholeRemoveDeadCodeTest
Tests run: 87, Failures: 0, Errors: 0, Skipped: 0, Time elapsed: 0.299 sec - in com.google.javascript.jscomp.PeepholeRemoveDeadCodeTest
Running com.google.javascript.jscomp.ClosureCodingConventionTest
Tests run: 27, Failures: 0, Errors: 0, Skipped: 0, Time elapsed: 0.008 sec - in com.google.javascript.jscomp.ClosureCodingConventionTest
Running com.google.javascript.jscomp.PeepholeIntegrationTest
Tests run: 36, Failures: 0, Errors: 0, Skipped: 0, Time elapsed: 0.058 sec - in com.google.javascript.jscomp.PeepholeIntegrationTest
Running com.google.javascript.jscomp.JsdocToEs6TypedConverterTest
Tests run: 23, Failures: 0, Errors: 0, Skipped: 0, Time elapsed: 0.007 sec - in com.google.javascript.jscomp.JsdocToEs6TypedConverterTest
Running com.google.javascript.jscomp.NewTypeInferenceWithTranspilationTest
Tests run: 16, Failures: 0, Errors: 0, Skipped: 0, Time elapsed: 0.241 sec - in com.google.javascript.jscomp.NewTypeInferenceWithTranspilationTest
Running com.google.javascript.jscomp.GwtPropertiesTest
Tests run: 5, Failures: 0, Errors: 0, Skipped: 0, Time elapsed: 0 sec - in com.google.javascript.jscomp.GwtPropertiesTest
Running com.google.javascript.jscomp.Es6RewriteBlockScopedDeclarationTest
Tests run: 26, Failures: 0, Errors: 0, Skipped: 0, Time elapsed: 0.065 sec - in com.google.javascript.jscomp.Es6RewriteBlockScopedDeclarationTest
Running com.google.javascript.jscomp.StatementFusionTest
Tests run: 20, Failures: 0, Errors: 0, Skipped: 0, Time elapsed: 0.02 sec - in com.google.javascript.jscomp.StatementFusionTest
Running com.google.javascript.jscomp.ProcessDefinesTest
Tests run: 39, Failures: 0, Errors: 0, Skipped: 0, Time elapsed: 0.236 sec - in com.google.javascript.jscomp.ProcessDefinesTest
Running com.google.javascript.jscomp.CollapsePropertiesTest
Tests run: 194, Failures: 0, Errors: 0, Skipped: 0, Time elapsed: 0.194 sec - in com.google.javascript.jscomp.CollapsePropertiesTest
Running com.google.javascript.jscomp.RenameVarsTest
Tests run: 46, Failures: 0, Errors: 0, Skipped: 0, Time elapsed: 0.066 sec - in com.google.javascript.jscomp.RenameVarsTest
Running com.google.javascript.jscomp.Es6ToEs3ConverterTest
Tests run: 86, Failures: 0, Errors: 0, Skipped: 0, Time elapsed: 0.305 sec - in com.google.javascript.jscomp.Es6ToEs3ConverterTest
Running com.google.javascript.jscomp.VariableReferenceCheckTest
Tests run: 40, Failures: 0, Errors: 0, Skipped: 0, Time elapsed: 0.039 sec - in com.google.javascript.jscomp.VariableReferenceCheckTest
Running com.google.javascript.jscomp.DefaultCodingConventionTest
Tests run: 20, Failures: 0, Errors: 0, Skipped: 0, Time elapsed: 0.004 sec - in com.google.javascript.jscomp.DefaultCodingConventionTest
Running com.google.javascript.jscomp.Es6ExtractClassesTest
Tests run: 16, Failures: 0, Errors: 0, Skipped: 0, Time elapsed: 0.01 sec - in com.google.javascript.jscomp.Es6ExtractClassesTest
Running com.google.javascript.jscomp.OptimizeArgumentsArrayTest
Tests run: 20, Failures: 0, Errors: 0, Skipped: 0, Time elapsed: 0.013 sec - in com.google.javascript.jscomp.OptimizeArgumentsArrayTest
Running com.google.javascript.jscomp.CheckAccessControlsPolymerTest
Tests run: 5, Failures: 0, Errors: 0, Skipped: 0, Time elapsed: 0.043 sec - in com.google.javascript.jscomp.CheckAccessControlsPolymerTest
Running com.google.javascript.jscomp.ExtraRequireTest
Tests run: 11, Failures: 0, Errors: 0, Skipped: 0, Time elapsed: 0.019 sec - in com.google.javascript.jscomp.ExtraRequireTest
Running com.google.javascript.jscomp.NameBasedDefinitionProviderTest
Tests run: 16, Failures: 0, Errors: 0, Skipped: 0, Time elapsed: 0.025 sec - in com.google.javascript.jscomp.NameBasedDefinitionProviderTest
Running com.google.javascript.jscomp.J2clConstantHoisterPassTest
Tests run: 4, Failures: 0, Errors: 0, Skipped: 0, Time elapsed: 0.004 sec - in com.google.javascript.jscomp.J2clConstantHoisterPassTest
Running com.google.javascript.jscomp.MinimizeExitPointsTest
Tests run: 10, Failures: 0, Errors: 0, Skipped: 0, Time elapsed: 0.033 sec - in com.google.javascript.jscomp.MinimizeExitPointsTest
Running com.google.javascript.jscomp.TypedScopeCreatorTest
Tests run: 139, Failures: 0, Errors: 0, Skipped: 0, Time elapsed: 0.108 sec - in com.google.javascript.jscomp.TypedScopeCreatorTest
Running com.google.javascript.jscomp.DisambiguatePrivatePropertiesTest
Tests run: 3, Failures: 0, Errors: 0, Skipped: 0, Time elapsed: 0.008 sec - in com.google.javascript.jscomp.DisambiguatePrivatePropertiesTest
Running com.google.javascript.jscomp.FunctionInjectorTest
Tests run: 135, Failures: 0, Errors: 0, Skipped: 0, Time elapsed: 0.049 sec - in com.google.javascript.jscomp.FunctionInjectorTest
Running com.google.javascript.jscomp.MissingProvideTest
Tests run: 18, Failures: 0, Errors: 0, Skipped: 0, Time elapsed: 0.007 sec - in com.google.javascript.jscomp.MissingProvideTest
Running com.google.javascript.jscomp.XidTest
Tests run: 4, Failures: 0, Errors: 0, Skipped: 0, Time elapsed: 0.019 sec - in com.google.javascript.jscomp.XidTest
Running com.google.javascript.jscomp.PolymerPassSuppressBehaviorsTest
Tests run: 4, Failures: 0, Errors: 0, Skipped: 0, Time elapsed: 0.012 sec - in com.google.javascript.jscomp.PolymerPassSuppressBehaviorsTest
Running com.google.javascript.jscomp.DartSuperAccessorsPassTest
Tests run: 10, Failures: 0, Errors: 0, Skipped: 0, Time elapsed: 0.097 sec - in com.google.javascript.jscomp.DartSuperAccessorsPassTest
Running com.google.javascript.jscomp.InlinePropertiesTest
Tests run: 26, Failures: 0, Errors: 0, Skipped: 0, Time elapsed: 0.044 sec - in com.google.javascript.jscomp.InlinePropertiesTest
Running com.google.javascript.jscomp.PureFunctionIdentifierTest
Tests run: 141, Failures: 0, Errors: 0, Skipped: 0, Time elapsed: 1.664 sec - in com.google.javascript.jscomp.PureFunctionIdentifierTest
Running com.google.javascript.jscomp.DevirtualizePrototypeMethodsTest
Tests run: 43, Failures: 0, Errors: 0, Skipped: 0, Time elapsed: 0.018 sec - in com.google.javascript.jscomp.DevirtualizePrototypeMethodsTest
Running com.google.javascript.jscomp.CheckMissingReturnTest
Tests run: 10, Failures: 0, Errors: 0, Skipped: 0, Time elapsed: 0.063 sec - in com.google.javascript.jscomp.CheckMissingReturnTest
Running com.google.javascript.jscomp.DisambiguatePropertiesTest
Tests run: 94, Failures: 0, Errors: 0, Skipped: 0, Time elapsed: 0.132 sec - in com.google.javascript.jscomp.DisambiguatePropertiesTest
Running com.google.javascript.jscomp.NewTypeInferenceTest
Tests run: 410, Failures: 0, Errors: 0, Skipped: 0, Time elapsed: 9.709 sec - in com.google.javascript.jscomp.NewTypeInferenceTest
Running com.google.javascript.jscomp.ScopedAliasesTest
Tests run: 98, Failures: 0, Errors: 0, Skipped: 0, Time elapsed: 0.105 sec - in com.google.javascript.jscomp.ScopedAliasesTest
Running com.google.javascript.jscomp.CommandLineRunnerTest
Tests run: 159, Failures: 0, Errors: 0, Skipped: 0, Time elapsed: 3.91 sec - in com.google.javascript.jscomp.CommandLineRunnerTest
Running com.google.javascript.jscomp.DefinitionsRemoverTest
Tests run: 5, Failures: 0, Errors: 0, Skipped: 0, Time elapsed: 0.005 sec - in com.google.javascript.jscomp.DefinitionsRemoverTest
Running com.google.javascript.jscomp.PolymerBehaviorExtractorTest
Tests run: 2, Failures: 0, Errors: 0, Skipped: 0, Time elapsed: 0.003 sec - in com.google.javascript.jscomp.PolymerBehaviorExtractorTest
Running com.google.javascript.jscomp.Es6RewriteDestructuringTest
Tests run: 24, Failures: 0, Errors: 0, Skipped: 0, Time elapsed: 0.039 sec - in com.google.javascript.jscomp.Es6RewriteDestructuringTest
Running com.google.javascript.jscomp.DiagnosticGroupTest
Tests run: 1, Failures: 0, Errors: 0, Skipped: 0, Time elapsed: 0 sec - in com.google.javascript.jscomp.DiagnosticGroupTest
Running com.google.javascript.jscomp.CheckConformanceTest
Tests run: 71, Failures: 0, Errors: 0, Skipped: 0, Time elapsed: 1.025 sec - in com.google.javascript.jscomp.CheckConformanceTest
Running com.google.javascript.jscomp.CheckUnusedPrivatePropertiesInPolymerElementTest
Tests run: 3, Failures: 0, Errors: 0, Skipped: 0, Time elapsed: 0.014 sec - in com.google.javascript.jscomp.CheckUnusedPrivatePropertiesInPolymerElementTest
Running com.google.javascript.jscomp.Es6TypedIntegrationTest
Tests run: 9, Failures: 0, Errors: 0, Skipped: 0, Time elapsed: 0.082 sec - in com.google.javascript.jscomp.Es6TypedIntegrationTest
Running com.google.javascript.jscomp.Es6TypedToEs6ConverterTest
Tests run: 37, Failures: 0, Errors: 0, Skipped: 0, Time elapsed: 0.046 sec - in com.google.javascript.jscomp.Es6TypedToEs6ConverterTest
Running com.google.javascript.jscomp.CommonJSIntegrationTest
Tests run: 14, Failures: 0, Errors: 0, Skipped: 0, Time elapsed: 0.072 sec - in com.google.javascript.jscomp.CommonJSIntegrationTest
Running com.google.javascript.jscomp.SubstituteEs6SyntaxTest
Tests run: 1, Failures: 0, Errors: 0, Skipped: 0, Time elapsed: 0.003 sec - in com.google.javascript.jscomp.SubstituteEs6SyntaxTest
Running com.google.javascript.jscomp.Es6SuperCheckTest
Tests run: 7, Failures: 0, Errors: 0, Skipped: 0, Time elapsed: 0.004 sec - in com.google.javascript.jscomp.Es6SuperCheckTest
Running com.google.javascript.jscomp.ProcessClosurePrimitivesTest
Tests run: 120, Failures: 0, Errors: 0, Skipped: 0, Time elapsed: 0.12 sec - in com.google.javascript.jscomp.ProcessClosurePrimitivesTest
Running com.google.javascript.jscomp.JSDocInfoPrinterTest
Tests run: 15, Failures: 0, Errors: 0, Skipped: 0, Time elapsed: 0.002 sec - in com.google.javascript.jscomp.JSDocInfoPrinterTest
Running com.google.javascript.jscomp.RewriteAsyncFunctionsTest
Tests run: 9, Failures: 0, Errors: 0, Skipped: 0, Time elapsed: 0.005 sec - in com.google.javascript.jscomp.RewriteAsyncFunctionsTest
Running com.google.javascript.jscomp.FunctionArgumentInjectorTest
Tests run: 42, Failures: 0, Errors: 0, Skipped: 0, Time elapsed: 0.012 sec - in com.google.javascript.jscomp.FunctionArgumentInjectorTest
Running com.google.javascript.jscomp.RenameLocalVarsTest
Tests run: 14, Failures: 0, Errors: 0, Skipped: 0, Time elapsed: 0.008 sec - in com.google.javascript.jscomp.RenameLocalVarsTest
Running com.google.javascript.jscomp.JSModuleTest
Tests run: 2, Failures: 0, Errors: 0, Skipped: 0, Time elapsed: 0.002 sec - in com.google.javascript.jscomp.JSModuleTest
Running com.google.javascript.jscomp.InlineFunctionsTest
Tests run: 240, Failures: 0, Errors: 0, Skipped: 0, Time elapsed: 0.255 sec - in com.google.javascript.jscomp.InlineFunctionsTest
Running com.google.javascript.jscomp.CombinedCompilerPassTest
Tests run: 3, Failures: 0, Errors: 0, Skipped: 0, Time elapsed: 0 sec - in com.google.javascript.jscomp.CombinedCompilerPassTest
Running com.google.javascript.jscomp.SymbolTableTest
Tests run: 55, Failures: 0, Errors: 0, Skipped: 0, Time elapsed: 0.304 sec - in com.google.javascript.jscomp.SymbolTableTest
Running com.google.javascript.jscomp.CheckUnusedPrivatePropertiesTest
Tests run: 24, Failures: 0, Errors: 0, Skipped: 0, Time elapsed: 0.208 sec - in com.google.javascript.jscomp.CheckUnusedPrivatePropertiesTest
Running com.google.javascript.jscomp.Es6ExternsCheckTest
Tests run: 2, Failures: 0, Errors: 0, Skipped: 0, Time elapsed: 0.001 sec - in com.google.javascript.jscomp.Es6ExternsCheckTest
Running com.google.javascript.jscomp.MakeDeclaredNamesUniqueTest
Tests run: 15, Failures: 0, Errors: 0, Skipped: 0, Time elapsed: 0.038 sec - in com.google.javascript.jscomp.MakeDeclaredNamesUniqueTest
Running com.google.javascript.jscomp.PhaseOptimizerTest
Tests run: 13, Failures: 0, Errors: 0, Skipped: 0, Time elapsed: 0.007 sec - in com.google.javascript.jscomp.PhaseOptimizerTest
Running com.google.javascript.jscomp.VariableMapTest
Tests run: 9, Failures: 0, Errors: 0, Skipped: 0, Time elapsed: 0.004 sec - in com.google.javascript.jscomp.VariableMapTest
Running com.google.javascript.jscomp.RewritePolyfillsTest
Tests run: 17, Failures: 0, Errors: 0, Skipped: 0, Time elapsed: 0.02 sec - in com.google.javascript.jscomp.RewritePolyfillsTest
Running com.google.javascript.jscomp.InlineSimpleMethodsTest
Tests run: 36, Failures: 0, Errors: 0, Skipped: 0, Time elapsed: 0.017 sec - in com.google.javascript.jscomp.InlineSimpleMethodsTest
Running com.google.javascript.jscomp.SyntacticScopeCreatorTest
Tests run: 4, Failures: 0, Errors: 0, Skipped: 0, Time elapsed: 0 sec - in com.google.javascript.jscomp.SyntacticScopeCreatorTest
Running com.google.javascript.jscomp.NodeIteratorsTest
Tests run: 17, Failures: 0, Errors: 0, Skipped: 0, Time elapsed: 0.004 sec - in com.google.javascript.jscomp.NodeIteratorsTest
Running com.google.javascript.jscomp.SourceFileTest
Tests run: 1, Failures: 0, Errors: 0, Skipped: 0, Time elapsed: 0.002 sec - in com.google.javascript.jscomp.SourceFileTest
Running com.google.javascript.jscomp.RecordFunctionInformationTest
Tests run: 2, Failures: 0, Errors: 0, Skipped: 0, Time elapsed: 0.01 sec - in com.google.javascript.jscomp.RecordFunctionInformationTest
Running com.google.javascript.jscomp.PeepholeMinimizeConditionsTest
Tests run: 60, Failures: 0, Errors: 0, Skipped: 0, Time elapsed: 0.112 sec - in com.google.javascript.jscomp.PeepholeMinimizeConditionsTest
Running com.google.javascript.jscomp.CoalesceVariableNamesTest
Tests run: 29, Failures: 0, Errors: 0, Skipped: 0, Time elapsed: 0.037 sec - in com.google.javascript.jscomp.CoalesceVariableNamesTest
Running com.google.javascript.jscomp.CheckAccessControlsTest
Tests run: 176, Failures: 0, Errors: 0, Skipped: 0, Time elapsed: 0.619 sec - in com.google.javascript.jscomp.CheckAccessControlsTest
Running com.google.javascript.jscomp.ExpandJqueryAliasesTest
Tests run: 9, Failures: 0, Errors: 0, Skipped: 0, Time elapsed: 0.02 sec - in com.google.javascript.jscomp.ExpandJqueryAliasesTest
Running com.google.javascript.jscomp.MarkNoSideEffectCallsTest
Tests run: 14, Failures: 0, Errors: 0, Skipped: 0, Time elapsed: 0.015 sec - in com.google.javascript.jscomp.MarkNoSideEffectCallsTest
Running com.google.javascript.jscomp.ClosurePrimitivesIntegrationTest
Tests run: 2, Failures: 0, Errors: 0, Skipped: 0, Time elapsed: 0.025 sec - in com.google.javascript.jscomp.ClosurePrimitivesIntegrationTest
Running com.google.javascript.jscomp.PolymerPassTest
Tests run: 48, Failures: 0, Errors: 0, Skipped: 0, Time elapsed: 0.173 sec - in com.google.javascript.jscomp.PolymerPassTest
Running com.google.javascript.jscomp.GoogleCodingConventionTest
Tests run: 17, Failures: 0, Errors: 0, Skipped: 0, Time elapsed: 0.002 sec - in com.google.javascript.jscomp.GoogleCodingConventionTest
Running com.google.javascript.jscomp.Es6VariableReferenceCheckTest
Tests run: 27, Failures: 0, Errors: 0, Skipped: 0, Time elapsed: 0.032 sec - in com.google.javascript.jscomp.Es6VariableReferenceCheckTest
Running com.google.javascript.jscomp.DenormalizeTest
Tests run: 4, Failures: 0, Errors: 0, Skipped: 0, Time elapsed: 0.006 sec - in com.google.javascript.jscomp.DenormalizeTest
Running com.google.javascript.jscomp.J2clCheckPassTest
Tests run: 4, Failures: 0, Errors: 0, Skipped: 0, Time elapsed: 0.028 sec - in com.google.javascript.jscomp.J2clCheckPassTest
Running com.google.javascript.jscomp.ReplaceMessagesForChromeTest
Tests run: 7, Failures: 0, Errors: 0, Skipped: 0, Time elapsed: 0.005 sec - in com.google.javascript.jscomp.ReplaceMessagesForChromeTest
Running com.google.javascript.jscomp.InlineObjectLiteralsTest
Tests run: 31, Failures: 0, Errors: 0, Skipped: 0, Time elapsed: 0.025 sec - in com.google.javascript.jscomp.InlineObjectLiteralsTest
Running com.google.javascript.jscomp.PrepareAstTest
Tests run: 2, Failures: 0, Errors: 0, Skipped: 0, Time elapsed: 0 sec - in com.google.javascript.jscomp.PrepareAstTest
Running com.google.javascript.jscomp.GatherExternPropertiesTest
Tests run: 2, Failures: 0, Errors: 0, Skipped: 0, Time elapsed: 0.01 sec - in com.google.javascript.jscomp.GatherExternPropertiesTest
Running com.google.javascript.jscomp.ExportTestFunctionsTest
Tests run: 9, Failures: 0, Errors: 0, Skipped: 0, Time elapsed: 0.019 sec - in com.google.javascript.jscomp.ExportTestFunctionsTest
Running com.google.javascript.jscomp.MultiPassTest

// parseInputs yields:
// ************************************
function f(){var x=1;return x;x=3};

// removeUnreachableCode yields:
// ************************************
function f(){var x=1;return x};

// inlineVariables yields:
// ************************************
function f(){return 1};

// parseInputs yields:
// ************************************
function f(){return 1};

// parseInputs yields:
// ************************************
var x=1,y=x,z=x+y;

// inlineVariables yields:
// ************************************
var z=1+1;

// peepholeOptimizations yields:
// ************************************
var z=2;

// parseInputs yields:
// ************************************
var z=2;

// parseInputs yields:
// ************************************
function f(){var obj={x:1};var z=function(){return obj.x}};

// collapseObjectLiterals yields:
// ************************************
function f(){var JSCompiler_object_inline_x_0=1;var z=function(){return JSCompiler_object_inline_x_0}};

// parseInputs yields:
// ************************************
function f(){var JSCompiler_object_inline_x_0=1;var z=function(){return JSCompiler_object_inline_x_0}};

// parseInputs yields:
// ************************************
function f(){var x=1;return x+5};

// inlineVariables yields:
// ************************************
function f(){return 1+5};

// peepholeOptimizations yields:
// ************************************
function f(){return 6};

// parseInputs yields:
// ************************************
function f(){return 6};

// parseInputs yields:
// ************************************
var x="";

// smartNamePass yields:
// ************************************


// parseInputs yields:
// ************************************


// parseInputs yields:
// ************************************
function Foo(){this.a=1}Foo.baz=function(){};

// removeUnusedClassProperties yields:
// ************************************
function Foo(){1}Foo.baz=function(){};

// parseInputs yields:
// ************************************
function Foo(){1}Foo.baz=function(){};

// parseInputs yields:
// ************************************
function f(){var x};

// removeUnusedVars yields:
// ************************************
function f(){};

// parseInputs yields:
// ************************************
function f(){};

// parseInputs yields:
// ************************************
function g(){function f(x,y){return 1}};

// removeUnusedVars yields:
// ************************************
function g(){};

// parseInputs yields:
// ************************************
function g(){};

// parseInputs yields:
// ************************************
function f(){var x=123};

// removeUnusedVars yields:
// ************************************
function f(){};

// parseInputs yields:
// ************************************
function f(){};

// parseInputs yields:
// ************************************
function f(){return 1}function g(){return f()}function h(){return g()}var n=h();

// inlineFunctions yields:
// ************************************
function f(){return 1}function g(){return 1}var n=g();

// inlineFunctions yields:
// ************************************
var n=1;

// parseInputs yields:
// ************************************
var n=1;
Tests run: 8, Failures: 0, Errors: 0, Skipped: 0, Time elapsed: 0.018 sec - in com.google.javascript.jscomp.MultiPassTest
Running com.google.javascript.jscomp.NameAnalyzerTest
Tests run: 355, Failures: 0, Errors: 0, Skipped: 0, Time elapsed: 0.204 sec - in com.google.javascript.jscomp.NameAnalyzerTest
Running com.google.javascript.jscomp.MinimizedConditionTest
Tests run: 6, Failures: 0, Errors: 0, Skipped: 0, Time elapsed: 0 sec - in com.google.javascript.jscomp.MinimizedConditionTest
Running com.google.javascript.jscomp.Es6RenameVariablesInParamListsTest
Tests run: 5, Failures: 0, Errors: 0, Skipped: 0, Time elapsed: 0.006 sec - in com.google.javascript.jscomp.Es6RenameVariablesInParamListsTest
Running com.google.javascript.jscomp.ProcessEs6ModulesTest
Tests run: 24, Failures: 0, Errors: 0, Skipped: 0, Time elapsed: 0.033 sec - in com.google.javascript.jscomp.ProcessEs6ModulesTest
Running com.google.javascript.jscomp.RemoveUnusedPolyfillsTest
Tests run: 8, Failures: 0, Errors: 0, Skipped: 0, Time elapsed: 0.149 sec - in com.google.javascript.jscomp.RemoveUnusedPolyfillsTest
Running com.google.javascript.jscomp.CheckGlobalNamesTest
Tests run: 50, Failures: 0, Errors: 0, Skipped: 0, Time elapsed: 0.058 sec - in com.google.javascript.jscomp.CheckGlobalNamesTest
Running com.google.javascript.jscomp.J2clClinitPrunerPassTest
Tests run: 20, Failures: 0, Errors: 0, Skipped: 0, Time elapsed: 0.014 sec - in com.google.javascript.jscomp.J2clClinitPrunerPassTest
Running com.google.javascript.jscomp.PolymerClassRewriterTest
Tests run: 3, Failures: 0, Errors: 0, Skipped: 0, Time elapsed: 0.002 sec - in com.google.javascript.jscomp.PolymerClassRewriterTest
Running com.google.javascript.jscomp.IntegrationTest
Tests run: 234, Failures: 0, Errors: 0, Skipped: 0, Time elapsed: 1.013 sec - in com.google.javascript.jscomp.IntegrationTest
Running com.google.javascript.jscomp.ClosureOptimizePrimitivesTest
Tests run: 14, Failures: 0, Errors: 0, Skipped: 0, Time elapsed: 0.004 sec - in com.google.javascript.jscomp.ClosureOptimizePrimitivesTest
Running com.google.javascript.jscomp.CreateSyntheticBlocksTest
Tests run: 14, Failures: 0, Errors: 0, Skipped: 0, Time elapsed: 0.008 sec - in com.google.javascript.jscomp.CreateSyntheticBlocksTest
Running com.google.javascript.jscomp.PeepholeReplaceKnownMethodsTest
Tests run: 17, Failures: 0, Errors: 0, Skipped: 0, Time elapsed: 0.057 sec - in com.google.javascript.jscomp.PeepholeReplaceKnownMethodsTest
Running com.google.javascript.jscomp.J2clPropertyInlinerPassTest
Tests run: 8, Failures: 0, Errors: 0, Skipped: 0, Time elapsed: 0.011 sec - in com.google.javascript.jscomp.J2clPropertyInlinerPassTest
Running com.google.javascript.jscomp.RenamePropertiesTest
Tests run: 41, Failures: 0, Errors: 0, Skipped: 0, Time elapsed: 0.03 sec - in com.google.javascript.jscomp.RenamePropertiesTest
Running com.google.javascript.jscomp.PeepholeCollectPropertyAssignmentsTest
Tests run: 38, Failures: 0, Errors: 0, Skipped: 0, Time elapsed: 0.013 sec - in com.google.javascript.jscomp.PeepholeCollectPropertyAssignmentsTest
Running com.google.javascript.jscomp.transpile.CachingTranspilerTest
Tests run: 5, Failures: 0, Errors: 0, Skipped: 0, Time elapsed: 0.039 sec - in com.google.javascript.jscomp.transpile.CachingTranspilerTest
Running com.google.javascript.jscomp.transpile.BaseTranspilerTest
Tests run: 6, Failures: 0, Errors: 0, Skipped: 0, Time elapsed: 0.13 sec - in com.google.javascript.jscomp.transpile.BaseTranspilerTest
Running com.google.javascript.jscomp.transpile.TranspileResultTest
Tests run: 3, Failures: 0, Errors: 0, Skipped: 0, Time elapsed: 0.003 sec - in com.google.javascript.jscomp.transpile.TranspileResultTest
Running com.google.javascript.jscomp.AmbiguatePropertiesTest
Tests run: 56, Failures: 0, Errors: 0, Skipped: 0, Time elapsed: 0.101 sec - in com.google.javascript.jscomp.AmbiguatePropertiesTest
Running com.google.javascript.jscomp.InlineVariablesTest
Tests run: 144, Failures: 0, Errors: 0, Skipped: 0, Time elapsed: 0.085 sec - in com.google.javascript.jscomp.InlineVariablesTest
Running com.google.javascript.jscomp.RandomNameGeneratorTest
Tests run: 7, Failures: 0, Errors: 0, Skipped: 0, Time elapsed: 0.053 sec - in com.google.javascript.jscomp.RandomNameGeneratorTest
Running com.google.javascript.jscomp.UnreachableCodeEliminationTest
Tests run: 28, Failures: 0, Errors: 0, Skipped: 0, Time elapsed: 0.037 sec - in com.google.javascript.jscomp.UnreachableCodeEliminationTest
Running com.google.javascript.jscomp.PolymerClassDefinitionTest
Tests run: 1, Failures: 0, Errors: 0, Skipped: 0, Time elapsed: 0.001 sec - in com.google.javascript.jscomp.PolymerClassDefinitionTest
Running com.google.javascript.jscomp.ObjectPropertyStringPostprocessTest
Tests run: 3, Failures: 0, Errors: 0, Skipped: 0, Time elapsed: 0.001 sec - in com.google.javascript.jscomp.ObjectPropertyStringPostprocessTest
Running com.google.javascript.jscomp.RemoveUnusedPrototypePropertiesTest
Tests run: 32, Failures: 0, Errors: 0, Skipped: 0, Time elapsed: 0.026 sec - in com.google.javascript.jscomp.RemoveUnusedPrototypePropertiesTest
Running com.google.javascript.jscomp.ReplaceCssNamesTest
Tests run: 19, Failures: 0, Errors: 0, Skipped: 0, Time elapsed: 0.161 sec - in com.google.javascript.jscomp.ReplaceCssNamesTest
Running com.google.javascript.jscomp.CheckUnreachableCodeTest
Tests run: 28, Failures: 0, Errors: 0, Skipped: 0, Time elapsed: 0.033 sec - in com.google.javascript.jscomp.CheckUnreachableCodeTest
Running com.google.javascript.jscomp.ChainCallsTest
Tests run: 7, Failures: 0, Errors: 0, Skipped: 0, Time elapsed: 0.004 sec - in com.google.javascript.jscomp.ChainCallsTest
Running com.google.javascript.jscomp.SourceInformationAnnotatorTest
Tests run: 1, Failures: 0, Errors: 0, Skipped: 0, Time elapsed: 0.001 sec - in com.google.javascript.jscomp.SourceInformationAnnotatorTest
Running com.google.javascript.jscomp.ConstParamCheckTest
Tests run: 16, Failures: 0, Errors: 0, Skipped: 0, Time elapsed: 0.005 sec - in com.google.javascript.jscomp.ConstParamCheckTest
Running com.google.javascript.jscomp.GenerateExportsTest
Tests run: 29, Failures: 0, Errors: 0, Skipped: 0, Time elapsed: 0.023 sec - in com.google.javascript.jscomp.GenerateExportsTest
Running com.google.javascript.jscomp.ConvertToDottedPropertiesTest
Tests run: 4, Failures: 0, Errors: 0, Skipped: 0, Time elapsed: 0.007 sec - in com.google.javascript.jscomp.ConvertToDottedPropertiesTest
Running com.google.javascript.jscomp.ExpressionDecomposerTest
Tests run: 44, Failures: 0, Errors: 0, Skipped: 0, Time elapsed: 0.018 sec - in com.google.javascript.jscomp.ExpressionDecomposerTest
Running com.google.javascript.jscomp.TypeCheckFunctionCheckTest
Tests run: 15, Failures: 0, Errors: 0, Skipped: 0, Time elapsed: 0.023 sec - in com.google.javascript.jscomp.TypeCheckFunctionCheckTest
Running com.google.javascript.jscomp.InstrumentFunctionsTest
Tests run: 12, Failures: 0, Errors: 0, Skipped: 0, Time elapsed: 0.018 sec - in com.google.javascript.jscomp.InstrumentFunctionsTest
Running com.google.javascript.jscomp.regex.CharRangesTest
Tests run: 7, Failures: 0, Errors: 0, Skipped: 0, Time elapsed: 0.02 sec - in com.google.javascript.jscomp.regex.CharRangesTest
Running com.google.javascript.jscomp.FlowSensitiveInlineVariablesTest
Tests run: 77, Failures: 0, Errors: 0, Skipped: 0, Time elapsed: 0.095 sec - in com.google.javascript.jscomp.FlowSensitiveInlineVariablesTest
Running com.google.javascript.jscomp.RuntimeTypeCheckTest
Tests run: 24, Failures: 0, Errors: 0, Skipped: 0, Time elapsed: 0.023 sec - in com.google.javascript.jscomp.RuntimeTypeCheckTest
Running com.google.javascript.jscomp.CheckTemplateParamsTest
Tests run: 3, Failures: 0, Errors: 0, Skipped: 0, Time elapsed: 0.006 sec - in com.google.javascript.jscomp.CheckTemplateParamsTest
Running com.google.javascript.jscomp.TypeMatchingStrategyTest
Tests run: 4, Failures: 0, Errors: 0, Skipped: 0, Time elapsed: 0.037 sec - in com.google.javascript.jscomp.TypeMatchingStrategyTest
Running com.google.javascript.jscomp.WhitespaceWrapGoogModulesTest
Tests run: 1, Failures: 0, Errors: 0, Skipped: 0, Time elapsed: 0 sec - in com.google.javascript.jscomp.WhitespaceWrapGoogModulesTest
Running com.google.javascript.jscomp.J2clPassTest
Tests run: 13, Failures: 0, Errors: 0, Skipped: 0, Time elapsed: 0.015 sec - in com.google.javascript.jscomp.J2clPassTest
Running com.google.javascript.jscomp.MemoizedScopeCreatorTest
Tests run: 2, Failures: 0, Errors: 0, Skipped: 0, Time elapsed: 0 sec - in com.google.javascript.jscomp.MemoizedScopeCreatorTest
Running com.google.javascript.jscomp.SingleFileCheckRequiresTest
Tests run: 12, Failures: 0, Errors: 0, Skipped: 0, Time elapsed: 0.008 sec - in com.google.javascript.jscomp.SingleFileCheckRequiresTest
Running com.google.javascript.jscomp.JsMessageVisitorTest
Tests run: 54, Failures: 0, Errors: 0, Skipped: 0, Time elapsed: 0.011 sec - in com.google.javascript.jscomp.JsMessageVisitorTest
Running com.google.javascript.jscomp.PeepholeSubstituteAlternateSyntaxTest
Tests run: 28, Failures: 0, Errors: 0, Skipped: 0, Time elapsed: 0.075 sec - in com.google.javascript.jscomp.PeepholeSubstituteAlternateSyntaxTest
Running com.google.javascript.jscomp.NameAnonymousFunctionsMappedTest
Tests run: 15, Failures: 0, Errors: 0, Skipped: 0, Time elapsed: 0.005 sec - in com.google.javascript.jscomp.NameAnonymousFunctionsMappedTest
Running com.google.javascript.jscomp.ConvertToTypedInterfaceTest
Tests run: 30, Failures: 0, Errors: 0, Skipped: 0, Time elapsed: 0.049 sec - in com.google.javascript.jscomp.ConvertToTypedInterfaceTest
Running com.google.javascript.jscomp.ExternExportsPassTest
Tests run: 42, Failures: 0, Errors: 0, Skipped: 0, Time elapsed: 0.05 sec - in com.google.javascript.jscomp.ExternExportsPassTest
Running com.google.javascript.jscomp.InlineAliasesTest
Tests run: 14, Failures: 0, Errors: 0, Skipped: 0, Time elapsed: 0.02 sec - in com.google.javascript.jscomp.InlineAliasesTest
Running com.google.javascript.jscomp.MaybeReachingVariableUseTest
Tests run: 11, Failures: 0, Errors: 0, Skipped: 0, Time elapsed: 0.006 sec - in com.google.javascript.jscomp.MaybeReachingVariableUseTest
Running com.google.javascript.jscomp.JsMessageExtractorTest
Tests run: 10, Failures: 0, Errors: 0, Skipped: 0, Time elapsed: 0.003 sec - in com.google.javascript.jscomp.JsMessageExtractorTest
Running com.google.javascript.jscomp.graph.StandardUnionFindTest
Tests run: 13, Failures: 0, Errors: 0, Skipped: 0, Time elapsed: 0.001 sec - in com.google.javascript.jscomp.graph.StandardUnionFindTest
Running com.google.javascript.jscomp.graph.GraphReachabilityTest
Tests run: 1, Failures: 0, Errors: 0, Skipped: 0, Time elapsed: 0 sec - in com.google.javascript.jscomp.graph.GraphReachabilityTest
Running com.google.javascript.jscomp.graph.GraphTest
Tests run: 13, Failures: 0, Errors: 0, Skipped: 0, Time elapsed: 0.002 sec - in com.google.javascript.jscomp.graph.GraphTest
Running com.google.javascript.jscomp.graph.GraphColoringTest
Tests run: 7, Failures: 0, Errors: 0, Skipped: 0, Time elapsed: 0.142 sec - in com.google.javascript.jscomp.graph.GraphColoringTest
Running com.google.javascript.jscomp.MoveFunctionDeclarationsTest
Tests run: 4, Failures: 0, Errors: 0, Skipped: 0, Time elapsed: 0.002 sec - in com.google.javascript.jscomp.MoveFunctionDeclarationsTest
Running com.google.javascript.jscomp.CrossModuleCodeMotionTest
Tests run: 50, Failures: 0, Errors: 0, Skipped: 0, Time elapsed: 0.023 sec - in com.google.javascript.jscomp.CrossModuleCodeMotionTest
Running com.google.javascript.jscomp.CheckSideEffectsTest
Tests run: 8, Failures: 0, Errors: 0, Skipped: 0, Time elapsed: 0.023 sec - in com.google.javascript.jscomp.CheckSideEffectsTest
Running com.google.javascript.jscomp.CheckProvidesTest
Tests run: 15, Failures: 0, Errors: 0, Skipped: 0, Time elapsed: 0.01 sec - in com.google.javascript.jscomp.CheckProvidesTest
Running com.google.javascript.jscomp.TypeTransformationTest
Test message: number
Test message: {
  b: boolean,
  n: number,
  s: string
}
Tests run: 142, Failures: 0, Errors: 0, Skipped: 0, Time elapsed: 0.092 sec - in com.google.javascript.jscomp.TypeTransformationTest
Running com.google.javascript.jscomp.ReorderConstantExpressionTest
Tests run: 3, Failures: 0, Errors: 0, Skipped: 0, Time elapsed: 0.031 sec - in com.google.javascript.jscomp.ReorderConstantExpressionTest
Running com.google.javascript.jscomp.FixedPointGraphTraversalTest
Tests run: 9, Failures: 0, Errors: 0, Skipped: 0, Time elapsed: 0.002 sec - in com.google.javascript.jscomp.FixedPointGraphTraversalTest
Running com.google.javascript.jscomp.ImplicitNullabilityCheckTest
Tests run: 8, Failures: 0, Errors: 0, Skipped: 0, Time elapsed: 0.064 sec - in com.google.javascript.jscomp.ImplicitNullabilityCheckTest
Running com.google.javascript.jscomp.CheckRegExpTest
Tests run: 2, Failures: 0, Errors: 0, Skipped: 0, Time elapsed: 0.009 sec - in com.google.javascript.jscomp.CheckRegExpTest
Running com.google.javascript.jscomp.DeadPropertyAssignmentEliminationTest
Tests run: 38, Failures: 0, Errors: 0, Skipped: 0, Time elapsed: 0.032 sec - in com.google.javascript.jscomp.DeadPropertyAssignmentEliminationTest
Running com.google.javascript.jscomp.Es6ToEs3ClassSideInheritanceTest
Tests run: 15, Failures: 0, Errors: 0, Skipped: 0, Time elapsed: 0.01 sec - in com.google.javascript.jscomp.Es6ToEs3ClassSideInheritanceTest
Running com.google.javascript.jscomp.RhinoErrorReporterTest
Tests run: 4, Failures: 0, Errors: 0, Skipped: 0, Time elapsed: 0.001 sec - in com.google.javascript.jscomp.RhinoErrorReporterTest
Running com.google.javascript.jscomp.RewriteBindThisTest
Tests run: 8, Failures: 0, Errors: 0, Skipped: 0, Time elapsed: 0.006 sec - in com.google.javascript.jscomp.RewriteBindThisTest
Running com.google.javascript.jscomp.FunctionRewriterTest
Tests run: 15, Failures: 0, Errors: 0, Skipped: 0, Time elapsed: 0.012 sec - in com.google.javascript.jscomp.FunctionRewriterTest
Running com.google.javascript.jscomp.DataFlowAnalysisTest
Tests run: 7, Failures: 0, Errors: 0, Skipped: 0, Time elapsed: 0.006 sec - in com.google.javascript.jscomp.DataFlowAnalysisTest
Running com.google.javascript.jscomp.Es6SyntacticScopeCreatorTest
Tests run: 33, Failures: 0, Errors: 0, Skipped: 0, Time elapsed: 0.005 sec - in com.google.javascript.jscomp.Es6SyntacticScopeCreatorTest
Running com.google.javascript.jscomp.ExploitAssignsTest
Tests run: 9, Failures: 0, Errors: 0, Skipped: 0, Time elapsed: 0.014 sec - in com.google.javascript.jscomp.ExploitAssignsTest
Running com.google.javascript.jscomp.ExtractPrototypeMemberDeclarationsTest
Tests run: 12, Failures: 0, Errors: 0, Skipped: 0, Time elapsed: 0.011 sec - in com.google.javascript.jscomp.ExtractPrototypeMemberDeclarationsTest
Running com.google.javascript.jscomp.CheckMissingSuperTest
Tests run: 3, Failures: 0, Errors: 0, Skipped: 0, Time elapsed: 0.002 sec - in com.google.javascript.jscomp.CheckMissingSuperTest
Running com.google.javascript.jscomp.AstValidatorTest
Tests run: 14, Failures: 0, Errors: 0, Skipped: 0, Time elapsed: 0.006 sec - in com.google.javascript.jscomp.AstValidatorTest
Running com.google.javascript.jscomp.SemanticReverseAbstractInterpreterTest
Tests run: 31, Failures: 0, Errors: 0, Skipped: 0, Time elapsed: 0.013 sec - in com.google.javascript.jscomp.SemanticReverseAbstractInterpreterTest
Running com.google.javascript.jscomp.CleanupPassesTest
Tests run: 2, Failures: 0, Errors: 0, Skipped: 0, Time elapsed: 0 sec - in com.google.javascript.jscomp.CleanupPassesTest
Running com.google.javascript.rhino.JSDocInfoTest
Tests run: 31, Failures: 0, Errors: 0, Skipped: 0, Time elapsed: 0.003 sec - in com.google.javascript.rhino.JSDocInfoTest
Running com.google.javascript.rhino.NodeTest
Tests run: 40, Failures: 0, Errors: 0, Skipped: 0, Time elapsed: 0.003 sec - in com.google.javascript.rhino.NodeTest
Running com.google.javascript.rhino.jstype.NamedTypeTest
Tests run: 2, Failures: 0, Errors: 0, Skipped: 0, Time elapsed: 0.001 sec - in com.google.javascript.rhino.jstype.NamedTypeTest
Running com.google.javascript.rhino.jstype.JSTypeRegistryTest
Tests run: 3, Failures: 0, Errors: 0, Skipped: 0, Time elapsed: 0.004 sec - in com.google.javascript.rhino.jstype.JSTypeRegistryTest
Running com.google.javascript.rhino.jstype.TernaryValueTest
Tests run: 7, Failures: 0, Errors: 0, Skipped: 0, Time elapsed: 0.001 sec - in com.google.javascript.rhino.jstype.TernaryValueTest
Running com.google.javascript.rhino.jstype.EnumElementTypeTest
Tests run: 2, Failures: 0, Errors: 0, Skipped: 0, Time elapsed: 0.001 sec - in com.google.javascript.rhino.jstype.EnumElementTypeTest
Running com.google.javascript.rhino.jstype.PrototypeObjectTypeTest
Tests run: 1, Failures: 0, Errors: 0, Skipped: 0, Time elapsed: 0 sec - in com.google.javascript.rhino.jstype.PrototypeObjectTypeTest
Running com.google.javascript.rhino.jstype.FunctionParamBuilderTest
Tests run: 1, Failures: 0, Errors: 0, Skipped: 0, Time elapsed: 0 sec - in com.google.javascript.rhino.jstype.FunctionParamBuilderTest
Running com.google.javascript.rhino.jstype.JSTypeTest
Tests run: 148, Failures: 0, Errors: 0, Skipped: 0, Time elapsed: 0.242 sec - in com.google.javascript.rhino.jstype.JSTypeTest
Running com.google.javascript.rhino.jstype.BooleanLiteralSetTest
Tests run: 4, Failures: 0, Errors: 0, Skipped: 0, Time elapsed: 0 sec - in com.google.javascript.rhino.jstype.BooleanLiteralSetTest
Running com.google.javascript.rhino.jstype.UnionTypeBuilderTest
Tests run: 9, Failures: 0, Errors: 0, Skipped: 0, Time elapsed: 0.003 sec - in com.google.javascript.rhino.jstype.UnionTypeBuilderTest
Running com.google.javascript.rhino.jstype.FunctionTypeTest
Tests run: 24, Failures: 0, Errors: 0, Skipped: 0, Time elapsed: 0.011 sec - in com.google.javascript.rhino.jstype.FunctionTypeTest
Running com.google.javascript.rhino.jstype.RecordTypeTest
Tests run: 7, Failures: 0, Errors: 0, Skipped: 0, Time elapsed: 0.003 sec - in com.google.javascript.rhino.jstype.RecordTypeTest
Running com.google.javascript.rhino.jstype.UnionTypeTest
Tests run: 20, Failures: 0, Errors: 0, Skipped: 0, Time elapsed: 0.009 sec - in com.google.javascript.rhino.jstype.UnionTypeTest
Running com.google.javascript.rhino.jstype.TemplatizedTypeTest
Tests run: 6, Failures: 0, Errors: 0, Skipped: 0, Time elapsed: 0.002 sec - in com.google.javascript.rhino.jstype.TemplatizedTypeTest
Running com.google.javascript.rhino.IRTest
Tests run: 16, Failures: 0, Errors: 0, Skipped: 0, Time elapsed: 0.001 sec - in com.google.javascript.rhino.IRTest
Running com.google.javascript.refactoring.ApplySuggestedFixesTest
Tests run: 12, Failures: 0, Errors: 0, Skipped: 0, Time elapsed: 0.014 sec - in com.google.javascript.refactoring.ApplySuggestedFixesTest
Running com.google.javascript.refactoring.MatchersTest
Tests run: 22, Failures: 0, Errors: 0, Skipped: 0, Time elapsed: 0.042 sec - in com.google.javascript.refactoring.MatchersTest
Running com.google.javascript.refactoring.ErrorToFixMapperTest
Tests run: 61, Failures: 0, Errors: 0, Skipped: 0, Time elapsed: 0.113 sec - in com.google.javascript.refactoring.ErrorToFixMapperTest
Running com.google.javascript.refactoring.SuggestedFixTest
Tests run: 50, Failures: 0, Errors: 0, Skipped: 0, Time elapsed: 0.021 sec - in com.google.javascript.refactoring.SuggestedFixTest
Running com.google.javascript.refactoring.RefasterJsScannerTest
Tests run: 28, Failures: 0, Errors: 0, Skipped: 0, Time elapsed: 0.067 sec - in com.google.javascript.refactoring.RefasterJsScannerTest
Running com.google.javascript.refactoring.examples.NavigationalXssSinksRefactoringTest
Tests run: 1, Failures: 0, Errors: 0, Skipped: 0, Time elapsed: 0.366 sec - in com.google.javascript.refactoring.examples.NavigationalXssSinksRefactoringTest
Running com.google.javascript.refactoring.examples.SetLocationHrefTest
Tests run: 1, Failures: 0, Errors: 0, Skipped: 0, Time elapsed: 0.291 sec - in com.google.javascript.refactoring.examples.SetLocationHrefTest

Results :

Tests run: 11309, Failures: 0, Errors: 0, Skipped: 0

[INFO] ------------------------------------------------------------------------
[INFO] BUILD SUCCESS
[INFO] ------------------------------------------------------------------------
[INFO] Total time: 01:04 min
[INFO] Finished at: 2017-01-05T13:45:36-06:00
[INFO] Final Memory: 28M/1577M
[INFO] ------------------------------------------------------------------------
