5c56735c5434c34bbc905692c9da29983aa79916 [FaultTracer] Extracted changes: 0 0 1 0 0 0 0 0 0 0 0 0 0 0 0 1 0 0 0 0 0 0 0 0 0 0 0 1
41461b41309bf9f027a46f178cb777a1a94b8c3f [FaultTracer] Extracted changes: 0 0 0 0 0 0 0 0 0 0 0 0 0 0 0 0 0 0 0 0 0 0 0 0 0 0 0 0
fa8cb3716d8f0bfdb28523e9255e88e2cbe30c8d [FaultTracer] Extracted changes: 1 0 18 0 0 0 0 0 0 0 0 0 0 47 2 4 0 0 0 0 0 0 0 0 0 15 1 3
4cdb47daf82f3f4d7f351bd993cff6d8ff7e5adb [FaultTracer] Extracted changes: 0 1 6 0 0 0 0 0 0 0 0 0 0 2 5 3 0 0 0 0 0 0 0 0 0 1 4 2
360e9dd808151a298ec2e8409974d77ca3c1b29a [FaultTracer] Extracted changes: 0 0 1 0 0 0 0 0 0 0 0 0 0 0 0 1 0 0 0 0 0 0 0 0 0 0 0 1
2b1927626924015d6e7f7d93cba054ec702a3e64 [FaultTracer] Extracted changes: 0 0 14 0 0 0 0 0 0 0 0 0 0 2 44 2 0 0 0 0 0 0 0 0 0 1 12 2
9d49170be5179b91f0ec2fbab4083d49c1e84f21 [FaultTracer] Extracted changes: 0 0 1 0 0 0 0 0 0 0 0 0 0 0 0 1 0 0 0 0 0 0 0 0 0 0 0 1
5e9b16f2816cf5e6d6c6fa81e924ccdf3ead197f [FaultTracer] Extracted changes: 0 0 14 0 0 0 0 0 0 0 0 0 0 44 2 2 0 0 0 0 0 0 0 0 0 12 1 2
271490417ca116a321ed96946c76cecb720bc2b7 [FaultTracer] Extracted changes: 0 0 14 0 0 0 0 0 0 0 0 0 0 2 44 2 0 0 0 0 0 0 0 0 0 1 12 2
f1dfb367383054d5baa25cd1ceeb52f6f4d5441f [FaultTracer] Extracted changes: 0 0 1 0 0 0 0 0 0 1 0 0 0 0 0 1 0 0 0 0 0 1 0 0 0 0 0 1
ec9af80329cb5f3e5d52144849fafd696970e5cc [FaultTracer] Extracted changes: 0 0 1 0 0 0 0 0 0 0 0 0 0 0 2 0 0 0 0 0 0 0 0 0 0 0 1 0
3fa57c7c441d7ea90a0b813e92aaf519a5eb011f [FaultTracer] Extracted changes: 0 0 0 0 0 0 0 0 0 0 0 0 0 0 0 0 0 0 0 0 0 0 0 0 0 0 0 0
97b072f8e70728c61c9945511ee64c274f2bdc20 [FaultTracer] Extracted changes: 0 0 0 0 0 0 0 0 0 0 0 0 0 0 0 0 0 0 0 0 0 0 0 0 0 0 0 0
11e387250eabc944b176a558e7cd8619f4ca9658 [FaultTracer] Extracted changes: 0 0 0 0 0 0 0 0 0 0 0 0 0 0 0 0 0 0 0 0 0 0 0 0 0 0 0 0
b9ba14eccf53217ba00a3d6e179b23161e6cca49 [FaultTracer] Extracted changes: 0 0 3 0 0 0 0 0 0 0 0 0 0 0 6 1 0 0 0 0 0 0 0 0 0 0 2 1
82f286237e45317a95005c2c81a4334cee66b0ad [FaultTracer] Extracted changes: 0 0 0 0 0 0 0 0 0 0 0 0 0 0 0 0 0 0 0 0 0 0 0 0 0 0 0 0
e4e76a5140faf9d30b71891dad00d59c835a4212 [FaultTracer] Extracted changes: 0 0 0 0 0 0 0 0 0 0 0 0 0 0 0 0 0 0 0 0 0 0 0 0 0 0 0 0
99b0cc80889370eba6fa98d42641bfdbeb23e904 [FaultTracer] Extracted changes: 0 0 1 0 0 0 0 0 0 0 0 0 0 0 0 1 0 0 0 0 0 0 0 0 0 0 0 1
b7cadbe359cd99a274eadad72844c640aa438a44 [FaultTracer] Extracted changes: 0 0 0 0 0 0 0 0 0 0 0 0 0 0 0 0 0 0 0 0 0 0 0 0 0 0 0 0
5e8e64b6a2b1fa0a15b49e8b8ebea20333aa65bf [FaultTracer] Extracted changes: 0 0 0 0 0 0 0 0 0 0 0 0 0 0 0 0 0 0 0 0 0 0 0 0 0 0 0 0
17c771c3933f598613f41e8dea35aa8bc97b7e57 [FaultTracer] Extracted changes: 0 0 1 0 0 0 0 0 0 0 0 0 0 0 2 0 0 0 0 0 0 0 0 0 0 0 1 0
98b3031d3dd43aa248b47b8f40dd650559465f23 [FaultTracer] Extracted changes: 0 0 0 0 0 0 0 0 0 0 0 0 0 0 0 0 0 0 0 0 0 0 0 0 0 0 0 0
0ae5a31b15d67c63430443bd1ca5ecf4914c0f6d [FaultTracer] Extracted changes: 0 0 0 0 0 0 0 0 0 0 0 0 0 0 0 0 0 0 0 0 0 0 0 0 0 0 0 0
c791f6ad297131f80e73ad6966cf1be749fb6992 [FaultTracer] Extracted changes: 0 0 2 0 0 0 0 0 0 0 0 0 0 0 4 0 0 0 0 0 0 0 0 0 0 0 2 0
a60efbde5373c5e05ec5041f9d6b979ebd68bee6 [FaultTracer] Extracted changes: 0 0 1 0 0 0 0 0 0 0 0 0 0 0 2 0 0 0 0 0 0 0 0 0 0 0 1 0
eccffc24a413c5c18ff6976b392242886f09f791 [FaultTracer] Extracted changes: 0 0 2 0 0 0 0 0 0 0 0 0 0 2 2 0 0 0 0 0 0 0 0 0 0 1 1 0
57ca27e144c1384dc881f40669906ced05c3e3a2 [FaultTracer] Extracted changes: 0 0 1 0 0 0 0 0 0 0 0 0 0 0 2 0 0 0 0 0 0 0 0 0 0 0 1 0
07ddc8c0bf9cfa6f876b3178e46763e6618f71b1 [FaultTracer] Extracted changes: 0 0 0 0 0 0 0 0 0 0 0 0 0 0 0 0 0 0 0 0 0 0 0 0 0 0 0 0
d103fe8031de8c8bcdc2f877c065bf0d2d09967d [FaultTracer] Extracted changes: 0 0 0 0 0 0 0 0 0 0 0 0 0 0 0 0 0 0 0 0 0 0 0 0 0 0 0 0
90c1e07b7be8d2232a7e98dffe2e71fbe3952657 [FaultTracer] Extracted changes: 0 0 4 0 0 0 0 0 0 0 0 0 0 8 2 1 0 0 0 0 0 0 0 0 0 3 1 1
d6fafc15f78a58289458fae46e54af6b1780e508 [FaultTracer] Extracted changes: 0 0 4 0 0 0 0 0 0 0 0 0 0 2 8 1 0 0 0 0 0 0 0 0 0 1 3 1
6a0775171aafcb45e14bb477ab00e869682543ae [FaultTracer] Extracted changes: 0 0 4 0 0 0 0 0 0 0 0 0 0 8 2 1 0 0 0 0 0 0 0 0 0 3 1 1
3a0cbd6fad00acc0c105b4c595240408b3f2d9df [FaultTracer] Extracted changes: 0 0 4 0 0 0 0 0 0 0 0 0 0 2 8 1 0 0 0 0 0 0 0 0 0 1 3 1
b3b3f9eca62a00bb51db7d9a4769fd2af6b56ca1 [FaultTracer] Extracted changes: 0 0 0 0 0 0 0 0 0 0 0 0 0 0 0 0 0 0 0 0 0 0 0 0 0 0 0 0
4e128763a6f24b7ca763c93e4c93e45162eadd68 [FaultTracer] Extracted changes: 0 0 1 0 0 0 0 0 0 0 0 0 0 0 2 1 0 0 0 0 0 0 0 0 0 0 1 1
1f5b56c6234dd52ec6c3688645ea90c7700f1224 [FaultTracer] Extracted changes: 0 0 2 0 0 0 1 0 0 1 0 0 0 0 0 0 0 0 1 0 0 1 0 0 0 0 0 0
9a05b113740b5a13d7779b709dbae1e8914d6352 [FaultTracer] Extracted changes: 0 0 1 0 0 0 0 0 0 0 0 0 0 0 1 2 0 0 0 0 0 0 0 0 0 0 1 1
adda4c4de9e66596d1c57f929d5150934202f4ab [FaultTracer] Extracted changes: 0 0 1 1 0 0 0 0 0 0 0 0 0 0 0 0 0 0 0 0 0 0 0 0 0 0 0 0
f748fc1b33ea101105cefde5507256a51520cd4c [FaultTracer] Extracted changes: 0 0 2 0 0 0 0 1 1 0 0 0 0 1 1 2 0 0 0 1 1 0 0 0 0 1 1 1
cb20109c148aaa06c8b2880434daa6de07fcd561 [FaultTracer] Extracted changes: 0 0 1 0 0 0 0 0 0 0 0 0 0 1 1 1 0 0 0 0 0 0 0 0 0 1 1 1
a6aeb2fe695a6c7a2cc82a8888fcf8d3aab587ac [FaultTracer] Extracted changes: 0 0 1 0 0 0 0 0 0 0 0 0 0 0 0 1 0 0 0 0 0 0 0 0 0 0 0 1
7931756fe6675f64c28c7d1bd087362bfdfa2515 [FaultTracer] Extracted changes: 0 0 1 0 0 0 0 0 0 1 0 0 0 1 1 1 0 0 0 0 0 1 0 0 0 1 1 1
b33e7f3b48a203a039ff8d9b91099941990107f4 [FaultTracer] Extracted changes: 0 0 2 0 0 0 0 0 0 0 0 0 0 0 0 7 0 0 0 0 0 0 0 0 0 0 0 2
c48226b9b6ec87e9dbd2759b9040c0897674ed49 [FaultTracer] Extracted changes: 0 0 1 0 0 0 0 0 0 0 0 0 1 0 0 0 0 0 0 0 0 0 0 0 1 0 0 0
3f972f429de994eed345816c93273490888b415f [FaultTracer] Extracted changes: 0 0 2 0 0 0 1 0 0 1 0 0 0 1 1 7 0 0 1 0 0 1 0 0 0 1 1 2
f5a87e43d6a28441924b7c67638cc33a26e897e4 [FaultTracer] Extracted changes: 0 0 1 0 0 0 0 0 0 0 0 0 0 0 0 1 0 0 0 0 0 0 0 0 0 0 0 1
9626eb809db4acda3aba720d43d05679d7b69ff3 [FaultTracer] Extracted changes: 0 0 1 0 0 0 0 0 0 0 0 0 0 0 0 1 0 0 0 0 0 0 0 0 0 0 0 1
623b7dfd7b7fc686f69714e0e7864eac5bb08fd1 [FaultTracer] Extracted changes: 0 0 1 0 0 0 0 0 0 0 0 0 0 0 0 1 0 0 0 0 0 0 0 0 0 0 0 1
9fab1173c6f6e4b0030a568517193551ff7d242c [FaultTracer] Extracted changes: 0 0 0 0 0 0 0 0 0 0 0 0 0 0 0 0 0 0 0 0 0 0 0 0 0 0 0 0
491f596530fd0a10a65e37c438305229cffba449 [FaultTracer] Extracted changes: 0 0 0 0 0 0 0 0 0 0 0 0 0 0 0 0 0 0 0 0 0 0 0 0 0 0 0 0
093e5ec6c243619c0bbb46ab3bae815d2119995c [FaultTracer] Extracted changes: 0 0 0 0 0 0 0 0 0 0 0 0 0 0 0 0 0 0 0 0 0 0 0 0 0 0 0 0
8323e6d49950367ac9ccf97c3e0c3f4f39775c31 [FaultTracer] Extracted changes: 0 0 8 1 0 0 1 0 0 1 0 0 4 1 3 10 0 0 1 0 0 1 0 0 1 1 2 6
a5c7ec127a49b27e6cf344c3f52c35273d8737e8 [FaultTracer] Extracted changes: 0 0 0 0 0 0 0 0 0 0 0 0 0 0 0 0 0 0 0 0 0 0 0 0 0 0 0 0
0030dcfcab06e0d3e1fd72f6fdd7735a9818b726 [FaultTracer] Extracted changes: 0 0 14 0 0 0 0 0 0 0 0 0 0 20 8 3 0 0 0 0 0 0 0 0 0 6 8 3
6d5f38a1c47f845774f7c57d8869bd25a3ea169c [FaultTracer] Extracted changes: 0 0 4 0 0 0 0 0 0 0 0 0 0 0 3 2 0 0 0 0 0 0 0 0 0 0 3 1
b0ff4f3ae253bb93e8b8e2b106c6b51bf7421d62 [FaultTracer] Extracted changes: 0 0 8 0 0 0 0 0 0 0 0 0 0 0 0 0 0 0 0 0 0 0 0 0 0 0 0 0
00802e4550d5ee0fa68491834121972cd459dcf1 [FaultTracer] Extracted changes: 0 0 3 0 0 0 0 0 0 1 0 0 0 0 0 3 0 0 0 0 0 1 0 0 0 0 0 3
e606ae4f955ab4c57f8e52bd7a1086706d40ade7 [FaultTracer] Extracted changes: 0 0 1 0 0 0 0 0 0 1 0 0 0 0 0 2 0 0 0 0 0 1 0 0 0 0 0 1
