fd1fe23207de4d42d3e7ff3683481c8a705d97c7 [FaultTracer] Extracted changes: 0 0 0 0 0 0 0 0 0 0 0 0 0 0 0 0 0 0 0 0 0 0 0 0 0 0 0 0
b20f2b6b8b9838455d755c989a44c0d8cf9969b8 [FaultTracer] Extracted changes: 0 0 0 0 0 0 0 0 0 0 0 0 0 0 0 0 0 0 0 0 0 0 0 0 0 0 0 0
d63796c223a7a33675766dc24baeae51c9031b48 [FaultTracer] Extracted changes: 0 0 0 0 0 0 0 0 0 0 0 0 0 0 0 0 0 0 0 0 0 0 0 0 0 0 0 0
70468776bb6c74e15c53cce95e10aa1d42ab1915 [FaultTracer] Extracted changes: 0 0 1 0 0 1 0 0 0 0 0 0 2 0 0 0 0 1 0 0 0 0 0 0 1 0 0 0
ca3f5b5206b490f43b48148ead0dddaf3f6113f2 [FaultTracer] Extracted changes: 0 0 0 0 0 0 0 0 0 0 0 0 0 0 0 0 0 0 0 0 0 0 0 0 0 0 0 0
2a266856a64fc11c438b8dce218cc0a8a4c29d7d [FaultTracer] Extracted changes: 0 0 0 0 0 0 0 0 0 0 0 0 0 0 0 0 0 0 0 0 0 0 0 0 0 0 0 0
3871ceb0c53702fb0cb0989435feb7aa654c4358 [FaultTracer] Extracted changes: 0 0 1 0 0 0 0 0 0 0 0 0 0 0 0 2 0 0 0 0 0 0 0 0 0 0 0 1
577f8890eed88cdc186b0998bb3c3c523a78983f [FaultTracer] Extracted changes: 0 0 2 0 0 0 0 0 0 0 0 0 0 0 0 3 0 0 0 0 0 0 0 0 0 0 0 2
5655f7cdf6cdfa68b7358817dd36cafb824d5c51 [FaultTracer] Extracted changes: 0 1 6 3 0 0 0 0 0 0 0 0 0 0 0 5 0 0 0 0 0 0 0 0 0 0 0 3
53bcb414225423b8c00f0bd608edb459e6762698 [FaultTracer] Extracted changes: 1 0 6 3 0 0 0 0 0 0 0 0 0 0 0 5 0 0 0 0 0 0 0 0 0 0 0 3
fd5b99cb18fd3f3b8a73ca1a0b30031dce6c8190 [FaultTracer] Extracted changes: 0 0 1 0 0 0 0 0 0 0 0 0 0 0 0 2 0 0 0 0 0 0 0 0 0 0 0 1
f66fa51bb3bb83fa5b112fe0671a8c8193252754 [FaultTracer] Extracted changes: 0 0 0 0 0 0 0 0 0 0 0 0 0 0 0 0 0 0 0 0 0 0 0 0 0 0 0 0
d58dab4d63bf14e1228801b4652f31594eff384e [FaultTracer] Extracted changes: 0 0 0 0 0 0 0 0 0 0 0 0 0 0 0 0 0 0 0 0 0 0 0 0 0 0 0 0
7bb3f8691e76bd8876d8293bcb63b90e91f66b20 [FaultTracer] Extracted changes: 0 0 0 0 0 0 0 0 0 0 0 0 0 0 0 0 0 0 0 0 0 0 0 0 0 0 0 0
31c657cd6a76b713ee05bdc60b8fe4eca639caeb [FaultTracer] Extracted changes: 0 0 0 0 0 0 0 0 0 0 0 0 0 0 0 0 0 0 0 0 0 0 0 0 0 0 0 0
4c2fd9d3d86457ba53b074a14629d7e5ecb49c30 [FaultTracer] Extracted changes: 0 0 2 0 0 0 0 0 1 0 0 0 0 1 2 1 0 0 0 0 1 0 0 0 0 1 2 1
370d4b8c6eb9b3b88171d90e4e10b6bac45e60b2 [FaultTracer] Extracted changes: 0 0 4 0 0 0 0 1 0 0 0 0 0 2 5 1 0 0 0 1 0 0 0 0 0 2 3 1
921139fb8d06e85e2a50157a3c108b28308874a5 [FaultTracer] Extracted changes: 0 9 4 0 0 0 0 0 1 0 0 0 0 5 2 2 0 0 0 0 1 0 0 0 0 3 2 1
af4f0b4aec44db04dfabd2d1bb35c427ae693cff [FaultTracer] Extracted changes: 9 0 4 0 0 0 0 1 0 0 0 0 0 2 5 2 0 0 0 1 0 0 0 0 0 2 3 1
b96c3e9a356cbb3ddca4304c835ddd930df60073 [FaultTracer] Extracted changes: 0 9 5 0 0 0 0 0 1 0 0 0 0 5 2 3 0 0 0 0 1 0 0 0 0 3 2 2
369cb506b02427bc5e635059b15a6afa69e1c712 [FaultTracer] Extracted changes: 9 1 9 3 0 0 0 1 0 0 0 0 0 2 5 6 0 0 0 1 0 0 0 0 0 2 3 3
5d8a523155cb8b3dc7772168fa23de59b985d155 [FaultTracer] Extracted changes: 0 9 3 0 0 0 0 0 1 0 0 0 0 1 2 3 0 0 0 0 1 0 0 0 0 1 2 2
d2b12ab63325d99d2a830227b209aa2165a38267 [FaultTracer] Extracted changes: 0 0 0 0 0 0 0 0 0 0 0 0 0 0 0 0 0 0 0 0 0 0 0 0 0 0 0 0
fd068b2e9def971001ea5902efd4b2596050bf3a [FaultTracer] Extracted changes: 0 0 0 0 0 0 0 0 0 0 0 0 0 0 0 0 0 0 0 0 0 0 0 0 0 0 0 0
f6f02ea2764e65747a4cd135ef87f0105d96ec0b [FaultTracer] Extracted changes: 0 0 0 0 0 0 0 0 0 0 0 0 0 0 0 0 0 0 0 0 0 0 0 0 0 0 0 0
720e56852af4e33e591b1297bcdabf54a046179a [FaultTracer] Extracted changes: 0 0 1 0 0 0 0 0 0 0 0 0 0 0 0 1 0 0 0 0 0 0 0 0 0 0 0 1
6f92ea04b0aad2f54f99263f1d763d9ec5a54eb3 [FaultTracer] Extracted changes: 0 0 0 0 0 0 0 0 0 0 0 0 0 0 0 0 0 0 0 0 0 0 0 0 0 0 0 0
fe5122ff98d83adfbf3e5a20e3ac7616accf0713 [FaultTracer] Extracted changes: 0 0 0 0 0 0 0 0 0 0 0 0 0 0 0 0 0 0 0 0 0 0 0 0 0 0 0 0
edb26e243b774adacef87c16e30f1b30c926b439 [FaultTracer] Extracted changes: 0 0 0 0 0 0 0 0 0 0 0 0 0 0 0 0 0 0 0 0 0 0 0 0 0 0 0 0
ca8795844af8fc10b8a979bd1c265376d843e6c7 [FaultTracer] Extracted changes: 0 0 2 0 0 0 0 0 1 2 0 0 0 0 1 3 0 0 0 0 1 2 0 0 0 0 1 1
6892254209fd5ceec47b51e2635becc94e801dfa [FaultTracer] Extracted changes: 0 0 0 0 0 0 0 0 0 0 0 0 0 0 0 0 0 0 0 0 0 0 0 0 0 0 0 0
80a29bfd281b5613160cfc140a35231e2bb907e5 [FaultTracer] Extracted changes: 0 1 4 0 0 0 0 0 0 0 3 0 2 0 0 4 0 0 0 0 0 0 1 0 1 0 0 2
fc66d1e37763fc666703bd0c9a8e94dadc574eaa [FaultTracer] Extracted changes: 0 0 5 0 0 0 0 0 0 0 0 0 1 0 2 3 0 0 0 0 0 0 0 0 1 0 1 3
9401bfa2dbefa4c98d37d6bf1afc41568a4bffe4 [FaultTracer] Extracted changes: 0 0 1 0 0 0 0 0 0 0 0 0 0 0 0 1 0 0 0 0 0 0 0 0 0 0 0 1
d9f3b688b61166499cfbcdea08b6ecb1ec894ee5 [FaultTracer] Extracted changes: 0 0 4 0 0 0 0 0 0 0 0 1 0 0 7 0 0 0 0 0 0 0 0 1 0 0 3 0
000b707794cb29db89bea97b26410c4cf3d3a2d3 [FaultTracer] Extracted changes: 0 0 0 0 0 0 0 0 0 0 0 0 0 0 0 0 0 0 0 0 0 0 0 0 0 0 0 0
c179d5e1b4e0a9ffefc6dcb52d9f62c21af377cd [FaultTracer] Extracted changes: 0 0 0 0 0 0 0 0 0 0 0 0 0 0 0 0 0 0 0 0 0 0 0 0 0 0 0 0
cfa26bc7953125507a1a4b082039b13c57fe0cde [FaultTracer] Extracted changes: 0 0 0 0 0 0 0 0 0 0 0 0 0 0 0 0 0 0 0 0 0 0 0 0 0 0 0 0
a1f5a372a41b99b2b08fb4567ad4198a3269955d [FaultTracer] Extracted changes: 0 0 0 0 0 0 0 0 0 0 0 0 0 0 0 0 0 0 0 0 0 0 0 0 0 0 0 0
3351abf58a8877c1f830487741f3c76a904c4516 [FaultTracer] Extracted changes: 0 0 6 0 0 0 1 0 0 7 0 0 0 0 0 0 0 0 1 0 0 5 0 0 0 0 0 0
be65149cc1d14a5b19ba72abf202c6ae3d36bf69 [FaultTracer] Extracted changes: 0 0 8 0 0 0 1 0 0 7 0 0 1 0 0 1 0 0 1 0 0 5 0 0 1 0 0 1
21d4b49918efe3e178a9a51cb5466a0602816483 [FaultTracer] Extracted changes: 0 0 8 0 0 0 1 0 0 7 0 0 1 0 0 1 0 0 1 0 0 5 0 0 1 0 0 1
598b396e93221ffb7373c95ec760c2fec07601a9 [FaultTracer] Extracted changes: 0 0 2 0 0 0 0 0 0 0 0 0 1 0 0 1 0 0 0 0 0 0 0 0 1 0 0 1
c926ba239587cf10207ad2a48fbba5af135a78bc [FaultTracer] Extracted changes: 0 0 0 0 0 0 0 0 0 0 0 0 0 0 0 0 0 0 0 0 0 0 0 0 0 0 0 0
de9f59c65b85ff56646cb8ece5a5e0890005b534 [FaultTracer] Extracted changes: 0 0 0 0 0 0 0 0 0 0 0 0 0 0 0 0 0 0 0 0 0 0 0 0 0 0 0 0
4c0bc5efb8a30672f1d8977dad0a66c343a14d43 [FaultTracer] Extracted changes: 0 0 16 0 0 2 3 0 0 7 3 4 1 0 0 15 0 2 3 0 0 5 1 1 1 0 0 12
f99d54359f5037e645173bf7e88820c7f0342e0a [FaultTracer] Extracted changes: 0 0 8 0 0 0 1 0 0 7 0 0 1 0 0 1 0 0 1 0 0 5 0 0 1 0 0 1
