[INFO] Scanning for projects...
[WARNING] 
[WARNING] Some problems were encountered while building the effective model for com.clearspring.analytics:stream:jar:2.8.0-SNAPSHOT
[WARNING] 'build.plugins.plugin.version' for org.apache.maven.plugins:maven-compiler-plugin is missing. @ line 83, column 15
[WARNING] 'build.plugins.plugin.version' for org.apache.maven.plugins:maven-jar-plugin is missing. @ line 132, column 15
[WARNING] 'build.plugins.plugin.version' for org.apache.maven.plugins:maven-source-plugin is missing. @ line 93, column 15
[WARNING] 'build.plugins.plugin.version' for org.apache.maven.plugins:maven-javadoc-plugin is missing. @ line 106, column 15
[WARNING] 
[WARNING] It is highly recommended to fix these problems because they threaten the stability of your build.
[WARNING] 
[WARNING] For this reason, future Maven versions might no longer support building such malformed projects.
[WARNING] 
[INFO]                                                                         
[INFO] ------------------------------------------------------------------------
[INFO] Building stream-lib 2.8.0-SNAPSHOT
[INFO] ------------------------------------------------------------------------
[INFO] 
[INFO] --- maven-enforcer-plugin:1.3.1:enforce (enforce-maven) @ stream ---
[INFO] 
[INFO] --- maven-resources-plugin:2.6:resources (default-resources) @ stream ---
[INFO] Using 'UTF-8' encoding to copy filtered resources.
[INFO] skip non existing resourceDirectory /home/lingming/hybrid-rts/subjects/stream-lib/86ec626601cc140529a34a6c3579bcffef0bc7c7/src/main/resources
[INFO] 
[INFO] --- maven-compiler-plugin:3.1:compile (default-compile) @ stream ---
[INFO] Nothing to compile - all classes are up to date
[INFO] 
[INFO] --- maven-resources-plugin:2.6:testResources (default-testResources) @ stream ---
[INFO] Using 'UTF-8' encoding to copy filtered resources.
[INFO] Copying 1 resource
[INFO] 
[INFO] --- maven-compiler-plugin:3.1:testCompile (default-testCompile) @ stream ---
[INFO] Nothing to compile - all classes are up to date
[INFO] 
[INFO] --- maven-surefire-plugin:2.19.1:test (default-test) @ stream ---

-------------------------------------------------------
 T E S T S
-------------------------------------------------------
Running com.clearspring.analytics.hash.TestMurmurHash
Tests run: 2, Failures: 0, Errors: 0, Skipped: 0, Time elapsed: 0.034 sec - in com.clearspring.analytics.hash.TestMurmurHash
Running com.clearspring.analytics.hash.TestLookup3Hash
Tests run: 2, Failures: 0, Errors: 0, Skipped: 0, Time elapsed: 0.014 sec - in com.clearspring.analytics.hash.TestLookup3Hash
Running com.clearspring.analytics.stream.TestConcurrentStreamSummary
Geometric:
0
1
2
3
4
[(24964: 0, e: 0),(18579: 1, e: 0),(14288: 2, e: 0),(10518: 3, e: 0),(7966: 4, e: 0),(5870: 5, e: 0),(4500: 6, e: 2580),(4439: 7, e: 4435),(4437: 9, e: 4436),(4439: 11, e: 4437)]
[(1: X, e: 0)]
[(2: X, e: 0)]
[(2: X, e: 0),(1: Y, e: 0)]
[(2: X, e: 0),(1: Y, e: 0),(1: Z, e: 0)]
[(2: X, e: 0),(2: A, e: 1),(1: Z, e: 0)]
[(2: X, e: 0),(2: A, e: 1),(2: B, e: 1)]
[(2: A, e: 1),(2: B, e: 1),(3: C, e: 2)]
[(3: X, e: 2),(2: B, e: 1),(3: C, e: 2)]
[(4: X, e: 2),(2: B, e: 1),(3: C, e: 2)]
[(4: X, e: 2),(3: A, e: 2),(3: C, e: 2)]
[(4: X, e: 2),(4: A, e: 2),(3: C, e: 2)]
[(4: X, e: 2),(5: A, e: 2),(3: C, e: 2)]
Tests run: 4, Failures: 0, Errors: 0, Skipped: 0, Time elapsed: 0.049 sec - in com.clearspring.analytics.stream.TestConcurrentStreamSummary
Running com.clearspring.analytics.stream.quantile.TDigestTest
# big 4506 bytes
# small 4506 bytes
# 2.909732us per point
# 852 centroids
quantile	2	0.001000	0.000016	-0.000010	-0.000010	0.009705
quantile	2	0.010000	0.000266	0.000044	-0.000435	0.043495
quantile	2	0.100000	0.001111	0.000777	0.004654	0.046542
quantile	2	0.200000	0.001048	-0.000857	-0.001655	0.008276
quantile	2	0.300000	0.001002	-0.005428	0.000597	0.001990
quantile	2	0.500000	0.002338	0.003358	0.003051	0.006103
cdf	2	0.001000	-0.000030	0.000006	0.000007	0.007173
cdf	2	0.010000	-0.000190	-0.000059	-0.000113	0.011324
cdf	2	0.100000	-0.001070	-0.000102	0.000222	0.002223
cdf	2	0.200000	-0.000950	0.000023	0.000353	0.001763
cdf	2	0.300000	-0.001110	-0.000750	0.000273	0.000909
cdf	2	0.500000	-0.002440	-0.000864	-0.000272	0.000543
quantile	5	0.001000	0.000219	-0.000003	-0.000011	0.010649
quantile	5	0.010000	-0.000117	0.000098	0.000045	0.004465
quantile	5	0.100000	0.000243	0.001113	-0.002944	0.029439
quantile	5	0.200000	-0.000056	0.001307	-0.003135	0.015673
quantile	5	0.300000	0.001073	-0.004081	0.004474	0.014913
quantile	5	0.500000	0.000891	0.001368	0.007740	0.015480
cdf	5	0.001000	-0.000230	0.000003	-0.000000	0.000326
cdf	5	0.010000	0.000100	-0.000003	-0.000015	0.001527
cdf	5	0.100000	-0.000190	-0.000116	-0.000473	0.004729
cdf	5	0.200000	0.000080	0.000001	-0.000456	0.002279
cdf	5	0.300000	-0.001230	-0.000538	0.000510	0.001699
cdf	5	0.500000	-0.001030	-0.000623	0.000738	0.001476
quantile	10	0.001000	-0.000128	-0.000037	-0.000050	0.050407
quantile	10	0.010000	-0.000259	-0.000004	-0.000040	0.003989
quantile	10	0.100000	-0.000484	0.000241	-0.004207	0.042075
quantile	10	0.200000	0.000581	0.000904	0.004575	0.022875
quantile	10	0.300000	0.002187	-0.001809	-0.001842	0.006141
quantile	10	0.500000	0.001205	-0.006186	-0.000823	0.001645
cdf	10	0.001000	0.000200	0.000002	0.000002	0.002264
cdf	10	0.010000	0.000290	-0.000030	-0.000054	0.005396
cdf	10	0.100000	0.000460	-0.000012	-0.000392	0.003918
cdf	10	0.200000	-0.000430	-0.000150	0.000170	0.000852
cdf	10	0.300000	-0.001990	0.000204	0.000320	0.001068
cdf	10	0.500000	-0.001250	-0.000520	0.001075	0.002150
quantile	20	0.001000	0.000025	-0.000027	-0.000002	0.001728
quantile	20	0.010000	0.000322	-0.000206	-0.000173	0.017287
quantile	20	0.100000	0.002969	0.000448	0.002265	0.022655
quantile	20	0.200000	0.001274	0.001016	0.001852	0.009260
quantile	20	0.300000	0.001187	-0.001313	-0.008982	0.029940
quantile	20	0.500000	-0.000285	-0.007642	0.009524	0.019049
cdf	20	0.001000	-0.000010	-0.000006	-0.000009	0.009441
cdf	20	0.010000	-0.000230	-0.000004	0.000018	0.001779
cdf	20	0.100000	-0.002640	-0.000046	0.000029	0.000293
cdf	20	0.200000	-0.001180	-0.000029	0.000119	0.000597
cdf	20	0.300000	-0.001140	-0.000393	-0.000328	0.001094
cdf	20	0.500000	0.000280	-0.000307	0.000501	0.001002
quantile	50	0.001000	-0.000204	-0.000024	-0.000024	0.023554
quantile	50	0.010000	-0.000009	-0.000031	-0.000050	0.004963
quantile	50	0.100000	-0.000574	0.000184	-0.002290	0.022904
quantile	50	0.200000	-0.000751	0.003277	0.004192	0.020962
quantile	50	0.300000	-0.001017	-0.000319	-0.013869	0.046229
quantile	50	0.500000	0.001029	0.000874	-0.001055	0.002110
cdf	50	0.001000	0.000160	0.000004	0.000006	0.006369
cdf	50	0.010000	0.000010	-0.000002	0.000001	0.000121
cdf	50	0.100000	0.000500	0.000019	-0.000006	0.000060
cdf	50	0.200000	0.000670	0.000385	0.000404	0.002021
cdf	50	0.300000	0.001220	-0.000565	-0.000313	0.001045
cdf	50	0.500000	-0.001130	0.000013	-0.000580	0.001159
quantile	100	0.001000	0.000135	-0.000056	-0.000035	0.035088
quantile	100	0.010000	0.000331	-0.000006	0.000042	0.004232
quantile	100	0.100000	0.000658	0.000751	0.001020	0.010201
quantile	100	0.200000	0.001183	0.000756	0.000565	0.002827
quantile	100	0.300000	0.000474	-0.000654	-0.000943	0.003144
quantile	100	0.500000	0.000067	-0.001080	0.008411	0.016823
cdf	100	0.001000	-0.000120	0.000007	-0.000003	0.003304
cdf	100	0.010000	-0.000390	-0.000030	-0.000038	0.003778
cdf	100	0.100000	-0.000540	-0.000041	0.000067	0.000668
cdf	100	0.200000	-0.001170	0.000323	-0.000462	0.002312
cdf	100	0.300000	-0.000430	-0.000095	0.000176	0.000586
cdf	100	0.500000	-0.000110	-0.000300	0.002432	0.004864
# 1.501887us per point
# 847 centroids
# 1.474058us per point
# 835 centroids
# 2.223862us per point
# 863 centroids
gamma	2	0.00100000	0.0008800000000	0.9978500000	188	108
gamma	2	0.01000000	-0.01000000000	0.9888500000	188	108
gamma	2	0.10000000	0.07174000000	0.8999900000	188	108
gamma	2	0.20000000	0.1724300000	0.7999900000	188	108
gamma	2	0.30000000	0.1041400000	0.6999900000	188	108
gamma	2	0.50000000	0.03798000000	0.4999900000	188	108
gamma	2	0.70000000	-0.0005100000000	0.3000000000	188	108
gamma	2	0.80000000	-0.8000000000	0.2000000000	188	108
gamma	2	0.90000000	0.06937000000	0.1000000000	188	108
gamma	2	0.99000000	0.008020000000	0.01000000000	188	108
gamma	2	0.99900000	-0.0009000000000	0.001000000000	188	108
gamma	5	0.00100000	0.0001700000000	0.8822200000	388	236
gamma	5	0.01000000	0.0006500000000	0.8732200000	388	236
gamma	5	0.10000000	-0.1000000000	0.8305100000	388	236
gamma	5	0.20000000	0.01033000000	0.7305100000	388	236
gamma	5	0.30000000	-0.3000000000	0.6676200000	388	236
gamma	5	0.50000000	0.02103000000	0.4903500000	388	236
gamma	5	0.70000000	0.01584000000	0.2988100000	388	236
gamma	5	0.80000000	0.01627000000	0.1999700000	388	236
gamma	5	0.90000000	0.02333000000	0.1000000000	388	236
gamma	5	0.99000000	0.001340000000	0.01000000000	388	236
gamma	5	0.99900000	9.000000000e-05	0.001000000000	388	236
gamma	10	0.00100000	7.000000000e-05	0.5141300000	664	444
gamma	10	0.01000000	-0.01000000000	0.5051300000	664	444
gamma	10	0.10000000	0.0003100000000	0.4521400000	664	444
gamma	10	0.20000000	0.005280000000	0.3914600000	664	444
gamma	10	0.30000000	-0.3000000000	0.3343500000	664	444
gamma	10	0.50000000	-0.5000000000	0.2752200000	664	444
gamma	10	0.70000000	0.009810000000	0.2663400000	664	444
gamma	10	0.80000000	0.001900000000	0.1905100000	664	444
gamma	10	0.90000000	-0.005280000000	0.09881000000	664	444
gamma	10	0.99000000	-0.002390000000	0.01000000000	664	444
gamma	10	0.99900000	-4.000000000e-05	0.001000000000	664	444
gamma	20	0.00100000	-0.001000000000	0.1919400000	1164	796
gamma	20	0.01000000	-0.003830000000	0.1974700000	1164	796
gamma	20	0.10000000	0.001700000000	0.1383700000	1164	796
gamma	20	0.20000000	2.000000000e-05	0.09286000000	1164	796
gamma	20	0.30000000	-0.003600000000	0.06034000000	1164	796
gamma	20	0.50000000	-0.002320000000	0.01227000000	1164	796
gamma	20	0.70000000	0.009350000000	0.02505000000	1164	796
gamma	20	0.80000000	-0.004190000000	0.02755000000	1164	796
gamma	20	0.90000000	0.004210000000	0.02793000000	1164	796
gamma	20	0.99000000	0.0005600000000	0.01000000000	1164	796
gamma	20	0.99900000	0.000000000	0.001000000000	1164	796
gamma	50	0.00100000	-1.000000000e-05	-0.001000000000	2463	2300
gamma	50	0.01000000	0.0001700000000	-0.01000000000	2463	2300
gamma	50	0.10000000	0.0006200000000	0.02740000000	2463	2300
gamma	50	0.20000000	-0.02591000000	0.007310000000	2463	2300
gamma	50	0.30000000	0.002660000000	0.007160000000	2463	2300
gamma	50	0.50000000	-0.02686000000	0.01387000000	2463	2300
gamma	50	0.70000000	0.0009500000000	0.005920000000	2463	2300
gamma	50	0.80000000	0.0004200000000	0.006990000000	2463	2300
gamma	50	0.90000000	-0.0007400000000	0.008450000000	2463	2300
gamma	50	0.99000000	0.0003400000000	0.01000000000	2463	2300
gamma	50	0.99900000	-5.000000000e-05	0.001000000000	2463	2300
gamma	100	0.00100000	0.000000000	-0.001000000000	4533	4188
gamma	100	0.01000000	0.0002200000000	-0.01000000000	4533	4188
gamma	100	0.10000000	-0.0009200000000	0.006220000000	4533	4188
gamma	100	0.20000000	-0.003420000000	0.02312000000	4533	4188
gamma	100	0.30000000	0.0001900000000	0.005820000000	4533	4188
gamma	100	0.50000000	-0.002890000000	0.01392000000	4533	4188
gamma	100	0.70000000	0.001640000000	0.01071000000	4533	4188
gamma	100	0.80000000	0.001210000000	0.005350000000	4533	4188
gamma	100	0.90000000	0.0005600000000	0.007760000000	4533	4188
gamma	100	0.99000000	-1.000000000e-05	0.008670000000	4533	4188
gamma	100	0.99900000	-3.000000000e-05	0.001000000000	4533	4188
gamma	200	0.00100000	-1.500000000e-05	-0.001000000000	8014	9084
gamma	200	0.01000000	-7.000000000e-05	-0.01000000000	8014	9084
gamma	200	0.10000000	-0.0002100000000	0.003170000000	8014	9084
gamma	200	0.20000000	0.000000000	0.001210000000	8014	9084
gamma	200	0.30000000	0.002030000000	0.001060000000	8014	9084
gamma	200	0.50000000	-0.0006200000000	0.002060000000	8014	9084
gamma	200	0.70000000	0.000000000	0.006730000000	8014	9084
gamma	200	0.80000000	-0.0002800000000	0.007980000000	8014	9084
gamma	200	0.90000000	-9.000000000e-05	0.002970000000	8014	9084
gamma	200	0.99000000	-5.000000000e-05	0.0005300000000	8014	9084
gamma	200	0.99900000	-1.500000000e-05	0.001000000000	8014	9084
gamma	500	0.00100000	-1.500000000e-05	-0.001000000000	17230	21100
gamma	500	0.01000000	-3.000000000e-05	-0.01000000000	17230	21100
gamma	500	0.10000000	-0.0003100000000	0.001570000000	17230	21100
gamma	500	0.20000000	-7.000000000e-05	0.002780000000	17230	21100
gamma	500	0.30000000	-0.0004200000000	0.002590000000	17230	21100
gamma	500	0.50000000	-0.0002000000000	0.001220000000	17230	21100
gamma	500	0.70000000	0.001160000000	0.003070000000	17230	21100
gamma	500	0.80000000	0.0003100000000	0.0005600000000	17230	21100
gamma	500	0.90000000	-0.0001400000000	0.004470000000	17230	21100
gamma	500	0.99000000	-4.000000000e-05	0.002720000000	17230	21100
gamma	500	0.99900000	-1.500000000e-05	0.0009600000000	17230	21100
gamma	1000	0.00100000	-1.500000000e-05	-0.001000000000	30626	46892
gamma	1000	0.01000000	-4.000000000e-05	-0.01000000000	30626	46892
gamma	1000	0.10000000	4.000000000e-05	0.0005500000000	30626	46892
gamma	1000	0.20000000	-0.0001800000000	0.001490000000	30626	46892
gamma	1000	0.30000000	6.000000000e-05	0.0006500000000	30626	46892
gamma	1000	0.50000000	-0.0003300000000	0.001440000000	30626	46892
gamma	1000	0.70000000	-0.0001400000000	0.001480000000	30626	46892
gamma	1000	0.80000000	-2.000000000e-05	0.0004600000000	30626	46892
gamma	1000	0.90000000	1.000000000e-05	0.0009300000000	30626	46892
gamma	1000	0.99000000	-5.000000000e-05	0.0003500000000	30626	46892
gamma	1000	0.99900000	-1.500000000e-05	0.001000000000	30626	46892
gamma	2000	0.00100000	-1.500000000e-05	-0.001000000000	54881	88108
gamma	2000	0.01000000	-1.500000000e-05	-0.01000000000	54881	88108
gamma	2000	0.10000000	3.000000000e-05	0.0004400000000	54881	88108
gamma	2000	0.20000000	-0.0001000000000	0.0007700000000	54881	88108
gamma	2000	0.30000000	0.0002500000000	0.0008000000000	54881	88108
gamma	2000	0.50000000	5.000000000e-05	0.001020000000	54881	88108
gamma	2000	0.70000000	-0.0001700000000	0.001030000000	54881	88108
gamma	2000	0.80000000	-3.000000000e-05	0.0009800000000	54881	88108
gamma	2000	0.90000000	-6.000000000e-05	0.0004600000000	54881	88108
gamma	2000	0.99000000	-1.500000000e-05	0.0005300000000	54881	88108
gamma	2000	0.99900000	-1.500000000e-05	0.0008000000000	54881	88108
uniform	2	0.00100000	-0.0003800000000	0.2494600000	179	124
uniform	2	0.01000000	-0.009380000000	0.2404600000	179	124
uniform	2	0.10000000	0.02127000000	0.4002600000	179	124
uniform	2	0.20000000	-0.02844000000	0.3002600000	179	124
uniform	2	0.30000000	-0.04303000000	0.2002600000	179	124
uniform	2	0.50000000	-0.1464900000	0.0002600000000	179	124
uniform	2	0.70000000	-0.04894000000	0.3000000000	179	124
uniform	2	0.80000000	-0.03059000000	0.2000000000	179	124
uniform	2	0.90000000	-0.01745000000	0.1000000000	179	124
uniform	2	0.99000000	0.0004700000000	0.01000000000	179	124
uniform	2	0.99900000	0.0002400000000	0.001000000000	179	124
uniform	5	0.00100000	-0.0002300000000	0.1240900000	385	268
uniform	5	0.01000000	-0.003830000000	0.1150900000	385	268
uniform	5	0.10000000	-0.001980000000	0.02509000000	385	268
uniform	5	0.20000000	-0.03871000000	0.05050000000	385	268
uniform	5	0.30000000	0.04497000000	0.07565000000	385	268
uniform	5	0.50000000	0.1473700000	0.0009300000000	385	268
uniform	5	0.70000000	0.0002100000000	0.04944000000	385	268
uniform	5	0.80000000	-0.007560000000	0.07550000000	385	268
uniform	5	0.90000000	0.06830000000	0.1000000000	385	268
uniform	5	0.99000000	0.002160000000	0.01000000000	385	268
uniform	5	0.99900000	-7.000000000e-05	0.001000000000	385	268
uniform	10	0.00100000	-0.0001300000000	0.06288000000	622	460
uniform	10	0.01000000	0.0007100000000	0.05388000000	622	460
uniform	10	0.10000000	0.003620000000	0.02666000000	622	460
uniform	10	0.20000000	-0.007800000000	0.05005000000	622	460
uniform	10	0.30000000	0.01425000000	0.01329000000	622	460
uniform	10	0.50000000	-0.02350000000	0.06310000000	622	460
uniform	10	0.70000000	0.04107000000	0.05098000000	622	460
uniform	10	0.80000000	-0.04723000000	0.01500000000	622	460
uniform	10	0.90000000	-0.01329000000	0.03921000000	622	460
uniform	10	0.99000000	-0.001410000000	0.01000000000	622	460
uniform	10	0.99900000	6.000000000e-05	0.001000000000	622	460
uniform	20	0.00100000	-0.0001100000000	0.06097000000	1114	908
uniform	20	0.01000000	-0.0002300000000	0.05197000000	1114	908
uniform	20	0.10000000	-0.004450000000	0.02562000000	1114	908
uniform	20	0.20000000	-0.003820000000	0.05008000000	1114	908
uniform	20	0.30000000	0.006590000000	0.07421000000	1114	908
uniform	20	0.50000000	-0.03528000000	0.03168000000	1114	908
uniform	20	0.70000000	-0.008910000000	0.05160000000	1114	908
uniform	20	0.80000000	-0.009070000000	0.07568000000	1114	908
uniform	20	0.90000000	-0.004470000000	0.03771000000	1114	908
uniform	20	0.99000000	-0.0002300000000	0.01000000000	1114	908
uniform	20	0.99900000	0.0001200000000	0.001000000000	1114	908
uniform	50	0.00100000	-8.000000000e-05	0.01441000000	2460	2428
uniform	50	0.01000000	1.000000000e-05	0.005410000000	2460	2428
uniform	50	0.10000000	0.0007000000000	0.009500000000	2460	2428
uniform	50	0.20000000	0.003660000000	0.004310000000	2460	2428
uniform	50	0.30000000	-0.01139000000	0.01324000000	2460	2428
uniform	50	0.50000000	0.005480000000	0.01406000000	2460	2428
uniform	50	0.70000000	0.009270000000	0.003420000000	2460	2428
uniform	50	0.80000000	-0.003900000000	0.01305000000	2460	2428
uniform	50	0.90000000	0.0008600000000	0.006450000000	2460	2428
uniform	50	0.99000000	7.000000000e-05	0.01000000000	2460	2428
uniform	50	0.99900000	-3.000000000e-05	0.001000000000	2460	2428
uniform	100	0.00100000	-4.000000000e-05	0.006550000000	4398	4812
uniform	100	0.01000000	-9.000000000e-05	0.005800000000	4398	4812
uniform	100	0.10000000	-0.0007000000000	0.001750000000	4398	4812
uniform	100	0.20000000	0.0004000000000	0.002210000000	4398	4812
uniform	100	0.30000000	-0.002120000000	0.002940000000	4398	4812
uniform	100	0.50000000	-0.001510000000	0.006930000000	4398	4812
uniform	100	0.70000000	-0.002000000000	0.002910000000	4398	4812
uniform	100	0.80000000	-0.001500000000	0.004430000000	4398	4812
uniform	100	0.90000000	-0.003180000000	0.006540000000	4398	4812
uniform	100	0.99000000	0.000000000	0.01000000000	4398	4812
uniform	100	0.99900000	-2.000000000e-05	0.001000000000	4398	4812
uniform	200	0.00100000	-1.500000000e-05	0.002880000000	8112	8908
uniform	200	0.01000000	-5.000000000e-05	0.001520000000	8112	8908
uniform	200	0.10000000	-0.001280000000	0.003960000000	8112	8908
uniform	200	0.20000000	-0.0003400000000	0.001110000000	8112	8908
uniform	200	0.30000000	-0.0002400000000	0.002290000000	8112	8908
uniform	200	0.50000000	0.0001100000000	0.003620000000	8112	8908
uniform	200	0.70000000	-0.0002100000000	0.003050000000	8112	8908
uniform	200	0.80000000	-4.000000000e-05	0.004470000000	8112	8908
uniform	200	0.90000000	-0.0005000000000	0.005230000000	8112	8908
uniform	200	0.99000000	2.000000000e-05	0.002170000000	8112	8908
uniform	200	0.99900000	-1.500000000e-05	0.001000000000	8112	8908
uniform	500	0.00100000	-1.500000000e-05	0.0009800000000	17356	23132
uniform	500	0.01000000	-3.000000000e-05	0.001630000000	17356	23132
uniform	500	0.10000000	-2.000000000e-05	0.0003400000000	17356	23132
uniform	500	0.20000000	8.000000000e-05	0.002140000000	17356	23132
uniform	500	0.30000000	0.0005900000000	0.003700000000	17356	23132
uniform	500	0.50000000	0.0002800000000	0.0009100000000	17356	23132
uniform	500	0.70000000	-0.0001600000000	0.001520000000	17356	23132
uniform	500	0.80000000	8.000000000e-05	0.002240000000	17356	23132
uniform	500	0.90000000	0.0001400000000	0.001060000000	17356	23132
uniform	500	0.99000000	-7.000000000e-05	0.002440000000	17356	23132
uniform	500	0.99900000	-1.500000000e-05	0.001000000000	17356	23132
uniform	1000	0.00100000	-1.500000000e-05	9.000000000e-05	30666	46076
uniform	1000	0.01000000	-3.000000000e-05	0.001090000000	30666	46076
uniform	1000	0.10000000	-0.0001800000000	0.0005900000000	30666	46076
uniform	1000	0.20000000	0.0001400000000	0.001230000000	30666	46076
uniform	1000	0.30000000	0.0005200000000	0.0007400000000	30666	46076
uniform	1000	0.50000000	-0.0002900000000	0.001030000000	30666	46076
uniform	1000	0.70000000	0.0001700000000	0.0008900000000	30666	46076
uniform	1000	0.80000000	0.0001300000000	0.001000000000	30666	46076
uniform	1000	0.90000000	0.0001800000000	0.001330000000	30666	46076
uniform	1000	0.99000000	0.000000000	0.002180000000	30666	46076
uniform	1000	0.99900000	-1.500000000e-05	0.001000000000	30666	46076
uniform	2000	0.00100000	-1.500000000e-05	0.0001100000000	54811	88156
uniform	2000	0.01000000	-1.500000000e-05	0.0007600000000	54811	88156
uniform	2000	0.10000000	-1.000000000e-05	0.0006200000000	54811	88156
uniform	2000	0.20000000	-0.0002600000000	0.0007000000000	54811	88156
uniform	2000	0.30000000	-6.000000000e-05	0.0009300000000	54811	88156
uniform	2000	0.50000000	-0.0002100000000	0.0009000000000	54811	88156
uniform	2000	0.70000000	6.000000000e-05	0.001610000000	54811	88156
uniform	2000	0.80000000	0.0002800000000	0.001970000000	54811	88156
uniform	2000	0.90000000	-6.000000000e-05	0.001120000000	54811	88156
uniform	2000	0.99000000	-1.500000000e-05	0.001240000000	54811	88156
uniform	2000	0.99900000	-1.500000000e-05	0.001000000000	54811	88156
# 25.297918us per point
# 4693 centroids
Tests run: 11, Failures: 0, Errors: 0, Skipped: 1, Time elapsed: 15.568 sec - in com.clearspring.analytics.stream.quantile.TDigestTest
Running com.clearspring.analytics.stream.quantile.QDigestTest
a: 0 .. 0: 3, 1 .. 1: 3
b: 0 .. 0: 4, 1 .. 1: 1, 0 .. 3: 1
ab: 0 .. 0: 4, 1 .. 1: 1, 0 .. 1: 6, 0 .. 3: 1
c: 0 .. 0: 7, 1 .. 1: 4, 0 .. 3: 1
Tests run: 3, Failures: 0, Errors: 0, Skipped: 0, Time elapsed: 0.444 sec - in com.clearspring.analytics.stream.quantile.QDigestTest
Running com.clearspring.analytics.stream.quantile.GroupTreeTest
0:0.0(1)	1:0.0(1)	2:1.0(1)	3:1.0(1)	4:2.0(1)	5:2.5(2)	6:3.0(1)	7:3.0(1)	8:4.0(1)	9:4.0(1)	10:5.0(1)	Tests run: 6, Failures: 0, Errors: 0, Skipped: 0, Time elapsed: 0.109 sec - in com.clearspring.analytics.stream.quantile.GroupTreeTest
Running com.clearspring.analytics.stream.frequency.ConservativeAddSketchTest
Confidence : 1.0   Errors : 0  Error margin : 7501
Total error : 13117189  Average error : 874
Beat base for : 99 percent of values with a total delta of 22878077
Confidence : 1.0   Errors : 0  Error margin : 101
Total error : 15152649  Average error : 16
Beat base for : 100 percent of values with a total delta of 20592081
Tests run: 3, Failures: 0, Errors: 0, Skipped: 0, Time elapsed: 4.354 sec - in com.clearspring.analytics.stream.frequency.ConservativeAddSketchTest
Running com.clearspring.analytics.stream.frequency.CountMinSketchTest
1.0
Tests run: 5, Failures: 0, Errors: 0, Skipped: 0, Time elapsed: 8.721 sec - in com.clearspring.analytics.stream.frequency.CountMinSketchTest
Running com.clearspring.analytics.stream.TestStochasticTopper
Gaussian:
5
3
-2
8
12
Geometric:
0
1
3
2
4
Zipfian:
1
2
4
8
2147483647
0: 25025
1: 19039
2: 14045
3: 10360
4: 7945
5: 5811
6: 4578
7: 3339
8: 2493
9: 1845
10: 1399
11: 1005
12: 787
13: 569
14: 416
15: 332
16: 264
17: 178
18: 149
19: 99
2147483638: 0
2147483639: 0
2147483640: 0
2147483641: 0
2147483642: 0
2147483643: 0
2147483644: 0
2147483645: 0
2147483646: 0
2147483647: 0
Tests run: 4, Failures: 0, Errors: 0, Skipped: 0, Time elapsed: 0.1 sec - in com.clearspring.analytics.stream.TestStochasticTopper
Running com.clearspring.analytics.stream.cardinality.TestAdaptiveCounting
Tests run: 6, Failures: 0, Errors: 0, Skipped: 1, Time elapsed: 0.415 sec - in com.clearspring.analytics.stream.cardinality.TestAdaptiveCounting
Running com.clearspring.analytics.stream.cardinality.TestLogLog
Baseline estimate: 5001151
time: 1158
0.0105275
time: 18153
100000000
98586386
0.01413614
Tests run: 5, Failures: 0, Errors: 0, Skipped: 1, Time elapsed: 19.529 sec - in com.clearspring.analytics.stream.cardinality.TestLogLog
Running com.clearspring.analytics.stream.cardinality.TestCountThenEstimate
Tests run: 7, Failures: 0, Errors: 0, Skipped: 0, Time elapsed: 0.083 sec - in com.clearspring.analytics.stream.cardinality.TestCountThenEstimate
Running com.clearspring.analytics.stream.cardinality.TestHyperLogLog
Baseline estimate: 5021641
Expect estimate: 5021641 is between 4939062.5 and 5060937.5
time: 1247
0.0624098
time: 12566
0.00624345
Tests run: 8, Failures: 0, Errors: 0, Skipped: 1, Time elapsed: 14.104 sec - in com.clearspring.analytics.stream.cardinality.TestHyperLogLog
Running com.clearspring.analytics.stream.cardinality.TestHyperLogLogPlus
Size: 13726
4-16: 0
4-17: 0
4-18: 0
4-19: 0
4-20: 0
4-21: 0
4-22: 0
4-23: 0
4-24: 0
4-25: 0
4-26: 0
4-27: 0
4-28: 0
4-29: 0
4-30: 0
4-31: 0
4-32: 0
5-16: 0
5-17: 0
5-18: 0
5-19: 0
5-20: 0
5-21: 0
5-22: 0
5-23: 0
5-24: 0
5-25: 0
5-26: 0
5-27: 0
5-28: 0
5-29: 0
5-30: 0
5-31: 0
5-32: 0
6-16: 0
6-17: 0
6-18: 0
6-19: 0
6-20: 0
6-21: 0
6-22: 0
6-23: 0
6-24: 0
6-25: 0
6-26: 0
6-27: 0
6-28: 0
6-29: 0
6-30: 0
6-31: 0
6-32: 0
7-16: 0
7-17: 0
7-18: 0
7-19: 0
7-20: 0
7-21: 0
7-22: 0
7-23: 0
7-24: 0
7-25: 0
7-26: 0
7-27: 0
7-28: 0
7-29: 0
7-30: 0
7-31: 0
7-32: 0
8-16: 0
8-17: 0
8-18: 0
8-19: 0
8-20: 0
8-21: 0
8-22: 0
8-23: 0
8-24: 0
8-25: 0
8-26: 0
8-27: 0
8-28: 0
8-29: 0
8-30: 0
8-31: 0
8-32: 0
9-16: 0
9-17: 0
9-18: 0
9-19: 0
9-20: 0
9-21: 0
9-22: 0
9-23: 0
9-24: 0
9-25: 0
9-26: 0
9-27: 0
9-28: 0
9-29: 0
9-30: 0
9-31: 0
9-32: 0
10-16: 0
10-17: 0
10-18: 0
10-19: 0
10-20: 0
10-21: 0
10-22: 0
10-23: 0
10-24: 0
10-25: 0
10-26: 0
10-27: 0
10-28: 0
10-29: 0
10-30: 0
10-31: 0
10-32: 0
11-16: 0
11-17: 0
11-18: 0
11-19: 0
11-20: 0
11-21: 0
11-22: 0
11-23: 0
11-24: 0
11-25: 0
11-26: 0
11-27: 0
11-28: 0
11-29: 0
11-30: 0
11-31: 0
11-32: 0
12-16: 0
12-17: 0
12-18: 0
12-19: 0
12-20: 0
12-21: 0
12-22: 0
12-23: 0
12-24: 0
12-25: 0
12-26: 0
12-27: 0
12-28: 0
12-29: 0
12-30: 0
12-31: 0
12-32: 0
13-16: 0
13-17: 0
13-18: 0
13-19: 0
13-20: 0
13-21: 0
13-22: 0
13-23: 0
13-24: 0
13-25: 0
13-26: 0
13-27: 0
13-28: 0
13-29: 0
13-30: 0
13-31: 0
13-32: 0
14-16: 0
14-17: 0
14-18: 0
14-19: 0
14-20: 0
14-21: 0
14-22: 0
14-23: 0
14-24: 0
14-25: 0
14-26: 0
14-27: 0
14-28: 0
14-29: 0
14-30: 0
14-31: 0
14-32: 0
15-16: 0
15-17: 0
15-18: 0
15-19: 0
15-20: 0
15-21: 0
15-22: 0
15-23: 0
15-24: 0
15-25: 0
15-26: 0
15-27: 0
15-28: 0
15-29: 0
15-30: 0
15-31: 0
15-32: 0
16-16: 0
16-17: 0
16-18: 0
16-19: 0
16-20: 0
16-21: 0
16-22: 0
16-23: 0
16-24: 0
16-25: 0
16-26: 0
16-27: 0
16-28: 0
16-29: 0
16-30: 0
16-31: 0
16-32: 0
17-17: 0
17-18: 0
17-19: 0
17-20: 0
17-21: 0
17-22: 0
17-23: 0
17-24: 0
17-25: 0
17-26: 0
17-27: 0
17-28: 0
17-29: 0
17-30: 0
17-31: 0
17-32: 0
18-18: 0
18-19: 0
18-20: 0
18-21: 0
18-22: 0
18-23: 0
18-24: 0
18-25: 0
18-26: 0
18-27: 0
18-28: 0
18-29: 0
18-30: 0
18-31: 0
18-32: 0
19-19: 0
19-20: 0
19-21: 0
19-22: 0
19-23: 0
19-24: 0
19-25: 0
19-26: 0
19-27: 0
19-28: 0
19-29: 0
19-30: 0
19-31: 0
19-32: 0
20-20: 0
20-21: 0
20-22: 0
20-23: 0
20-24: 0
20-25: 0
20-26: 0
20-27: 0
20-28: 0
20-29: 0
20-30: 0
20-31: 0
20-32: 0
4-16: 1
4-17: 1
4-18: 1
4-19: 1
4-20: 1
4-21: 1
4-22: 1
4-23: 1
4-24: 1
4-25: 1
4-26: 1
4-27: 1
4-28: 1
4-29: 1
4-30: 1
4-31: 1
4-32: 1
5-16: 1
5-17: 1
5-18: 1
5-19: 1
5-20: 1
5-21: 1
5-22: 1
5-23: 1
5-24: 1
5-25: 1
5-26: 1
5-27: 1
5-28: 1
5-29: 1
5-30: 1
5-31: 1
5-32: 1
6-16: 1
6-17: 1
6-18: 1
6-19: 1
6-20: 1
6-21: 1
6-22: 1
6-23: 1
6-24: 1
6-25: 1
6-26: 1
6-27: 1
6-28: 1
6-29: 1
6-30: 1
6-31: 1
6-32: 1
7-16: 1
7-17: 1
7-18: 1
7-19: 1
7-20: 1
7-21: 1
7-22: 1
7-23: 1
7-24: 1
7-25: 1
7-26: 1
7-27: 1
7-28: 1
7-29: 1
7-30: 1
7-31: 1
7-32: 1
8-16: 1
8-17: 1
8-18: 1
8-19: 1
8-20: 1
8-21: 1
8-22: 1
8-23: 1
8-24: 1
8-25: 1
8-26: 1
8-27: 1
8-28: 1
8-29: 1
8-30: 1
8-31: 1
8-32: 1
9-16: 1
9-17: 1
9-18: 1
9-19: 1
9-20: 1
9-21: 1
9-22: 1
9-23: 1
9-24: 1
9-25: 1
9-26: 1
9-27: 1
9-28: 1
9-29: 1
9-30: 1
9-31: 1
9-32: 1
10-16: 1
10-17: 1
10-18: 1
10-19: 1
10-20: 1
10-21: 1
10-22: 1
10-23: 1
10-24: 1
10-25: 1
10-26: 1
10-27: 1
10-28: 1
10-29: 1
10-30: 1
10-31: 1
10-32: 1
11-16: 1
11-17: 1
11-18: 1
11-19: 1
11-20: 1
11-21: 1
11-22: 1
11-23: 1
11-24: 1
11-25: 1
11-26: 1
11-27: 1
11-28: 1
11-29: 1
11-30: 1
11-31: 1
11-32: 1
12-16: 1
12-17: 1
12-18: 1
12-19: 1
12-20: 1
12-21: 1
12-22: 1
12-23: 1
12-24: 1
12-25: 1
12-26: 1
12-27: 1
12-28: 1
12-29: 1
12-30: 1
12-31: 1
12-32: 1
13-16: 1
13-17: 1
13-18: 1
13-19: 1
13-20: 1
13-21: 1
13-22: 1
13-23: 1
13-24: 1
13-25: 1
13-26: 1
13-27: 1
13-28: 1
13-29: 1
13-30: 1
13-31: 1
13-32: 1
14-16: 1
14-17: 1
14-18: 1
14-19: 1
14-20: 1
14-21: 1
14-22: 1
14-23: 1
14-24: 1
14-25: 1
14-26: 1
14-27: 1
14-28: 1
14-29: 1
14-30: 1
14-31: 1
14-32: 1
15-16: 1
15-17: 1
15-18: 1
15-19: 1
15-20: 1
15-21: 1
15-22: 1
15-23: 1
15-24: 1
15-25: 1
15-26: 1
15-27: 1
15-28: 1
15-29: 1
15-30: 1
15-31: 1
15-32: 1
16-16: 1
16-17: 1
16-18: 1
16-19: 1
16-20: 1
16-21: 1
16-22: 1
16-23: 1
16-24: 1
16-25: 1
16-26: 1
16-27: 1
16-28: 1
16-29: 1
16-30: 1
16-31: 1
16-32: 1
17-17: 1
17-18: 1
17-19: 1
17-20: 1
17-21: 1
17-22: 1
17-23: 1
17-24: 1
17-25: 1
17-26: 1
17-27: 1
17-28: 1
17-29: 1
17-30: 1
17-31: 1
17-32: 1
18-18: 1
18-19: 1
18-20: 1
18-21: 1
18-22: 1
18-23: 1
18-24: 1
18-25: 1
18-26: 1
18-27: 1
18-28: 1
18-29: 1
18-30: 1
18-31: 1
18-32: 1
19-19: 1
19-20: 1
19-21: 1
19-22: 1
19-23: 1
19-24: 1
19-25: 1
19-26: 1
19-27: 1
19-28: 1
19-29: 1
19-30: 1
19-31: 1
19-32: 1
20-20: 1
20-21: 1
20-22: 1
20-23: 1
20-24: 1
20-25: 1
20-26: 1
20-27: 1
20-28: 1
20-29: 1
20-30: 1
20-31: 1
20-32: 1
4-16: 10
4-17: 10
4-18: 10
4-19: 10
4-20: 10
4-21: 10
4-22: 10
4-23: 10
4-24: 10
4-25: 10
4-26: 10
4-27: 10
4-28: 10
4-29: 10
4-30: 10
4-31: 10
4-32: 10
5-16: 10
5-17: 10
5-18: 10
5-19: 10
5-20: 10
5-21: 10
5-22: 10
5-23: 10
5-24: 10
5-25: 10
5-26: 10
5-27: 10
5-28: 10
5-29: 10
5-30: 10
5-31: 10
5-32: 10
6-16: 10
6-17: 10
6-18: 10
6-19: 10
6-20: 10
6-21: 10
6-22: 10
6-23: 10
6-24: 10
6-25: 10
6-26: 10
6-27: 10
6-28: 10
6-29: 10
6-30: 10
6-31: 10
6-32: 10
7-16: 10
7-17: 10
7-18: 10
7-19: 10
7-20: 10
7-21: 10
7-22: 10
7-23: 10
7-24: 10
7-25: 10
7-26: 10
7-27: 10
7-28: 10
7-29: 10
7-30: 10
7-31: 10
7-32: 10
8-16: 10
8-17: 10
8-18: 10
8-19: 10
8-20: 10
8-21: 10
8-22: 10
8-23: 10
8-24: 10
8-25: 10
8-26: 10
8-27: 10
8-28: 10
8-29: 10
8-30: 10
8-31: 10
8-32: 10
9-16: 10
9-17: 10
9-18: 10
9-19: 10
9-20: 10
9-21: 10
9-22: 10
9-23: 10
9-24: 10
9-25: 10
9-26: 10
9-27: 10
9-28: 10
9-29: 10
9-30: 10
9-31: 10
9-32: 10
10-16: 10
10-17: 10
10-18: 10
10-19: 10
10-20: 10
10-21: 10
10-22: 10
10-23: 10
10-24: 10
10-25: 10
10-26: 10
10-27: 10
10-28: 10
10-29: 10
10-30: 10
10-31: 10
10-32: 10
11-16: 10
11-17: 10
11-18: 10
11-19: 10
11-20: 10
11-21: 10
11-22: 10
11-23: 10
11-24: 10
11-25: 10
11-26: 10
11-27: 10
11-28: 10
11-29: 10
11-30: 10
11-31: 10
11-32: 10
12-16: 10
12-17: 10
12-18: 10
12-19: 10
12-20: 10
12-21: 10
12-22: 10
12-23: 10
12-24: 10
12-25: 10
12-26: 10
12-27: 10
12-28: 10
12-29: 10
12-30: 10
12-31: 10
12-32: 10
13-16: 10
13-17: 10
13-18: 10
13-19: 10
13-20: 10
13-21: 10
13-22: 10
13-23: 10
13-24: 10
13-25: 10
13-26: 10
13-27: 10
13-28: 10
13-29: 10
13-30: 10
13-31: 10
13-32: 10
14-16: 10
14-17: 10
14-18: 10
14-19: 10
14-20: 10
14-21: 10
14-22: 10
14-23: 10
14-24: 10
14-25: 10
14-26: 10
14-27: 10
14-28: 10
14-29: 10
14-30: 10
14-31: 10
14-32: 10
15-16: 10
15-17: 10
15-18: 10
15-19: 10
15-20: 10
15-21: 10
15-22: 10
15-23: 10
15-24: 10
15-25: 10
15-26: 10
15-27: 10
15-28: 10
15-29: 10
15-30: 10
15-31: 10
15-32: 10
16-16: 10
16-17: 10
16-18: 10
16-19: 10
16-20: 10
16-21: 10
16-22: 10
16-23: 10
16-24: 10
16-25: 10
16-26: 10
16-27: 10
16-28: 10
16-29: 10
16-30: 10
16-31: 10
16-32: 10
17-17: 10
17-18: 10
17-19: 10
17-20: 10
17-21: 10
17-22: 10
17-23: 10
17-24: 10
17-25: 10
17-26: 10
17-27: 10
17-28: 10
17-29: 10
17-30: 10
17-31: 10
17-32: 10
18-18: 10
18-19: 10
18-20: 10
18-21: 10
18-22: 10
18-23: 10
18-24: 10
18-25: 10
18-26: 10
18-27: 10
18-28: 10
18-29: 10
18-30: 10
18-31: 10
18-32: 10
19-19: 10
19-20: 10
19-21: 10
19-22: 10
19-23: 10
19-24: 10
19-25: 10
19-26: 10
19-27: 10
19-28: 10
19-29: 10
19-30: 10
19-31: 10
19-32: 10
20-20: 10
20-21: 10
20-22: 10
20-23: 10
20-24: 10
20-25: 10
20-26: 10
20-27: 10
20-28: 10
20-29: 10
20-30: 10
20-31: 10
20-32: 10
4-16: 100
4-17: 100
4-18: 100
4-19: 100
4-20: 100
4-21: 100
4-22: 100
4-23: 100
4-24: 100
4-25: 100
4-26: 100
4-27: 100
4-28: 100
4-29: 100
4-30: 100
4-31: 100
4-32: 100
5-16: 100
5-17: 100
5-18: 100
5-19: 100
5-20: 100
5-21: 100
5-22: 100
5-23: 100
5-24: 100
5-25: 100
5-26: 100
5-27: 100
5-28: 100
5-29: 100
5-30: 100
5-31: 100
5-32: 100
6-16: 100
6-17: 100
6-18: 100
6-19: 100
6-20: 100
6-21: 100
6-22: 100
6-23: 100
6-24: 100
6-25: 100
6-26: 100
6-27: 100
6-28: 100
6-29: 100
6-30: 100
6-31: 100
6-32: 100
7-16: 100
7-17: 100
7-18: 100
7-19: 100
7-20: 100
7-21: 100
7-22: 100
7-23: 100
7-24: 100
7-25: 100
7-26: 100
7-27: 100
7-28: 100
7-29: 100
7-30: 100
7-31: 100
7-32: 100
8-16: 100
8-17: 100
8-18: 100
8-19: 100
8-20: 100
8-21: 100
8-22: 100
8-23: 100
8-24: 100
8-25: 100
8-26: 100
8-27: 100
8-28: 100
8-29: 100
8-30: 100
8-31: 100
8-32: 100
9-16: 100
9-17: 100
9-18: 100
9-19: 100
9-20: 100
9-21: 100
9-22: 100
9-23: 100
9-24: 100
9-25: 100
9-26: 100
9-27: 100
9-28: 100
9-29: 100
9-30: 100
9-31: 100
9-32: 100
10-16: 100
10-17: 100
10-18: 100
10-19: 100
10-20: 100
10-21: 100
10-22: 100
10-23: 100
10-24: 100
10-25: 100
10-26: 100
10-27: 100
10-28: 100
10-29: 100
10-30: 100
10-31: 100
10-32: 100
11-16: 100
11-17: 100
11-18: 100
11-19: 100
11-20: 100
11-21: 100
11-22: 100
11-23: 100
11-24: 100
11-25: 100
11-26: 100
11-27: 100
11-28: 100
11-29: 100
11-30: 100
11-31: 100
11-32: 100
12-16: 100
12-17: 100
12-18: 100
12-19: 100
12-20: 100
12-21: 100
12-22: 100
12-23: 100
12-24: 100
12-25: 100
12-26: 100
12-27: 100
12-28: 100
12-29: 100
12-30: 100
12-31: 100
12-32: 100
13-16: 100
13-17: 100
13-18: 100
13-19: 100
13-20: 100
13-21: 100
13-22: 100
13-23: 100
13-24: 100
13-25: 100
13-26: 100
13-27: 100
13-28: 100
13-29: 100
13-30: 100
13-31: 100
13-32: 100
14-16: 100
14-17: 100
14-18: 100
14-19: 100
14-20: 100
14-21: 100
14-22: 100
14-23: 100
14-24: 100
14-25: 100
14-26: 100
14-27: 100
14-28: 100
14-29: 100
14-30: 100
14-31: 100
14-32: 100
15-16: 100
15-17: 100
15-18: 100
15-19: 100
15-20: 100
15-21: 100
15-22: 100
15-23: 100
15-24: 100
15-25: 100
15-26: 100
15-27: 100
15-28: 100
15-29: 100
15-30: 100
15-31: 100
15-32: 100
16-16: 100
16-17: 100
16-18: 100
16-19: 100
16-20: 100
16-21: 100
16-22: 100
16-23: 100
16-24: 100
16-25: 100
16-26: 100
16-27: 100
16-28: 100
16-29: 100
16-30: 100
16-31: 100
16-32: 100
17-17: 100
17-18: 100
17-19: 100
17-20: 100
17-21: 100
17-22: 100
17-23: 100
17-24: 100
17-25: 100
17-26: 100
17-27: 100
17-28: 100
17-29: 100
17-30: 100
17-31: 100
17-32: 100
18-18: 100
18-19: 100
18-20: 100
18-21: 100
18-22: 100
18-23: 100
18-24: 100
18-25: 100
18-26: 100
18-27: 100
18-28: 100
18-29: 100
18-30: 100
18-31: 100
18-32: 100
19-19: 100
19-20: 100
19-21: 100
19-22: 100
19-23: 100
19-24: 100
19-25: 100
19-26: 100
19-27: 100
19-28: 100
19-29: 100
19-30: 100
19-31: 100
19-32: 100
20-20: 100
20-21: 100
20-22: 100
20-23: 100
20-24: 100
20-25: 100
20-26: 100
20-27: 100
20-28: 100
20-29: 100
20-30: 100
20-31: 100
20-32: 100
4-16: 1000
4-17: 1000
4-18: 1000
4-19: 1000
4-20: 1000
4-21: 1000
4-22: 1000
4-23: 1000
4-24: 1000
4-25: 1000
4-26: 1000
4-27: 1000
4-28: 1000
4-29: 1000
4-30: 1000
4-31: 1000
4-32: 1000
5-16: 1000
5-17: 1000
5-18: 1000
5-19: 1000
5-20: 1000
5-21: 1000
5-22: 1000
5-23: 1000
5-24: 1000
5-25: 1000
5-26: 1000
5-27: 1000
5-28: 1000
5-29: 1000
5-30: 1000
5-31: 1000
5-32: 1000
6-16: 1000
6-17: 1000
6-18: 1000
6-19: 1000
6-20: 1000
6-21: 1000
6-22: 1000
6-23: 1000
6-24: 1000
6-25: 1000
6-26: 1000
6-27: 1000
6-28: 1000
6-29: 1000
6-30: 1000
6-31: 1000
6-32: 1000
7-16: 1000
7-17: 1000
7-18: 1000
7-19: 1000
7-20: 1000
7-21: 1000
7-22: 1000
7-23: 1000
7-24: 1000
7-25: 1000
7-26: 1000
7-27: 1000
7-28: 1000
7-29: 1000
7-30: 1000
7-31: 1000
7-32: 1000
8-16: 1000
8-17: 1000
8-18: 1000
8-19: 1000
8-20: 1000
8-21: 1000
8-22: 1000
8-23: 1000
8-24: 1000
8-25: 1000
8-26: 1000
8-27: 1000
8-28: 1000
8-29: 1000
8-30: 1000
8-31: 1000
8-32: 1000
9-16: 1000
9-17: 1000
9-18: 1000
9-19: 1000
9-20: 1000
9-21: 1000
9-22: 1000
9-23: 1000
9-24: 1000
9-25: 1000
9-26: 1000
9-27: 1000
9-28: 1000
9-29: 1000
9-30: 1000
9-31: 1000
9-32: 1000
10-16: 1000
10-17: 1000
10-18: 1000
10-19: 1000
10-20: 1000
10-21: 1000
10-22: 1000
10-23: 1000
10-24: 1000
10-25: 1000
10-26: 1000
10-27: 1000
10-28: 1000
10-29: 1000
10-30: 1000
10-31: 1000
10-32: 1000
11-16: 1000
11-17: 1000
11-18: 1000
11-19: 1000
11-20: 1000
11-21: 1000
11-22: 1000
11-23: 1000
11-24: 1000
11-25: 1000
11-26: 1000
11-27: 1000
11-28: 1000
11-29: 1000
11-30: 1000
11-31: 1000
11-32: 1000
12-16: 1000
12-17: 1000
12-18: 1000
12-19: 1000
12-20: 1000
12-21: 1000
12-22: 1000
12-23: 1000
12-24: 1000
12-25: 1000
12-26: 1000
12-27: 1000
12-28: 1000
12-29: 1000
12-30: 1000
12-31: 1000
12-32: 1000
13-16: 1000
13-17: 1000
13-18: 1000
13-19: 1000
13-20: 1000
13-21: 1000
13-22: 1000
13-23: 1000
13-24: 1000
13-25: 1000
13-26: 1000
13-27: 1000
13-28: 1000
13-29: 1000
13-30: 1000
13-31: 1000
13-32: 1000
14-16: 1000
14-17: 1000
14-18: 1000
14-19: 1000
14-20: 1000
14-21: 1000
14-22: 1000
14-23: 1000
14-24: 1000
14-25: 1000
14-26: 1000
14-27: 1000
14-28: 1000
14-29: 1000
14-30: 1000
14-31: 1000
14-32: 1000
15-16: 1000
15-17: 1000
15-18: 1000
15-19: 1000
15-20: 1000
15-21: 1000
15-22: 1000
15-23: 1000
15-24: 1000
15-25: 1000
15-26: 1000
15-27: 1000
15-28: 1000
15-29: 1000
15-30: 1000
15-31: 1000
15-32: 1000
16-16: 1000
16-17: 1000
16-18: 1000
16-19: 1000
16-20: 1000
16-21: 1000
16-22: 1000
16-23: 1000
16-24: 1000
16-25: 1000
16-26: 1000
16-27: 1000
16-28: 1000
16-29: 1000
16-30: 1000
16-31: 1000
16-32: 1000
17-17: 1000
17-18: 1000
17-19: 1000
17-20: 1000
17-21: 1000
17-22: 1000
17-23: 1000
17-24: 1000
17-25: 1000
17-26: 1000
17-27: 1000
17-28: 1000
17-29: 1000
17-30: 1000
17-31: 1000
17-32: 1000
18-18: 1000
18-19: 1000
18-20: 1000
18-21: 1000
18-22: 1000
18-23: 1000
18-24: 1000
18-25: 1000
18-26: 1000
18-27: 1000
18-28: 1000
18-29: 1000
18-30: 1000
18-31: 1000
18-32: 1000
19-19: 1000
19-20: 1000
19-21: 1000
19-22: 1000
19-23: 1000
19-24: 1000
19-25: 1000
19-26: 1000
19-27: 1000
19-28: 1000
19-29: 1000
19-30: 1000
19-31: 1000
19-32: 1000
20-20: 1000
20-21: 1000
20-22: 1000
20-23: 1000
20-24: 1000
20-25: 1000
20-26: 1000
20-27: 1000
20-28: 1000
20-29: 1000
20-30: 1000
20-31: 1000
20-32: 1000
4-16: 10000
4-17: 10000
4-18: 10000
4-19: 10000
4-20: 10000
4-21: 10000
4-22: 10000
4-23: 10000
4-24: 10000
4-25: 10000
4-26: 10000
4-27: 10000
4-28: 10000
4-29: 10000
4-30: 10000
4-31: 10000
4-32: 10000
5-16: 10000
5-17: 10000
5-18: 10000
5-19: 10000
5-20: 10000
5-21: 10000
5-22: 10000
5-23: 10000
5-24: 10000
5-25: 10000
5-26: 10000
5-27: 10000
5-28: 10000
5-29: 10000
5-30: 10000
5-31: 10000
5-32: 10000
6-16: 10000
6-17: 10000
6-18: 10000
6-19: 10000
6-20: 10000
6-21: 10000
6-22: 10000
6-23: 10000
6-24: 10000
6-25: 10000
6-26: 10000
6-27: 10000
6-28: 10000
6-29: 10000
6-30: 10000
6-31: 10000
6-32: 10000
7-16: 10000
7-17: 10000
7-18: 10000
7-19: 10000
7-20: 10000
7-21: 10000
7-22: 10000
7-23: 10000
7-24: 10000
7-25: 10000
7-26: 10000
7-27: 10000
7-28: 10000
7-29: 10000
7-30: 10000
7-31: 10000
7-32: 10000
8-16: 10000
8-17: 10000
8-18: 10000
8-19: 10000
8-20: 10000
8-21: 10000
8-22: 10000
8-23: 10000
8-24: 10000
8-25: 10000
8-26: 10000
8-27: 10000
8-28: 10000
8-29: 10000
8-30: 10000
8-31: 10000
8-32: 10000
9-16: 10000
9-17: 10000
9-18: 10000
9-19: 10000
9-20: 10000
9-21: 10000
9-22: 10000
9-23: 10000
9-24: 10000
9-25: 10000
9-26: 10000
9-27: 10000
9-28: 10000
9-29: 10000
9-30: 10000
9-31: 10000
9-32: 10000
10-16: 10000
10-17: 10000
10-18: 10000
10-19: 10000
10-20: 10000
10-21: 10000
10-22: 10000
10-23: 10000
10-24: 10000
10-25: 10000
10-26: 10000
10-27: 10000
10-28: 10000
10-29: 10000
10-30: 10000
10-31: 10000
10-32: 10000
11-16: 10000
11-17: 10000
11-18: 10000
11-19: 10000
11-20: 10000
11-21: 10000
11-22: 10000
11-23: 10000
11-24: 10000
11-25: 10000
11-26: 10000
11-27: 10000
11-28: 10000
11-29: 10000
11-30: 10000
11-31: 10000
11-32: 10000
12-16: 10000
12-17: 10000
12-18: 10000
12-19: 10000
12-20: 10000
12-21: 10000
12-22: 10000
12-23: 10000
12-24: 10000
12-25: 10000
12-26: 10000
12-27: 10000
12-28: 10000
12-29: 10000
12-30: 10000
12-31: 10000
12-32: 10000
13-16: 10000
13-17: 10000
13-18: 10000
13-19: 10000
13-20: 10000
13-21: 10000
13-22: 10000
13-23: 10000
13-24: 10000
13-25: 10000
13-26: 10000
13-27: 10000
13-28: 10000
13-29: 10000
13-30: 10000
13-31: 10000
13-32: 10000
14-16: 10000
14-17: 10000
14-18: 10000
14-19: 10000
14-20: 10000
14-21: 10000
14-22: 10000
14-23: 10000
14-24: 10000
14-25: 10000
14-26: 10000
14-27: 10000
14-28: 10000
14-29: 10000
14-30: 10000
14-31: 10000
14-32: 10000
15-16: 10000
15-17: 10000
15-18: 10000
15-19: 10000
15-20: 10000
15-21: 10000
15-22: 10000
15-23: 10000
15-24: 10000
15-25: 10000
15-26: 10000
15-27: 10000
15-28: 10000
15-29: 10000
15-30: 10000
15-31: 10000
15-32: 10000
16-16: 10000
16-17: 10000
16-18: 10000
16-19: 10000
16-20: 10000
16-21: 10000
16-22: 10000
16-23: 10000
16-24: 10000
16-25: 10000
16-26: 10000
16-27: 10000
16-28: 10000
16-29: 10000
16-30: 10000
16-31: 10000
16-32: 10000
17-17: 10000
17-18: 10000
17-19: 10000
17-20: 10000
17-21: 10000
17-22: 10000
17-23: 10000
17-24: 10000
17-25: 10000
17-26: 10000
17-27: 10000
17-28: 10000
17-29: 10000
17-30: 10000
17-31: 10000
17-32: 10000
18-18: 10000
18-19: 10000
18-20: 10000
18-21: 10000
18-22: 10000
18-23: 10000
18-24: 10000
18-25: 10000
18-26: 10000
18-27: 10000
18-28: 10000
18-29: 10000
18-30: 10000
18-31: 10000
18-32: 10000
19-19: 10000
19-20: 10000
19-21: 10000
19-22: 10000
19-23: 10000
19-24: 10000
19-25: 10000
19-26: 10000
19-27: 10000
19-28: 10000
19-29: 10000
19-30: 10000
19-31: 10000
19-32: 10000
20-20: 10000
20-21: 10000
20-22: 10000
20-23: 10000
20-24: 10000
20-25: 10000
20-26: 10000
20-27: 10000
20-28: 10000
20-29: 10000
20-30: 10000
20-31: 10000
20-32: 10000
4-16: 100000
4-17: 100000
4-18: 100000
4-19: 100000
4-20: 100000
4-21: 100000
4-22: 100000
4-23: 100000
4-24: 100000
4-25: 100000
4-26: 100000
4-27: 100000
4-28: 100000
4-29: 100000
4-30: 100000
4-31: 100000
4-32: 100000
5-16: 100000
5-17: 100000
5-18: 100000
5-19: 100000
5-20: 100000
5-21: 100000
5-22: 100000
5-23: 100000
5-24: 100000
5-25: 100000
5-26: 100000
5-27: 100000
5-28: 100000
5-29: 100000
5-30: 100000
5-31: 100000
5-32: 100000
6-16: 100000
6-17: 100000
6-18: 100000
6-19: 100000
6-20: 100000
6-21: 100000
6-22: 100000
6-23: 100000
6-24: 100000
6-25: 100000
6-26: 100000
6-27: 100000
6-28: 100000
6-29: 100000
6-30: 100000
6-31: 100000
6-32: 100000
7-16: 100000
7-17: 100000
7-18: 100000
7-19: 100000
7-20: 100000
7-21: 100000
7-22: 100000
7-23: 100000
7-24: 100000
7-25: 100000
7-26: 100000
7-27: 100000
7-28: 100000
7-29: 100000
7-30: 100000
7-31: 100000
7-32: 100000
8-16: 100000
8-17: 100000
8-18: 100000
8-19: 100000
8-20: 100000
8-21: 100000
8-22: 100000
8-23: 100000
8-24: 100000
8-25: 100000
8-26: 100000
8-27: 100000
8-28: 100000
8-29: 100000
8-30: 100000
8-31: 100000
8-32: 100000
9-16: 100000
9-17: 100000
9-18: 100000
9-19: 100000
9-20: 100000
9-21: 100000
9-22: 100000
9-23: 100000
9-24: 100000
9-25: 100000
9-26: 100000
9-27: 100000
9-28: 100000
9-29: 100000
9-30: 100000
9-31: 100000
9-32: 100000
10-16: 100000
10-17: 100000
10-18: 100000
10-19: 100000
10-20: 100000
10-21: 100000
10-22: 100000
10-23: 100000
10-24: 100000
10-25: 100000
10-26: 100000
10-27: 100000
10-28: 100000
10-29: 100000
10-30: 100000
10-31: 100000
10-32: 100000
11-16: 100000
11-17: 100000
11-18: 100000
11-19: 100000
11-20: 100000
11-21: 100000
11-22: 100000
11-23: 100000
11-24: 100000
11-25: 100000
11-26: 100000
11-27: 100000
11-28: 100000
11-29: 100000
11-30: 100000
11-31: 100000
11-32: 100000
12-16: 100000
12-17: 100000
12-18: 100000
12-19: 100000
12-20: 100000
12-21: 100000
12-22: 100000
12-23: 100000
12-24: 100000
12-25: 100000
12-26: 100000
12-27: 100000
12-28: 100000
12-29: 100000
12-30: 100000
12-31: 100000
12-32: 100000
13-16: 100000
13-17: 100000
13-18: 100000
13-19: 100000
13-20: 100000
13-21: 100000
13-22: 100000
13-23: 100000
13-24: 100000
13-25: 100000
13-26: 100000
13-27: 100000
13-28: 100000
13-29: 100000
13-30: 100000
13-31: 100000
13-32: 100000
14-16: 100000
14-17: 100000
14-18: 100000
14-19: 100000
14-20: 100000
14-21: 100000
14-22: 100000
14-23: 100000
14-24: 100000
14-25: 100000
14-26: 100000
14-27: 100000
14-28: 100000
14-29: 100000
14-30: 100000
14-31: 100000
14-32: 100000
15-16: 100000
15-17: 100000
15-18: 100000
15-19: 100000
15-20: 100000
15-21: 100000
15-22: 100000
15-23: 100000
15-24: 100000
15-25: 100000
15-26: 100000
15-27: 100000
15-28: 100000
15-29: 100000
15-30: 100000
15-31: 100000
15-32: 100000
16-16: 100000
16-17: 100000
16-18: 100000
16-19: 100000
16-20: 100000
16-21: 100000
16-22: 100000
16-23: 100000
16-24: 100000
16-25: 100000
16-26: 100000
16-27: 100000
16-28: 100000
16-29: 100000
16-30: 100000
16-31: 100000
16-32: 100000
17-17: 100000
17-18: 100000
17-19: 100000
17-20: 100000
17-21: 100000
17-22: 100000
17-23: 100000
17-24: 100000
17-25: 100000
17-26: 100000
17-27: 100000
17-28: 100000
17-29: 100000
17-30: 100000
17-31: 100000
17-32: 100000
18-18: 100000
18-19: 100000
18-20: 100000
18-21: 100000
18-22: 100000
18-23: 100000
18-24: 100000
18-25: 100000
18-26: 100000
18-27: 100000
18-28: 100000
18-29: 100000
18-30: 100000
18-31: 100000
18-32: 100000
19-19: 100000
19-20: 100000
19-21: 100000
19-22: 100000
19-23: 100000
19-24: 100000
19-25: 100000
19-26: 100000
19-27: 100000
19-28: 100000
19-29: 100000
19-30: 100000
19-31: 100000
19-32: 100000
20-20: 100000
20-21: 100000
20-22: 100000
20-23: 100000
20-24: 100000
20-25: 100000
20-26: 100000
20-27: 100000
20-28: 100000
20-29: 100000
20-30: 100000
20-31: 100000
20-32: 100000
104408
expected: 10000000, estimate: 10021140, time: 1388
Percentage error  0.002114
Expect estimate: 70630 is between 68293.75 and 71706.25
104408
Expect estimate: 19997 is between 19878.125 and 20121.875
Expect estimate: 15997 is between 15902.5 and 16097.5
Percentage error  1.875E-4
p=4
hllcardinality=0 cardinality=0
0 : 0
p=5
hllcardinality=0 cardinality=0
0 : 0
p=6
hllcardinality=0 cardinality=0
0 : 0
p=7
hllcardinality=0 cardinality=0
0 : 0
p=8
hllcardinality=0 cardinality=0
0 : 0
p=9
hllcardinality=0 cardinality=0
0 : 0
p=10
hllcardinality=0 cardinality=0
0 : 0
p=11
hllcardinality=0 cardinality=0
0 : 0
p=12
hllcardinality=0 cardinality=0
0 : 0
p=13
hllcardinality=0 cardinality=0
0 : 0
p=14
hllcardinality=0 cardinality=0
0 : 0
p=15
hllcardinality=0 cardinality=0
0 : 0
p=16
hllcardinality=0 cardinality=0
0 : 0
p=17
hllcardinality=0 cardinality=0
0 : 0
p=18
hllcardinality=0 cardinality=0
0 : 0
p=19
hllcardinality=0 cardinality=0
0 : 0
p=20
hllcardinality=0 cardinality=0
0 : 0
p=21
hllcardinality=0 cardinality=0
0 : 0
p=22
hllcardinality=0 cardinality=0
0 : 0
p=23
hllcardinality=0 cardinality=0
0 : 0
p=4
hllcardinality=1 cardinality=1
1 : 1
p=5
hllcardinality=1 cardinality=1
1 : 1
p=6
hllcardinality=1 cardinality=1
1 : 1
p=7
hllcardinality=1 cardinality=1
1 : 1
p=8
hllcardinality=1 cardinality=1
1 : 1
p=9
hllcardinality=1 cardinality=1
1 : 1
p=10
hllcardinality=1 cardinality=1
1 : 1
p=11
hllcardinality=1 cardinality=1
1 : 1
p=12
hllcardinality=1 cardinality=1
1 : 1
p=13
hllcardinality=1 cardinality=1
1 : 1
p=14
hllcardinality=1 cardinality=1
1 : 1
p=15
hllcardinality=1 cardinality=1
1 : 1
p=16
hllcardinality=1 cardinality=1
1 : 1
p=17
hllcardinality=1 cardinality=1
1 : 1
p=18
hllcardinality=1 cardinality=1
1 : 1
p=19
hllcardinality=1 cardinality=1
1 : 1
p=20
hllcardinality=1 cardinality=1
1 : 1
p=21
hllcardinality=1 cardinality=1
1 : 1
p=22
hllcardinality=1 cardinality=1
1 : 1
p=23
hllcardinality=1 cardinality=1
1 : 1
p=4
hllcardinality=9 cardinality=10
9 : 9
p=5
hllcardinality=9 cardinality=10
9 : 9
p=6
hllcardinality=9 cardinality=10
9 : 9
p=7
hllcardinality=10 cardinality=10
10 : 10
p=8
hllcardinality=10 cardinality=10
10 : 10
p=9
hllcardinality=10 cardinality=10
10 : 10
p=10
hllcardinality=10 cardinality=10
10 : 10
p=11
hllcardinality=9 cardinality=10
9 : 9
p=12
hllcardinality=10 cardinality=10
10 : 10
p=13
hllcardinality=10 cardinality=10
10 : 10
p=14
hllcardinality=10 cardinality=10
10 : 10
p=15
hllcardinality=10 cardinality=10
10 : 10
p=16
hllcardinality=10 cardinality=10
10 : 10
p=17
hllcardinality=10 cardinality=10
10 : 10
p=18
hllcardinality=10 cardinality=10
10 : 10
p=19
hllcardinality=10 cardinality=10
10 : 10
p=20
hllcardinality=10 cardinality=10
10 : 10
p=21
hllcardinality=10 cardinality=10
10 : 10
p=22
hllcardinality=10 cardinality=10
10 : 10
p=23
hllcardinality=10 cardinality=10
10 : 10
p=4
hllcardinality=75 cardinality=100
75 : 75
p=5
hllcardinality=93 cardinality=100
93 : 93
p=6
hllcardinality=121 cardinality=100
121 : 121
p=7
hllcardinality=92 cardinality=100
92 : 92
p=8
hllcardinality=94 cardinality=100
94 : 94
p=9
hllcardinality=94 cardinality=100
94 : 94
p=10
hllcardinality=96 cardinality=100
96 : 96
p=11
hllcardinality=101 cardinality=100
101 : 101
p=12
hllcardinality=100 cardinality=100
100 : 100
p=13
hllcardinality=100 cardinality=100
100 : 100
p=14
hllcardinality=98 cardinality=100
98 : 98
p=15
hllcardinality=100 cardinality=100
100 : 100
p=16
hllcardinality=100 cardinality=100
100 : 100
p=17
hllcardinality=100 cardinality=100
100 : 100
p=18
hllcardinality=100 cardinality=100
100 : 100
p=19
hllcardinality=100 cardinality=100
100 : 100
p=20
hllcardinality=100 cardinality=100
100 : 100
p=21
hllcardinality=100 cardinality=100
100 : 100
p=22
hllcardinality=100 cardinality=100
100 : 100
p=23
hllcardinality=100 cardinality=100
100 : 100
p=4
hllcardinality=811 cardinality=1000
811 : 811
p=5
hllcardinality=867 cardinality=1000
867 : 867
p=6
hllcardinality=1003 cardinality=1000
1003 : 1003
p=7
hllcardinality=1015 cardinality=1000
1015 : 1015
p=8
hllcardinality=899 cardinality=1000
899 : 899
p=9
hllcardinality=1030 cardinality=1000
1030 : 1030
p=10
hllcardinality=1007 cardinality=1000
1007 : 1007
p=11
hllcardinality=972 cardinality=1000
972 : 972
p=12
hllcardinality=1016 cardinality=1000
1016 : 1016
p=13
hllcardinality=997 cardinality=1000
997 : 997
p=14
hllcardinality=1011 cardinality=1000
1011 : 1011
p=15
hllcardinality=995 cardinality=1000
995 : 995
p=16
hllcardinality=1002 cardinality=1000
1002 : 1002
p=17
hllcardinality=1000 cardinality=1000
1000 : 1000
p=18
hllcardinality=1002 cardinality=1000
1002 : 1002
p=19
hllcardinality=1000 cardinality=1000
1000 : 1000
p=20
hllcardinality=999 cardinality=1000
999 : 999
p=21
hllcardinality=1000 cardinality=1000
1000 : 1000
p=22
hllcardinality=1000 cardinality=1000
1000 : 1000
p=23
hllcardinality=1000 cardinality=1000
1000 : 1000
p=4
hllcardinality=13315 cardinality=10000
13315 : 13315
p=5
hllcardinality=10012 cardinality=10000
10012 : 10012
p=6
hllcardinality=10991 cardinality=10000
10991 : 10991
p=7
hllcardinality=9342 cardinality=10000
9342 : 9342
p=8
hllcardinality=10388 cardinality=10000
10388 : 10388
p=9
hllcardinality=10783 cardinality=10000
10783 : 10783
p=10
hllcardinality=10113 cardinality=10000
10113 : 10113
p=11
hllcardinality=10037 cardinality=10000
10037 : 10037
p=12
hllcardinality=9941 cardinality=10000
9941 : 9941
p=13
hllcardinality=10154 cardinality=10000
10154 : 10154
p=14
hllcardinality=10019 cardinality=10000
10019 : 10019
p=15
hllcardinality=10055 cardinality=10000
10055 : 10055
p=16
hllcardinality=9974 cardinality=10000
9974 : 9974
p=17
hllcardinality=9975 cardinality=10000
9975 : 9975
p=18
hllcardinality=9988 cardinality=10000
9988 : 9988
p=19
hllcardinality=9989 cardinality=10000
9989 : 9989
p=20
hllcardinality=10008 cardinality=10000
10008 : 10008
p=21
hllcardinality=10003 cardinality=10000
10003 : 10003
p=22
hllcardinality=10003 cardinality=10000
10003 : 10003
p=23
hllcardinality=9998 cardinality=10000
9998 : 9998
p=4
hllcardinality=96503 cardinality=100000
96503 : 96503
p=5
hllcardinality=76743 cardinality=100000
76743 : 76743
p=6
hllcardinality=91710 cardinality=100000
91710 : 91710
p=7
hllcardinality=86143 cardinality=100000
86143 : 86143
p=8
hllcardinality=97653 cardinality=100000
97653 : 97653
p=9
hllcardinality=93289 cardinality=100000
93289 : 93289
p=10
hllcardinality=99204 cardinality=100000
99204 : 99204
p=11
hllcardinality=100993 cardinality=100000
100993 : 100993
p=12
hllcardinality=99726 cardinality=100000
99726 : 99726
p=13
hllcardinality=99717 cardinality=100000
99717 : 99717
p=14
hllcardinality=99895 cardinality=100000
99895 : 99895
p=15
hllcardinality=100578 cardinality=100000
100578 : 100578
p=16
hllcardinality=100145 cardinality=100000
100145 : 100145
p=17
hllcardinality=99844 cardinality=100000
99844 : 99844
p=18
hllcardinality=99900 cardinality=100000
99900 : 99900
p=19
hllcardinality=100002 cardinality=100000
100002 : 100002
p=20
hllcardinality=99963 cardinality=100000
99963 : 99963
p=21
hllcardinality=99982 cardinality=100000
99982 : 99982
p=22
hllcardinality=99988 cardinality=100000
99988 : 99988
p=23
hllcardinality=100010 cardinality=100000
100010 : 100010
p=4
hllcardinality=625111 cardinality=1000000
625111 : 625111
p=5
hllcardinality=823320 cardinality=1000000
823320 : 823320
p=6
hllcardinality=901460 cardinality=1000000
901460 : 901460
p=7
hllcardinality=894338 cardinality=1000000
894338 : 894338
p=8
hllcardinality=954421 cardinality=1000000
954421 : 954421
p=9
hllcardinality=964021 cardinality=1000000
964021 : 964021
p=10
hllcardinality=1002219 cardinality=1000000
1002219 : 1002219
p=11
hllcardinality=1025672 cardinality=1000000
1025672 : 1025672
p=12
hllcardinality=1009842 cardinality=1000000
1009842 : 1009842
p=13
hllcardinality=987145 cardinality=1000000
987145 : 987145
p=14
hllcardinality=1003099 cardinality=1000000
1003099 : 1003099
p=15
hllcardinality=999707 cardinality=1000000
999707 : 999707
p=16
hllcardinality=998630 cardinality=1000000
998630 : 998630
p=17
hllcardinality=1002037 cardinality=1000000
1002037 : 1002037
p=18
hllcardinality=1001804 cardinality=1000000
1001804 : 1001804
p=19
hllcardinality=1003351 cardinality=1000000
1003351 : 1003351
p=20
hllcardinality=998633 cardinality=1000000
998633 : 998633
p=21
hllcardinality=1000003 cardinality=1000000
1000003 : 1000003
p=22
hllcardinality=1000268 cardinality=1000000
1000268 : 1000268
p=23
hllcardinality=999869 cardinality=1000000
999869 : 999869
Expect estimate: 199979 is between 198781.25 and 201218.75
Expect estimate: 15014 is between 14634.375 and 15365.625
Tests run: 18, Failures: 0, Errors: 0, Skipped: 0, Time elapsed: 29.989 sec - in com.clearspring.analytics.stream.cardinality.TestHyperLogLogPlus
Running com.clearspring.analytics.stream.cardinality.TestLinearCounting
Tests run: 8, Failures: 0, Errors: 0, Skipped: 0, Time elapsed: 0.008 sec - in com.clearspring.analytics.stream.cardinality.TestLinearCounting
Running com.clearspring.analytics.stream.cardinality.RegisterSetTest
Tests run: 5, Failures: 0, Errors: 0, Skipped: 0, Time elapsed: 0 sec - in com.clearspring.analytics.stream.cardinality.RegisterSetTest
Running com.clearspring.analytics.stream.cardinality.TestAndGraphResults
Tests run: 1, Failures: 0, Errors: 0, Skipped: 1, Time elapsed: 0 sec - in com.clearspring.analytics.stream.cardinality.TestAndGraphResults
Running com.clearspring.analytics.stream.cardinality.TestICardinality
size: 65536 bytes
998189
% Error: 0.18109999999999998
Tests run: 2, Failures: 0, Errors: 0, Skipped: 0, Time elapsed: 0.123 sec - in com.clearspring.analytics.stream.cardinality.TestICardinality
Running com.clearspring.analytics.stream.TestStreamSummary
Geometric:
0
1
2
3
4
[{25026:[{0:0}]},{18971:[{1:0}]},{14054:[{2:0}]},{10504:[{3:0}]},{7906:[{4:0}]},{5935:[{5:0}]},{4428:[{6:3673}]},{4393:[{7:4390}]},{4392:[{8:4389}]},{4391:[{11:4390}]}]
[{1:[{X:0}]}]
[{2:[{X:0}]}]
[{2:[{X:0}]},{1:[{Y:0}]}]
[{2:[{X:0}]},{1:[{Y:0},{Z:0}]}]
[{2:[{X:0},{A:1}]},{1:[{Z:0}]}]
[{2:[{X:0},{A:1},{B:1}]}]
[{3:[{C:2}]},{2:[{A:1},{B:1}]}]
[{3:[{C:2},{X:2}]},{2:[{B:1}]}]
[{4:[{X:2}]},{3:[{C:2}]},{2:[{B:1}]}]
[{4:[{X:2}]},{3:[{C:2},{A:2}]}]
[{4:[{X:2},{A:2}]},{3:[{C:2}]}]
[{5:[{A:2}]},{4:[{X:2}]},{3:[{C:2}]}]
Insert with counts vs. single inserts:
[{45:[{D:15}]},{25:[{C:0}]},{21:[{A:20}]}]
[{45:[{D:15}]},{25:[{C:0}]},{21:[{A:20}]}]
Tests run: 8, Failures: 0, Errors: 0, Skipped: 0, Time elapsed: 0.028 sec - in com.clearspring.analytics.stream.TestStreamSummary
Running com.clearspring.analytics.stream.TestSampleSet
Tests run: 4, Failures: 0, Errors: 0, Skipped: 0, Time elapsed: 0 sec - in com.clearspring.analytics.stream.TestSampleSet
Running com.clearspring.analytics.stream.membership.BloomFilterTest
1/11 - got 0.00883, math says 0.00819
2/11 - got 0.00445, math says 0.00509
3/11 - got 0.00231, math says 0.00314
4/11 - got 0.00178, math says 0.00194
5/11 - got 0.00105, math says 0.0012
6/11 - got 0.00117, math says 7.44E-4
7/11 - got 4.4E-4, math says 4.59E-4
8/11 - got 4.7E-4, math says 2.84E-4
9/11 - got 2.4E-4, math says 1.76E-4
10/11 - got 1.9E-4, math says 1.09E-4
11/11 - got 2.4E-4, math says 6.71E-5
expectedFalsePositiveProbability
Tests run: 15, Failures: 0, Errors: 0, Skipped: 4, Time elapsed: 4.929 sec - in com.clearspring.analytics.stream.membership.BloomFilterTest
Running com.clearspring.analytics.stream.membership.Base64Test
Tests run: 1, Failures: 0, Errors: 0, Skipped: 0, Time elapsed: 0.095 sec - in com.clearspring.analytics.stream.membership.Base64Test
Running com.clearspring.analytics.stream.membership.FilterTest
Tests run: 1, Failures: 0, Errors: 0, Skipped: 0, Time elapsed: 0.055 sec - in com.clearspring.analytics.stream.membership.FilterTest
Running com.clearspring.analytics.util.TestDoublyLinkedList
Tests run: 7, Failures: 0, Errors: 0, Skipped: 0, Time elapsed: 0.001 sec - in com.clearspring.analytics.util.TestDoublyLinkedList

Results :

Tests run: 136, Failures: 0, Errors: 0, Skipped: 9

[INFO] ------------------------------------------------------------------------
[INFO] BUILD SUCCESS
[INFO] ------------------------------------------------------------------------
[INFO] Total time: 01:40 min
[INFO] Finished at: 2017-01-05T16:43:41-06:00
[INFO] Final Memory: 29M/1930M
[INFO] ------------------------------------------------------------------------
